%!PS-Adobe-3.0 EPSF-3.0
%%BoundingBox: 0 0 496 324
%%Creator: yExport 1.5
%%Producer: org.freehep.graphicsio.ps.EPSGraphics2D Revision: 12753 
%%For: 
%%Title: 
%%CreationDate: Tuesday, May 9, 2017 1:42:17 PM CST
%%LanguageLevel: 3
%%EndComments
%%BeginProlog
100 dict dup begin

%
% File: org/freehep/graphicsio.ps/PSProlog.txt
% Author: Charles Loomis
%

% Redefinitions which save some space in the output file.  These are also
% the same as the PDF operators.
/q {gsave} def
/Q {grestore} def

/n {newpath} def
/m {moveto} def
/l {lineto} def
/c {curveto} def
/h {closepath} def

/re {4 -2 roll moveto
     dup 0 exch rlineto exch 0 rlineto
     neg 0 exch rlineto closepath} def

/f {fill} def
/f* {eofill} def
/F {gsave vg&FC fill grestore} def
/F* {gsave vg&FC eofill grestore} def

/s {closepath stroke} def
/S {stroke} def

/b {closepath gsave vg&FC fill grestore
    gsave stroke grestore newpath} def
/B {gsave vg&FC fill grestore gsave stroke grestore newpath} def
/b* {closepath gsave vg&FC eofill grestore
    gsave stroke grestore newpath} def
/B* {gsave vg&FC eofill grestore gsave stroke grestore newpath} def

/g {1 array astore /vg&fcolor exch def} def
/G {setgray} def
/k {4 array astore /vg&fcolor exch def} def
/K {setcmykcolor} def
/rg {3 array astore /vg&fcolor exch def} def
/RG {setrgbcolor} def

% Initialize the fill color.
0 0 0 rg

/vg&FC {mark vg&fcolor aload pop
        counttomark 1 eq {G} if
        counttomark 3 eq {RG} if
        counttomark 4 eq {K} if
        cleartomark } def

/vg&DFC {/vg&fcolor exch def} def

/vg&C {mark exch aload pop
       counttomark 1 eq {G} if
       counttomark 3 eq {RG} if
       counttomark 4 eq {K} if
       cleartomark } def

/w {setlinewidth} def
/j {setlinejoin} def
/J {setlinecap} def
/M {setmiterlimit} def
/d {setdash} def
/i {setflat} def

/W {clip} def
/W* {eoclip} def

% Setup the default graphics state.
% (black; 1 pt. linewidth; miter join; butt-ends; solid)
/defaultGraphicsState {0 g 1 w 0 j 0 J [] 0 d} def

% Emulation of the rectangle operators for PostScript implementations
% which do not implement all Level 2 features.  This is an INCOMPLETE
% emulation; only the "x y width height rect..." form is emulated.
/*rf {gsave newpath re fill grestore} def
/*rs {gsave newpath re stroke grestore} def
/*rc {newpath re clip} def
/rf  /rectfill where {pop /rectfill}{/*rf} ifelse load def
/rs  /rectstroke where {pop /rectstroke}{/*rs} ifelse load def
/rc  /rectclip where {pop /rectclip}{/*rc} ifelse load def

% Emulation of the selectfont operator.  This includes a 20% increase in
% the fontsize which is necessary to get sizes similar to the Java fonts.
/*sf {exch findfont exch
      dup type /arraytype eq {makefont}{scalefont} ifelse setfont} bind def
/sf /selectfont where {pop {1.2 mul selectfont}}{{1.2 mul *sf}} ifelse def

% Special version of stroke which allows the dash pattern to continue
% across path segments.  (This may be needed for PostScript although
% modern printers seem to do this correctly.)
/vg&stroke {
  currentdash pop length 0 eq
  {stroke}
  {
    currentdash /vg&doffset exch def pop
    flattenpath
    {m vg&resetdash}
    {2 copy
     currentpoint
     3 -1 roll sub dup mul
     3 1 roll sub dup mul
     add sqrt
     3 1 roll l
     currentdash 3 -1 roll add setdash}
     {}
     {h vg&resetdash}
     pathforall
     stroke
     vg&resetdash
  } ifelse
} def
/vg&resetdash {currentdash pop vg&doffset setdash} def

% Initialize variables for safety.
/delta 0 def
/xv 0 def  /yv 0 def  /width 0 def  /height 0 def

% Initialize to portrait INTERNATIONAL (Letter-height, A4-width) page.
/pw 595 def  /ph 791  def  /po true def /ftp false def

% Initialize margins to 20 points.
/ml 20 def  /mr 20 def  /mt 20 def  /mb 20 def

% Temporary matrices.
/smatrix 0 def  /nmatrix 0 def

% set page size (usage: <page width><page height> setpagesize)
/setpagesize {/ph exch def /pw exch def} def

% set page orientation (usage: portrait or landscape)
/portrait {/po true def} def
/landscape {/po false def} def

% force natural size for image (usage: naturalsize)
/naturalsize {/ftp false def} def

% resize image to fill page (usage: fittopage)
/fittopage {/ftp true def} def

% set margins of the page (usage: <left><bottom><top><right> setmargins)
/setmargins {/mr exch def /mt exch def /mb exch def /ml exch def} def

% set the graphic's size (usage: <width><height> setsize)
/setsize {/gh exch def /gw exch def} def

% set the graphic's origin (usage: <x0><y0> setorigin)
/setorigin {/gy exch def /gx exch def} def

% calculate image center
/imagecenter {pw ml sub mr sub 2 div ml add
              ph mt sub mb sub 2 div mb add} def

% calculate the necessary scaling
/imagescale {po {gw}{gh} ifelse pw ml sub mr sub div
             po {gh}{gw} ifelse ph mt sub mb sub div
             2 copy lt {exch} if pop
             ftp not {1 2 copy lt {exch} if pop} if
             1 exch div /sfactor exch def
             /gw gw sfactor mul def /gh gh sfactor mul def} def

% calculate image origin
/imageorigin {pw ml sub mr sub 2 div ml add
              po {gw}{gh} ifelse 2 div sub
              ph mt sub mb sub 2 div mb add
              po {gh}{gw} ifelse 2 div po {add}{sub} ifelse} def

% calculate the clipping origin
/cliporigin  {pw ml sub mr sub 2 div ml add
              po {gw}{gh} ifelse 2 div sub floor
              ph mt sub mb sub 2 div mb add
              po {gh}{gw} ifelse 2 div sub floor} def

% Set the clipping region to the bounding box.
/cliptobounds {cliporigin po {gw}{gh} ifelse 1 add
                          po {gh}{gw} ifelse 1 add rc} def

% set the base transformation matrix (usage: setbasematrix)
/setbasematrix {imageorigin translate
                po {0}{90} ifelse rotate
                sfactor sfactor neg scale
                /defaultmatrix matrix currentmatrix def} def

% The lower-right bias in drawing 1 pt. wide lines.
/bias  {q 0.5 0.5 translate} def
/unbias {Q} def

% Define the composite fonts used to print Unicode strings.
% Undefine particular values in an encoding array.
/vg&undef { {exch dup 3 -1 roll /.notdef put} forall } def
/vg&redef { {3 -1 roll dup 4 2 roll put} forall } def

% usage: key encoding basefontname vg&newbasefont font
/vg&newbasefont {
findfont dup length dict copy
  begin
    currentdict /FID undef
    /Encoding exch def
    dup /FontName exch def
    currentdict
  end
definefont
} def

% usage: key encoding basefontname vg&newskewedbasefont font
/vg&newskewedbasefont {
findfont dup length dict copy
  begin
    currentdict /FID undef
    /Encoding exch def
    dup /FontName exch def
    exch FontMatrix exch matrix concatmatrix /FontMatrix exch def
    currentdict
  end
definefont
} def

% usage: basekey suffix vg&nconcat name
/vg&nconcat {
  2 {dup length string cvs exch} repeat
  dup length 3 -1 roll dup length 3 -1 roll add string
  dup 0 4 -1 roll dup length 5 1 roll putinterval
  dup 4 -2 roll exch putinterval cvn
} def

%usage: fontname vg&skewmatrix matrix
/vg&skewmatrix {
findfont dup /FontInfo known
  {
    /FontInfo get dup /ItalicAngle known
    {
      [ 1 0 4 -1 roll /ItalicAngle get neg dup sin exch cos div 1 0 0 ]
    }
    {pop matrix} ifelse
  }
  {pop matrix} ifelse
} def

% usage: newfontname basefontname vg&newcompositefont --
/vg&newcompositefont {
/vg&fstyle exch def
/vg&bfont exch def
/vg&fname exch def
<<
/FontStyleBits vg&fstyle
/FontType 0
/FontMatrix matrix
/FontName vg&fname
/FMapType 2
/Encoding [ 0 1 255 {pop 6} for ]
          dup 16#00 0 put % Latin
          dup 16#03 1 put % Greek
          dup 16#20 2 put % Punctuation
          dup 16#21 3 put % Arrows
          dup 16#22 4 put % MathOps
          dup 16#27 5 put % Dingbats

/FDepVector [
vg&bfont /-UC-Latin vg&nconcat UCLatinEncoding
vg&bfont vg&newbasefont

vg&bfont vg&skewmatrix
vg&bfont /-UC-Greek vg&nconcat UCGreekEncoding
/Symbol vg&newskewedbasefont

vg&bfont /-UC-Punctuation vg&nconcat UCPunctuationEncoding
vg&bfont vg&newbasefont

/Arrows-UC findfont
/MathOps-UC findfont
/Dingbats-UC findfont
/Undefined-UC findfont ]
>>
vg&fname exch definefont pop
} def

% Null encoding vector (all elements set to .notdef)
/NullEncoding [ 256 {/.notdef} repeat ] def

% Unicode Latin encoding (unicode codes \u0000-\u00ff)
/UCLatinEncoding
  ISOLatin1Encoding dup length array copy
  dup 16#60 /grave put
  [ 16#90 16#91 16#92 16#93 16#94 16#95 16#96
    16#97 16#98 16#9a 16#9b 16#9d 16#9e 16#9f
  ] vg&undef
  def

% Unicode Greek encoding (unicode codes \u0370-\u03ff)
/UCGreekEncoding
  NullEncoding dup length array copy
  << 16#91 /Alpha    16#92 /Beta      16#93 /Gamma    16#94 /Delta
     16#95 /Epsilon  16#96 /Zeta      16#97 /Eta      16#98 /Theta
     16#99 /Iota     16#9a /Kappa     16#9b /Lambda   16#9c /Mu
     16#9d /Nu       16#9e /Xi        16#9f /Omicron  16#a0 /Pi
     16#a1 /Rho      16#a3 /Sigma     16#a4 /Tau      16#a5 /Upsilon
     16#a6 /Phi      16#a7 /Chi       16#a8 /Psi      16#a9 /Omega
     16#b1 /alpha    16#b2 /beta      16#b3 /gamma    16#b4 /delta
     16#b5 /epsilon  16#b6 /zeta      16#b7 /eta      16#b8 /theta
     16#b9 /iota     16#ba /kappa     16#bb /lambda   16#bc /mu
     16#bd /nu       16#be /xi        16#bf /omicron  16#c0 /pi
     16#c1 /rho      16#c2 /sigma1    16#c3 /sigma    16#c4 /tau
     16#c5 /upsilon  16#c6 /phi1      16#c7 /chi      16#c8 /psi
     16#c9 /omega    16#7e /semicolon 16#87 /dotmath  16#d1 /theta1
     16#d2 /Upsilon1 16#d5 /phi       16#d6 /omega1
  >> vg&redef
  def

% Unicode punctuation encoding (unicode codes \u2000-\u206f)
/UCPunctuationEncoding
  NullEncoding dup length array copy
  << 16#10 /hyphen          16#11 /hyphen              16#12 /endash
     16#13 /emdash          16#18 /quoteleft           16#19 /quoteright
     16#1a /quotesinglbase  16#1b /quotesingle         16#1c /quotedblleft
     16#1d /quotedblright   16#1e /quotedblbase        16#1f /quotedbl
     16#20 /dagger          16#21 /daggerdbl           16#22 /bullet
     16#24 /period          16#26 /ellipsis            16#27 /periodcentered
     16#30 /perthousand     16#44 /fraction
     16#70 /zerosuperior    16#74 /foursuperior        16#75 /fivesuperior
     16#76 /sixsuperior     16#77 /sevensuperior       16#78 /eightsuperior
     16#79 /ninesuperior    16#7b /hyphensuperior      16#7d /parenleftsuperior
     16#7e /parenrightsuperior
     16#80 /zeroinferior    16#84 /fourinferior        16#85 /fiveinferior
     16#81 /oneinferior     16#82 /twoinferior         16#83 /threeinferior
     16#86 /sixinferior     16#87 /seveninferior       16#88 /eightinferior
     16#89 /nineinferior    16#8b /hypheninferior      16#8d /parenleftinferior
     16#8e /parenrightinferior
  >> vg&redef
  def

% Unicode mathematical operators encoding (unicode codes \u2200-\u22ff)
/UCMathOpsEncoding
  NullEncoding dup length array copy
  << 16#00 /universal       16#02 /partialdiff         16#03 /existential
     16#05 /emptyset        16#06 /Delta               16#07 /gradient
     16#08 /element         16#09 /notelement          16#0b /suchthat
     16#0f /product         16#11 /summation           16#12 /minus
     16#15 /fraction        16#17 /asteriskmath        16#19 /bullet
     16#1a /radical         16#1d /proportional        16#1e /infinity
     16#20 /angle           16#23 /bar                 16#27 /logicaland
     16#28 /logicalor       16#29 /intersection        16#2a /union
     16#2b /integral        16#34 /therefore           16#36 /colon
     16#3c /similar         16#45 /congruent           16#48 /approxequal
     16#60 /notequal        16#61 /equivalence         16#64 /lessequal
     16#65 /greaterequal    16#82 /propersubset        16#83 /propersuperset
     16#86 /reflexsubset    16#87 /reflexsuperset      16#95 /circleplus
     16#97 /circlemultiply  16#a5 /perpendicular       16#03 /existential
     16#c0 /logicaland      16#c1 /logicalor           16#c2 /intersection
     16#c3 /union           16#c4 /diamond             16#c5 /dotmath
  >> vg&redef
  def

% Unicode arrows encoding (unicode codes \u2190-\u21ff)
% Also includes those "Letterlike" unicode characters
% which are available in the symbol font. (unicode codes \u2100-\u214f)
/UCArrowsEncoding
  NullEncoding dup length array copy
  << 16#11 /Ifraktur        16#1c /Rfraktur            16#22 /trademarkserif
     16#35 /aleph
     16#90 /arrowleft       16#91 /arrowup             16#92 /arrowright
     16#93 /arrowdown       16#94 /arrowboth           16#d0 /arrowdblleft
     16#d1 /arrowdblup      16#d2 /arrowdblright       16#d3 /arrowdbldown
     16#d4 /arrowdblboth
  >> vg&redef
  def

/ZapfDingbats findfont /Encoding get
dup length array copy /UCDingbatsEncoding exch def
16#20 1 16#7f {
  dup 16#20 sub exch
  UCDingbatsEncoding exch get
  UCDingbatsEncoding 3 1 roll put
} for
16#a0 1 16#ff {
  dup 16#40 sub exch
  UCDingbatsEncoding exch get
  UCDingbatsEncoding 3 1 roll put
} for
UCDingbatsEncoding [ 16#c0 1 16#ff {} for ] vg&undef
[ 16#00  16#05 16#0a 16#0b  16#28 16#4c 16#4e  16#53 16#54 16#55  16#57 16#5f
  16#60  16#68 16#69 16#6a  16#6b 16#6c 16#6d  16#6e 16#6f 16#70  16#71 16#72
  16#73  16#74 16#75 16#95  16#96 16#97 16#b0  16#bf
] vg&undef pop

% Define the base fonts which don't change.
/Undefined-UC NullEncoding       /Helvetica    vg&newbasefont pop
/MathOps-UC   UCMathOpsEncoding  /Symbol       vg&newbasefont pop
/Arrows-UC    UCArrowsEncoding   /Symbol       vg&newbasefont pop
/Dingbats-UC  UCDingbatsEncoding /ZapfDingbats vg&newbasefont pop

% Make the SansSerif composite fonts.
/SansSerif /Helvetica 16#00 vg&newcompositefont
/SansSerif-Bold /Helvetica-Bold 16#01 vg&newcompositefont
/SansSerif-Italic /Helvetica-Oblique 16#02 vg&newcompositefont
/SansSerif-BoldItalic /Helvetica-BoldOblique 16#03 vg&newcompositefont

% Make the Serif composite fonts.
/Serif /Times-Roman 16#00 vg&newcompositefont
/Serif-Bold /Times-Bold 16#01 vg&newcompositefont
/Serif-Italic /Times-Italic 16#02 vg&newcompositefont
/Serif-BoldItalic /Times-BoldItalic 16#03 vg&newcompositefont

% Make the Monospaced composite fonts.
/Monospaced /Courier 16#00 vg&newcompositefont
/Monospaced-Bold /Courier-Bold 16#01 vg&newcompositefont
/Monospaced-Italic /Courier-Oblique 16#02 vg&newcompositefont
/Monospaced-BoldItalic /Courier-BoldOblique 16#03 vg&newcompositefont

% Make the Dialog composite fonts.
/Dialog /Helvetica 16#00 vg&newcompositefont
/Dialog-Bold /Helvetica-Bold 16#01 vg&newcompositefont
/Dialog-Italic /Helvetica-Oblique 16#02 vg&newcompositefont
/Dialog-BoldItalic /Helvetica-BoldOblique 16#03 vg&newcompositefont

% Make the DialogInput composite fonts.
/DialogInput /Courier 16#00 vg&newcompositefont
/DialogInput-Bold /Courier-Bold 16#01 vg&newcompositefont
/DialogInput-Italic /Courier-Oblique 16#02 vg&newcompositefont
/DialogInput-BoldItalic /Courier-BoldOblique 16#03 vg&newcompositefont

% Make the Typewriter composite fonts (JDK 1.1 only).
/Typewriter /Courier 16#00 vg&newcompositefont
/Typewriter-Bold /Courier-Bold 16#01 vg&newcompositefont
/Typewriter-Italic /Courier-Oblique 16#02 vg&newcompositefont
/Typewriter-BoldItalic /Courier-BoldOblique 16#03 vg&newcompositefont


/cfontH {
 dup /fontsize exch def /SansSerif exch sf
 /vg&fontstyles [{cfontH} {cfontHB} {cfontHI} {cfontHBI}] def
} def
/cfontHB {
  dup /fontsize exch def /SansSerif-Bold exch sf
 /vg&fontstyles [{cfontH} {cfontHB} {cfontHI} {cfontHBI}] def
} def
/cfontHI {
 dup /fontsize exch def /SansSerif-Italic exch sf
 /vg&fontstyles [{cfontH} {cfontHB} {cfontHI} {cfontHBI}] def
} def
/cfontHBI {
 dup /fontsize exch def /SansSerif-BoldItalic exch sf
 /vg&fontstyles [{cfontH} {cfontHB} {cfontHI} {cfontHBI}] def
} def

/cfontT {
 dup /fontsize exch def /Serif exch sf
 /vg&fontstyles [{cfontT} {cfontTB} {cfontTI} {cfontTBI}] def
} def
/cfontTB {
 dup /fontsize exch def /Serif-Bold exch sf
 /vg&fontstyles [{cfontT} {cfontTB} {cfontTI} {cfontTBI}] def
} def
/cfontTI {
 dup /fontsize exch def /Serif-Italic exch sf
 /vg&fontstyles [{cfontT} {cfontTB} {cfontTI} {cfontTBI}] def
} def
/cfontTBI {
 dup /fontsize exch def /Serif-BoldItalic exch sf
 /vg&fontstyles [{cfontT} {cfontTB} {cfontTI} {cfontTBI}] def
} def

/cfontC {
 dup /fontsize exch def /Typewriter exch sf
 /vg&fontstyles [{cfontC} {cfontCB} {cfontCI} {cfontCBI}] def
} def
/cfontCB {
 dup /fontsize exch def /Typewriter-Bold exch sf
 /vg&fontstyles [{cfontC} {cfontCB} {cfontCI} {cfontCBI}] def
} def
/cfontCI {
 dup /fontsize exch def /Typewriter-Italic exch sf
 /vg&fontstyles [{cfontC} {cfontCB} {cfontCI} {cfontCBI}] def
} def
/cfontCBI {
 dup /fontsize exch def /Typewriter-BoldItalic exch sf
 /vg&fontstyles [{cfontC} {cfontCB} {cfontCI} {cfontCBI}] def
} def

% Darken or lighten the current color.
/darken {0.7 exch exp 3 copy
         q 4 -1 roll vg&C
         currentrgbcolor 3 {4 -2 roll mul} repeat
         3 array astore Q} def

/displayColorMap
<< /Cr   [1.00 0.00 0.00]       /Cg     [0.00 1.00 0.00]
   /Cb   [0.00 0.00 1.00]       /Cc     [1.00 0.00 0.00 0.00]
   /Cm   [0.00 1.00 0.00 0.00]  /Cy     [0.00 0.00 1.00 0.00]
   /Co   [1.00 0.78 0.00]       /Cp     [1.00 0.67 0.67]
   /Cw   [1   ]                 /Cgrl   [0.75]
   /Cgr  [0.50]                 /Cgrd   [0.25]
   /Ck   [0   ]
   /CGr  [1.00 0.00 0.00]       /CGg    [0.00 1.00 0.00]
   /CGb  [0.00 0.00 1.00]       /CGc    [1.00 0.00 0.00 0.00]
   /CGm  [0.00 1.00 0.00 0.00]  /CGy    [0.00 0.00 1.00 0.00]
   /CGo  [1.00 0.78 0.00]       /CGp    [1.00 0.67 0.67]
   /CGw  [1   ]                 /CGgrl  [0.75]
   /CGgr [0.50]                 /CGgrd  [0.25]
   /CGk  [0   ]
   /CIr  [1.00 0.00 0.00]       /CIg    [0.00 1.00 0.00]
   /CIb  [0.00 0.00 1.00]       /CIc    [1.00 0.00 0.00 0.00]
   /CIm  [0.00 1.00 0.00 0.00]  /CIy    [0.00 0.00 1.00 0.00]
   /CIo  [1.00 0.78 0.00]       /CIp    [1.00 0.67 0.67]
   /CIw  [1   ]                 /CIgrl  [0.75]
   /CIgr [0.50]                 /CIgrd  [0.25]
   /CIk  [0   ]
>> def

/printColorMap
<< /Cr   [1.00 0.33 0.33]       /Cg     [0.33 1.00 0.33]
   /Cb   [0.33 0.33 1.00]       /Cc     [1.00 0.00 0.00 0.00]
   /Cm   [0.00 1.00 0.00 0.00]  /Cy     [0.00 0.00 1.00 0.00]
   /Co   [1.00 0.78 0.00]       /Cp     [1.00 0.67 0.67]
   /Cw   [1   ]                 /Cgrl   [0.75]
   /Cgr  [0.50]                 /Cgrd   [0.25]
   /Ck   [0   ]
   /CGr  [1.00 0.33 0.33]       /CGg    [0.33 1.00 0.33]
   /CGb  [0.33 0.33 1.00]       /CGc    [1.00 0.00 0.00 0.00]
   /CGm  [0.00 1.00 0.00 0.00]  /CGy    [0.00 0.00 1.00 0.00]
   /CGo  [1.00 0.78 0.00]       /CGp    [1.00 0.67 0.67]
   /CGw  [1   ]                 /CGgrl  [0.75]
   /CGgr [0.50]                 /CGgrd  [0.25]
   /CGk  [0   ]
   /CIr  [1.00 0.33 0.33]       /CIg    [0.33 1.00 0.33]
   /CIb  [0.33 0.33 1.00]       /CIc    [1.00 0.00 0.00 0.00]
   /CIm  [0.00 1.00 0.00 0.00]  /CIy    [0.00 0.00 1.00 0.00]
   /CIo  [1.00 0.78 0.00]       /CIp    [1.00 0.67 0.67]
   /CIw  [1   ]                 /CIgrl  [0.75]
   /CIgr [0.50]                 /CIgrd  [0.25]
   /CIk  [0   ]
>> def

/grayColorMap
<< /Cr   [0   ]                 /Cg     [0   ]
   /Cb   [0   ]                 /Cc     [0   ]
   /Cm   [0   ]                 /Cy     [0   ]
   /Co   [0   ]                 /Cp     [0   ]
   /Cw   [0   ]                 /Cgrl   [0   ]
   /Cgr  [0   ]                 /Cgrd   [0   ]
   /Ck   [0   ]
   /CGr  [0.75]                 /CGg    [1   ]
   /CGb  [0.50]                 /CGc    [0.75]
   /CGm  [0.50]                 /CGy    [1   ]
   /CGo  [0.75]                 /CGp    [1   ]
   /CGw  [0   ]                 /CGgrl  [0.25]
   /CGgr [0.50]                 /CGgrd  [0.75]
   /CGk  [1   ]
   /CIr  [1   ]                 /CIg    [1   ]
   /CIb  [1   ]                 /CIc    [1   ]
   /CIm  [1   ]                 /CIy    [1   ]
   /CIo  [1   ]                 /CIp    [1   ]
   /CIw  [1   ]                 /CIgrl  [1   ]
   /CIgr [1   ]                 /CIgrd  [1   ]
   /CIk  [1   ]
>> def

/bwColorMap
<< /Cr   [0   ]                 /Cg     [0   ]
   /Cb   [0   ]                 /Cc     [0   ]
   /Cm   [0   ]                 /Cy     [0   ]
   /Co   [0   ]                 /Cp     [0   ]
   /Cw   [0   ]                 /Cgrl   [0   ]
   /Cgr  [0   ]                 /Cgrd   [0   ]
   /Ck   [0   ]
   /CGr  [1   ]                 /CGg    [1   ]
   /CGb  [1   ]                 /CGc    [1   ]
   /CGm  [1   ]                 /CGy    [1   ]
   /CGo  [1   ]                 /CGp    [1   ]
   /CGw  [0   ]                 /CGgrl  [1   ]
   /CGgr [1   ]                 /CGgrd  [1   ]
   /CGk  [1   ]
   /CIr  [1   ]                 /CIg    [1   ]
   /CIb  [1   ]                 /CIc    [1   ]
   /CIm  [1   ]                 /CIy    [1   ]
   /CIo  [1   ]                 /CIp    [1   ]
   /CIw  [1   ]                 /CIgrl  [1   ]
   /CIgr [1   ]                 /CIgrd  [1   ]
   /CIk  [1   ]
>> def

%
% The following routines handle the alignment of and printing of
% tagged strings.
%

% Predefine the bounding box values.
/bbllx 0 def /bblly 0 def /bburx 0 def /bbury 0 def

% This routine pops the first unicode character off of a string and returns
% the remainder of the string, the character code of first character,
% and a "true" if the string was non-zero length.
% <string>      popfirst <remaining string> <true>
% <null string> popfirst <false>
/popfirst {
  dup length 1 gt
    {dup 0 get /vg&fbyte exch def
     dup 1 get /vg&cbyte exch def
     dup length 2 sub 2 exch getinterval true}
    {pop false} ifelse
} def

% This routine shows a single unicode character given the font and
% character codes.
% <font code> <char code> unicharshow --
/unicharshow {
  2 string
  dup 0 5 -1 roll put
  dup 1 4 -1 roll put
  internalshow
} def

% This is an internal routine to alternate between determining the
% bounding box for stringsize and showing the string for recshow.
% <string> internalshow --
/internalshow {show} def

% This is an internal routine to alternate between determining the
% bounding box for stringsize and stroking various ornaments.
% <string> internalstroke --
/internalstroke {S} def

% Sets up internalshow to use the null device to determine string size.
% -- nullinternalshow --
/nullinternalshow {/internalshow {false charpath flattenpath
                                  pathbbox updatebbox} def} def

% Sets up internalstroke to use the null device to determine string size.
% -- nullinternalstroke --
/nullinternalstroke {
 /internalstroke {flattenpath pathbbox updatebbox} def} def

% This routine tests to see if the character code matches the first
% character of a string.
% <char code> <string> testchar <char code> <true or false>
/testchar {exch dup 3 -1 roll 0 get eq} def

% Raise the text baseline for superscripts.
% -- raise --
/raise {
  0 fontsize 2 div rmoveto
  /fontsize fontsize 2 mul 3 div def
  currentfont /FontName get fontsize sf
} def

% Un-raise the text baseline for superscripts.
% -- unraise --
/unraise {
  /fontsize fontsize 1.5 mul def
  0 fontsize 2 div neg rmoveto
} def

% Lower the text baseline for subscripts.
% -- lower --
/lower {
  0 fontsize 3 div neg rmoveto
  /fontsize fontsize 2 mul 3 div def
  currentfont /FontName get fontsize sf
} def

% Un-lower the text baseline for subscripts.
% -- unlower --
/unlower {
  /fontsize fontsize 1.5 mul def
  0 fontsize 3 div rmoveto
} def

% Compare the top two elements on the stack and leave only the
% larger one.
/maxval {2 copy gt {pop} {exch pop} ifelse} def

% Tokenize a string.  Do not use the usual PostScript token because
% parentheses will not be interpreted correctly because of rescanning
% of the string.
/vg&token {/vg&string exch def /vg&index -1 def /vg&level 0 def
0 2 vg&string length 2 sub {
  dup dup 1 add exch vg&string exch get 8 bitshift vg&string 3 -1 roll get or
  dup 16#f0fe eq {pop 1}{16#f0ff eq {-1}{0} ifelse} ifelse
  /vg&level exch vg&level add def
  vg&level 0 eq {/vg&index exch def exit} if pop
} for
vg&index 0 ge {
  vg&string vg&index 2 add dup vg&string length exch sub getinterval
  vg&index 2 gt {vg&string 2 vg&index 2 sub getinterval}{()} ifelse
  true}
{false} ifelse
} bind def

% Recursively show an unicode string.
% <string> recshow --
/recshow {
  popfirst
  {
    % Test to see if this is a string attribute.
    vg&fbyte 16#f0 and 16#e0 eq
    {
      q

      % Font style.
      currentfont dup /FontStyleBits known {/FontStyleBits get}{pop 0} ifelse
      vg&cbyte or vg&fontstyles exch get fontsize exch exec

      vg&token pop recshow currentpoint Q m recshow
    }
    {
      vg&fbyte 16#F8 and 16#F0 eq {

        % Superscript and/or subscript.
        vg&cbyte 16#00 eq {
          vg&token pop exch vg&token pop 3 -1 roll
          q raise recshow unraise currentpoint pop Q exch
          q lower recshow unlower currentpoint pop Q
          maxval currentpoint exch pop m recshow } if

        % Strikeout.
        vg&cbyte 16#01 eq {
          vg&token pop currentpoint 3 -1 roll recshow
          q 0 J vg&underline vg&uthick w
          currentpoint 4 -2 roll fontsize 3 div add moveto
          fontsize 3 div add lineto internalstroke Q
          recshow} if

        % Underline.
        vg&cbyte 16#02 eq {
          vg&token pop currentpoint 3 -1 roll recshow
          q 0 J vg&underline vg&uthick w
          currentpoint 4 -2 roll vg&uoffset add moveto
          vg&uoffset add lineto internalstroke Q
          recshow} if

        % Dashed underline.
        vg&cbyte 16#03 eq {
          vg&token pop currentpoint 3 -1 roll recshow
          q 0 J [ vg&uthick 5 mul vg&uthick 2 mul] 0 d
          vg&underline vg&uthick w
          currentpoint 4 -2 roll vg&uoffset add moveto
          vg&uoffset add lineto internalstroke Q
          recshow} if

        % Dotted underline.
        vg&cbyte 16#04 eq {
          vg&token pop currentpoint 3 -1 roll recshow
          q 1 J [ 0 vg&uthick 3 mul] 0 d
          vg&underline vg&uthick w
          currentpoint 4 -2 roll vg&uoffset add moveto
          vg&uoffset add lineto internalstroke Q
          recshow} if

        % Thick underline.
        vg&cbyte 16#05 eq {
          vg&token pop currentpoint 3 -1 roll recshow
          q 0 J vg&underline vg&uthick 2 mul w
          currentpoint 4 -2 roll vg&uoffset vg&uthick 2 div sub add moveto
          vg&uoffset vg&uthick 2 div sub add lineto internalstroke Q
          recshow} if

        % Gray thick underline.
        vg&cbyte 16#06 eq {
          vg&token pop currentpoint 3 -1 roll recshow
          q 0 J vg&underline vg&uthick 2 mul w 0.5 setgray
          currentpoint 4 -2 roll vg&uoffset vg&uthick 2 div sub add moveto
          vg&uoffset vg&uthick 2 div sub add lineto internalstroke Q
          recshow} if

        % Overbar.
        vg&cbyte 16#07 eq {
          vg&token pop dup stringsize relative 4 1 roll pop pop exch
          3 -1 roll recshow
          q 0 J vg&underline vg&uthick w
          vg&uoffset neg add dup currentpoint pop exch m l internalstroke Q
          recshow} if
      }
      {
        vg&fbyte vg&cbyte unicharshow recshow
      } ifelse
    } ifelse
  } if
} def

% Get the underline position and thickness from the current font.
/vg&underline {

currentfont dup /FontType get 0 eq {/FDepVector get 0 get} if
dup dup /FontInfo known {
  /FontInfo get dup
  dup /UnderlinePosition known {
    /UnderlinePosition get /vg&uoffset exch def
  }
  {
    pop /vg&uoffset 0 def
  } ifelse
  dup /UnderlineThickness known {
    /UnderlineThickness get /vg&uthick exch def
  }
  {
    pop /vg&uthick 0 def
  } ifelse
}
{
  pop /vg&uoffset 0 def /vg&uthick 0 def
} ifelse
/FontMatrix get
currentfont dup /FontType get 0 eq
{/FontMatrix get matrix concatmatrix}{pop} ifelse
dup 0 vg&uoffset 3 -1 roll transform /vg&uoffset exch def pop
0 vg&uthick 3 -1 roll transform /vg&uthick exch def pop
} def

% Make a frame with the coordinates on the stack.
% <llx> <lly> <urx> <ury> frame --
/frame {4 copy m 3 1 roll exch l 4 -2 roll l l h} def

% Resets the accumulated bounding box to a degenerate box at the
% current point.
% -- resetbbox --
/resetbbox {
  currentpoint 2 copy
  /bbury exch def
  /bburx exch def
  /bblly exch def
  /bbllx exch def
} def

% Update the accumulated bounding box.
% <llx'> <lly'> <urx'> <ury'> updatebbox --
/updatebbox {
  dup bbury gt {/bbury exch def} {pop} ifelse
  dup bburx gt {/bburx exch def} {pop} ifelse
  dup bblly lt {/bblly exch def} {pop} ifelse
  dup bbllx lt {/bbllx exch def} {pop} ifelse
} def

% Set the bounding box to the values on the stack.
% <llx'> <lly'> <urx'> <ury'> updatebbox --
/restorebbox {
  /bbury exch def /bburx exch def /bblly exch def /bbllx exch def
} def

% Push the accumulated bounding box onto the stack.
% -- pushbbox <llx> <lly> <urx> <ury>
/pushbbox {bbllx bblly bburx bbury} def

% Make the relative bounding box relative to the currentpoint.
% <llx'> <lly'> <urx'> <ury'> inflate <llx> <lly> <urx> <ury>
/inflate {
  2 {fontsize 0.2 mul add 4 1 roll} repeat
  2 {fontsize 0.2 mul sub 4 1 roll} repeat
} def

% Make the relative bounding box relative to the currentpoint.
% <llx'> <lly'> <urx'> <ury'> relative <llx> <lly> <urx> <ury>
/relative {
  currentpoint 3 -1 roll add 3 1 roll add exch 4 2 roll
  currentpoint 3 -1 roll add 3 1 roll add exch 4 2 roll
} def

% Returns the size of a string appropriate for recshow.
% <string> stringsize <llx> <lly> <urx> <ury>
/stringsize {
  pushbbox /internalshow load /internalstroke load 7 -1 roll
  q
  nulldevice 0 0 m
  nullinternalshow nullinternalstroke
  resetbbox
  recshow
  /internalstroke exch def /internalshow exch def
  pushbbox 8 -4 roll restorebbox
  Q
} def

% Calculate values for string positioning.
/calcval {4 copy
  3 -1 roll sub /widy exch def sub neg /widx exch def
  pop pop /dy exch def /dx exch def} def

% Utilities to position a string.
% First letter (U=upper, C=center, B=baseline, L=lower)
% Second letter (L=left, C=center, R=right)
/align [
{calcval dx neg widy dy add neg rmoveto} % UL
{calcval dx neg widy 2 div dy add neg rmoveto} % CL
{calcval dx neg 0 rmoveto} % BL
{calcval dx neg dy neg rmoveto} % LL
{calcval widx dx add neg widy dy add neg rmoveto} % UR
{calcval widx dx add neg widy 2 div dy add neg rmoveto} % CR
{calcval widx dx add neg 0 rmoveto} % BR
{calcval widx dx add neg dy neg rmoveto} % LR
{calcval widx 2 div dx add neg widy dy add neg rmoveto} % UC
{calcval widx 2 div dx add neg widy 2 div dy add neg rmoveto} % CC
{calcval widx 2 div dx add neg 0 rmoveto} % BC
{calcval widx 2 div dx add neg dy neg rmoveto} % LC
] def

/vg&str {m q 1 -1 scale dup stringsize 4 copy align 11 -1 roll get exec
         q inflate relative frame exch exec Q recshow Q} def

end /procDict exch def
%%EndProlog

%%BeginSetup
save
procDict begin
printColorMap begin
496 324 setpagesize
0 0 0 0 setmargins
0 0 setorigin
496 324 setsize
naturalsize
portrait
imagescale
cliptobounds
setbasematrix
/Helvetica 10 sf
defaultGraphicsState
%%EndSetup

0.00000 0.00000 0.00000 RG
[ 1.00000 0.00000 0.00000 1.00000 0.00000 0.00000 ] defaultmatrix matrix concatmatrix setmatrix
cliprestore
1.00000 1.00000 1.00000 RG
newpath
0.00000 0.00000 m
496.000 0.00000 l
496.000 324.000 l
0.00000 324.000 l
0.00000 0.00000 l
h
f
0.00000 0.00000 0.00000 RG
0.00000 0.00000 0.00000 RG
[ 1.00000 0.00000 0.00000 1.00000 0.00000 0.00000 ] defaultmatrix matrix concatmatrix setmatrix
cliprestore
1.00000 1.00000 1.00000 RG
newpath
0.00000 0.00000 m
496.000 0.00000 l
496.000 324.000 l
0.00000 324.000 l
0.00000 0.00000 l
h
f
0.00000 0.00000 0.00000 RG
0 0 496 324 rc
q
[ 1.00000 0.00000 0.00000 1.00000 0.00000 0.00000 ] concat
[ 1.00000 0.00000 0.00000 1.00000 -78.0000 -90.0000 ] concat
1.00000 1.00000 1.00000 RG
newpath
78.0000 90.0000 m
574.000 90.0000 l
574.000 414.000 l
78.0000 414.000 l
78.0000 90.0000 l
h
f
0.00000 0.00000 0.00000 RG
[ 1.00000 0.00000 0.00000 1.00000 -78.0000 -90.0000 ] defaultmatrix matrix concatmatrix setmatrix
[ 1.00000 0.00000 0.00000 1.00000 -78.0000 -90.0000 ] defaultmatrix matrix concatmatrix setmatrix
[ 1.00000 0.00000 0.00000 1.00000 0.00000 0.00000 ] defaultmatrix matrix concatmatrix setmatrix
[ 1.00000 0.00000 0.00000 1.00000 -78.0000 -90.0000 ] defaultmatrix matrix concatmatrix setmatrix
1.00000 1.00000 1.00000 RG
newpath
124.000 90.5000 m
189.000 90.5000 l
189.000 155.500 l
124.000 155.500 l
124.000 90.5000 l
h
f
0 J
1.45000 M
0.00000 0.00000 0.00000 RG
newpath
124.000 90.5000 m
189.000 90.5000 l
189.000 155.500 l
124.000 155.500 l
124.000 90.5000 l
h
S
2 J
10.0000 M
1.00000 1.00000 1.00000 RG
newpath
189.000 90.5000 m
254.000 90.5000 l
254.000 155.500 l
189.000 155.500 l
189.000 90.5000 l
h
f
0 J
1.45000 M
0.00000 0.00000 0.00000 RG
newpath
189.000 90.5000 m
254.000 90.5000 l
254.000 155.500 l
189.000 155.500 l
189.000 90.5000 l
h
S
2 J
10.0000 M
1.00000 1.00000 1.00000 RG
newpath
124.000 155.500 m
189.000 155.500 l
189.000 220.500 l
124.000 220.500 l
124.000 155.500 l
h
f
0 J
1.45000 M
0.00000 0.00000 0.00000 RG
newpath
124.000 155.500 m
189.000 155.500 l
189.000 220.500 l
124.000 220.500 l
124.000 155.500 l
h
S
2 J
10.0000 M
.600000 .600000 .600000 RG
newpath
189.000 155.500 m
254.000 155.500 l
254.000 220.500 l
189.000 220.500 l
189.000 155.500 l
h
f
2.00000 w
0 J
1.45000 M
0.00000 0.00000 0.00000 RG
newpath
189.000 155.500 m
254.000 155.500 l
254.000 220.500 l
189.000 220.500 l
189.000 155.500 l
h
S
1.00000 w
2 J
10.0000 M
.752941 .752941 .752941 RG
newpath
300.000 90.5000 m
308.000 90.5000 l
308.000 155.500 l
300.000 155.500 l
300.000 90.5000 l
h
f
0 J
1.45000 M
0.00000 0.00000 0.00000 RG
newpath
300.000 90.5000 m
308.000 90.5000 l
308.000 155.500 l
300.000 155.500 l
300.000 90.5000 l
h
S
2 J
10.0000 M
.752941 .752941 .752941 RG
newpath
308.000 90.5000 m
316.000 90.5000 l
316.000 155.500 l
308.000 155.500 l
308.000 90.5000 l
h
f
0 J
1.45000 M
0.00000 0.00000 0.00000 RG
newpath
308.000 90.5000 m
316.000 90.5000 l
316.000 155.500 l
308.000 155.500 l
308.000 90.5000 l
h
S
2 J
10.0000 M
.752941 .752941 .752941 RG
newpath
316.000 90.5000 m
324.000 90.5000 l
324.000 155.500 l
316.000 155.500 l
316.000 90.5000 l
h
f
0 J
1.45000 M
0.00000 0.00000 0.00000 RG
newpath
316.000 90.5000 m
324.000 90.5000 l
324.000 155.500 l
316.000 155.500 l
316.000 90.5000 l
h
S
2 J
10.0000 M
.752941 .752941 .752941 RG
newpath
124.000 250.500 m
189.000 250.500 l
189.000 258.500 l
124.000 258.500 l
124.000 250.500 l
h
f
0 J
1.45000 M
0.00000 0.00000 0.00000 RG
newpath
124.000 250.500 m
189.000 250.500 l
189.000 258.500 l
124.000 258.500 l
124.000 250.500 l
h
S
2 J
10.0000 M
.752941 .752941 .752941 RG
newpath
124.000 258.500 m
189.000 258.500 l
189.000 266.500 l
124.000 266.500 l
124.000 258.500 l
h
f
0 J
1.45000 M
0.00000 0.00000 0.00000 RG
newpath
124.000 258.500 m
189.000 258.500 l
189.000 266.500 l
124.000 266.500 l
124.000 258.500 l
h
S
2 J
10.0000 M
.752941 .752941 .752941 RG
newpath
124.000 266.500 m
189.000 266.500 l
189.000 274.500 l
124.000 274.500 l
124.000 266.500 l
h
f
0 J
1.45000 M
0.00000 0.00000 0.00000 RG
newpath
124.000 266.500 m
189.000 266.500 l
189.000 274.500 l
124.000 274.500 l
124.000 266.500 l
h
S
2 J
10.0000 M
.752941 .752941 .752941 RG
newpath
300.000 155.500 m
308.000 155.500 l
308.000 220.500 l
300.000 220.500 l
300.000 155.500 l
h
f
0 J
1.45000 M
0.00000 0.00000 0.00000 RG
newpath
300.000 155.500 m
308.000 155.500 l
308.000 220.500 l
300.000 220.500 l
300.000 155.500 l
h
S
2 J
10.0000 M
.752941 .752941 .752941 RG
newpath
308.000 155.500 m
316.000 155.500 l
316.000 220.500 l
308.000 220.500 l
308.000 155.500 l
h
f
0 J
1.45000 M
0.00000 0.00000 0.00000 RG
newpath
308.000 155.500 m
316.000 155.500 l
316.000 220.500 l
308.000 220.500 l
308.000 155.500 l
h
S
2 J
10.0000 M
.752941 .752941 .752941 RG
newpath
316.000 155.500 m
324.000 155.500 l
324.000 220.500 l
316.000 220.500 l
316.000 155.500 l
h
f
0 J
1.45000 M
0.00000 0.00000 0.00000 RG
newpath
316.000 155.500 m
324.000 155.500 l
324.000 220.500 l
316.000 220.500 l
316.000 155.500 l
h
S
2 J
10.0000 M
.752941 .752941 .752941 RG
newpath
189.000 250.500 m
254.000 250.500 l
254.000 258.500 l
189.000 258.500 l
189.000 250.500 l
h
f
0 J
1.45000 M
0.00000 0.00000 0.00000 RG
newpath
189.000 250.500 m
254.000 250.500 l
254.000 258.500 l
189.000 258.500 l
189.000 250.500 l
h
S
2 J
10.0000 M
.752941 .752941 .752941 RG
newpath
189.000 258.500 m
254.000 258.500 l
254.000 266.500 l
189.000 266.500 l
189.000 258.500 l
h
f
0 J
1.45000 M
0.00000 0.00000 0.00000 RG
newpath
189.000 258.500 m
254.000 258.500 l
254.000 266.500 l
189.000 266.500 l
189.000 258.500 l
h
S
2 J
10.0000 M
.752941 .752941 .752941 RG
newpath
189.000 266.500 m
254.000 266.500 l
254.000 274.500 l
189.000 274.500 l
189.000 266.500 l
h
f
0 J
1.45000 M
0.00000 0.00000 0.00000 RG
newpath
189.000 266.500 m
254.000 266.500 l
254.000 274.500 l
189.000 274.500 l
189.000 266.500 l
h
S
2 J
10.0000 M
0 J
1.45000 M
newpath
346.000 90.5000 m
370.000 90.5000 l
370.000 220.500 l
346.000 220.500 l
346.000 90.5000 l
h
S
2 J
10.0000 M
.752941 .752941 .752941 RG
newpath
369.000 90.5000 m
377.000 90.5000 l
377.000 220.500 l
369.000 220.500 l
369.000 90.5000 l
h
f
0 J
1.45000 M
0.00000 0.00000 0.00000 RG
newpath
369.000 90.5000 m
377.000 90.5000 l
377.000 220.500 l
369.000 220.500 l
369.000 90.5000 l
h
S
2 J
10.0000 M
0 J
1.45000 M
newpath
377.000 90.5000 m
392.000 90.5000 l
392.000 220.500 l
377.000 220.500 l
377.000 90.5000 l
h
S
2 J
10.0000 M
.752941 .752941 .752941 RG
newpath
392.000 90.5000 m
400.000 90.5000 l
400.000 220.500 l
392.000 220.500 l
392.000 90.5000 l
h
f
0 J
1.45000 M
0.00000 0.00000 0.00000 RG
newpath
392.000 90.5000 m
400.000 90.5000 l
400.000 220.500 l
392.000 220.500 l
392.000 90.5000 l
h
S
2 J
10.0000 M
0 J
1.45000 M
newpath
400.000 90.5000 m
436.000 90.5000 l
436.000 220.500 l
400.000 220.500 l
400.000 90.5000 l
h
S
2 J
10.0000 M
0 J
1.45000 M
newpath
407.453 156.242 m
410.812 148.977 l
412.766 148.977 l
408.391 157.727 l
408.391 163.273 l
406.594 163.273 l
406.594 157.805 l
402.219 148.977 l
404.172 148.977 l
407.453 156.242 l
h
413.156 157.883 m
417.297 148.898 l
418.312 148.898 l
423.000 157.883 l
421.438 157.883 l
417.844 150.695 l
414.719 157.883 l
413.156 157.883 l
h
429.484 163.273 m
427.688 163.273 l
427.688 150.617 l
423.625 150.617 l
423.625 148.977 l
433.547 148.977 l
433.547 150.617 l
429.484 150.617 l
429.484 163.273 l
h
f
2 J
10.0000 M
.752941 .752941 .752941 RG
newpath
436.000 90.5000 m
444.000 90.5000 l
444.000 220.500 l
436.000 220.500 l
436.000 90.5000 l
h
f
0 J
1.45000 M
0.00000 0.00000 0.00000 RG
newpath
436.000 90.5000 m
444.000 90.5000 l
444.000 220.500 l
436.000 220.500 l
436.000 90.5000 l
h
S
2 J
10.0000 M
0 J
1.45000 M
newpath
444.000 90.5000 m
460.000 90.5000 l
460.000 220.500 l
444.000 220.500 l
444.000 90.5000 l
h
S
2 J
10.0000 M
0 J
1.45000 M
newpath
124.000 304.500 m
254.000 304.500 l
254.000 329.500 l
124.000 329.500 l
124.000 304.500 l
h
S
2 J
10.0000 M
.752941 .752941 .752941 RG
newpath
124.000 329.500 m
254.000 329.500 l
254.000 337.500 l
124.000 337.500 l
124.000 329.500 l
h
f
0 J
1.45000 M
0.00000 0.00000 0.00000 RG
newpath
124.000 329.500 m
254.000 329.500 l
254.000 337.500 l
124.000 337.500 l
124.000 329.500 l
h
S
2 J
10.0000 M
0 J
1.45000 M
newpath
124.000 337.500 m
254.000 337.500 l
254.000 354.500 l
124.000 354.500 l
124.000 337.500 l
h
S
2 J
10.0000 M
.752941 .752941 .752941 RG
newpath
124.000 353.500 m
254.000 353.500 l
254.000 361.500 l
124.000 361.500 l
124.000 353.500 l
h
f
0 J
1.45000 M
0.00000 0.00000 0.00000 RG
newpath
124.000 353.500 m
254.000 353.500 l
254.000 361.500 l
124.000 361.500 l
124.000 353.500 l
h
S
2 J
10.0000 M
0 J
1.45000 M
newpath
124.000 361.500 m
254.000 361.500 l
254.000 390.500 l
124.000 390.500 l
124.000 361.500 l
h
S
2 J
10.0000 M
0 J
1.45000 M
newpath
188.961 376.742 m
192.320 369.477 l
194.273 369.477 l
189.898 378.227 l
189.898 383.773 l
188.102 383.773 l
188.102 378.305 l
183.727 369.477 l
185.680 369.477 l
188.961 376.742 l
h
f
2 J
10.0000 M
.752941 .752941 .752941 RG
newpath
124.000 389.500 m
254.000 389.500 l
254.000 397.500 l
124.000 397.500 l
124.000 389.500 l
h
f
0 J
1.45000 M
0.00000 0.00000 0.00000 RG
newpath
124.000 389.500 m
254.000 389.500 l
254.000 397.500 l
124.000 397.500 l
124.000 389.500 l
h
S
2 J
10.0000 M
0 J
1.45000 M
newpath
124.000 397.500 m
254.000 397.500 l
254.000 412.500 l
124.000 412.500 l
124.000 397.500 l
h
S
2 J
10.0000 M
.600000 .600000 .600000 RG
newpath
404.820 284.000 m
470.820 284.000 l
470.820 349.000 l
404.820 349.000 l
404.820 284.000 l
h
f
0 J
1.45000 M
0.00000 0.00000 0.00000 RG
newpath
404.820 284.000 m
470.820 284.000 l
470.820 349.000 l
404.820 349.000 l
404.820 284.000 l
h
S
2 J
10.0000 M
.600000 .600000 .600000 RG
newpath
469.820 349.000 m
534.820 349.000 l
534.820 414.000 l
469.820 414.000 l
469.820 349.000 l
h
f
0 J
1.45000 M
0.00000 0.00000 0.00000 RG
newpath
469.820 349.000 m
534.820 349.000 l
534.820 414.000 l
469.820 414.000 l
469.820 349.000 l
h
S
2 J
10.0000 M
.600000 .600000 .600000 RG
newpath
469.820 284.000 m
534.820 284.000 l
534.820 349.000 l
469.820 349.000 l
469.820 284.000 l
h
f
0 J
1.45000 M
0.00000 0.00000 0.00000 RG
newpath
469.820 284.000 m
534.820 284.000 l
534.820 349.000 l
469.820 349.000 l
469.820 284.000 l
h
S
2 J
10.0000 M
.600000 .600000 .600000 RG
newpath
404.820 349.000 m
469.820 349.000 l
469.820 414.000 l
404.820 414.000 l
404.820 349.000 l
h
f
0 J
1.45000 M
0.00000 0.00000 0.00000 RG
newpath
404.820 349.000 m
469.820 349.000 l
469.820 414.000 l
404.820 414.000 l
404.820 349.000 l
h
S
2 J
10.0000 M
newpath
469.820 284.000 m
484.820 284.000 l
484.820 299.000 l
469.820 299.000 l
469.820 284.000 l
h
f
0 J
1.45000 M
newpath
469.820 284.000 m
484.820 284.000 l
484.820 299.000 l
469.820 299.000 l
469.820 284.000 l
h
S
2 J
10.0000 M
newpath
404.820 350.000 m
419.820 350.000 l
419.820 365.000 l
404.820 365.000 l
404.820 350.000 l
h
f
0 J
1.45000 M
newpath
404.820 350.000 m
419.820 350.000 l
419.820 365.000 l
404.820 365.000 l
404.820 350.000 l
h
S
2 J
10.0000 M
newpath
405.820 285.000 m
420.820 285.000 l
420.820 300.000 l
405.820 300.000 l
405.820 285.000 l
h
f
0 J
1.45000 M
newpath
405.820 285.000 m
420.820 285.000 l
420.820 300.000 l
405.820 300.000 l
405.820 285.000 l
h
S
2 J
10.0000 M
newpath
469.820 349.000 m
484.820 349.000 l
484.820 364.000 l
469.820 364.000 l
469.820 349.000 l
h
f
0 J
1.45000 M
newpath
469.820 349.000 m
484.820 349.000 l
484.820 364.000 l
469.820 364.000 l
469.820 349.000 l
h
S
2 J
10.0000 M
1.00000 1.00000 1.00000 RG
newpath
177.940 134.500 m
198.000 134.500 l
198.000 151.500 l
177.940 151.500 l
177.940 134.500 l
h
f
0 J
1.45000 M
newpath
177.940 134.500 m
198.000 134.500 l
198.000 151.500 l
177.940 151.500 l
177.940 134.500 l
h
S
2 J
10.0000 M
0.00000 0.00000 0.00000 RG
0 J
1.45000 M
newpath
192.611 151.551 m
190.892 146.645 l
185.048 146.645 l
183.329 151.551 l
181.267 151.551 l
187.033 135.738 l
188.829 135.738 l
194.673 151.551 l
192.611 151.551 l
h
190.298 144.926 m
188.658 140.379 l
188.314 139.400 188.085 138.566 187.970 137.879  c
187.803 138.681 187.548 139.514 187.204 140.379  c
185.658 144.926 l
190.298 144.926 l
h
f
2 J
10.0000 M
1.00000 1.00000 1.00000 RG
0.00000 0.00000 0.00000 RG
1.00000 1.00000 1.00000 RG
newpath
395.320 261.500 m
447.820 261.500 l
447.820 280.500 l
395.320 280.500 l
395.320 261.500 l
h
f
0 J
1.45000 M
newpath
395.320 261.500 m
447.820 261.500 l
447.820 280.500 l
395.320 280.500 l
395.320 261.500 l
h
S
2 J
10.0000 M
0.00000 0.00000 0.00000 RG
0 J
1.45000 M
newpath
405.050 268.689 m
404.879 269.908 l
404.566 269.877 404.290 269.861 404.050 269.861  c
403.467 269.861 402.980 270.096 402.590 270.564  c
402.199 271.033 402.004 271.674 402.004 272.486  c
402.004 276.830 l
400.660 276.830 l
400.660 268.799 l
401.707 268.799 l
401.879 270.268 l
401.941 270.268 l
402.566 269.174 403.290 268.627 404.113 268.627  c
404.467 268.627 404.780 268.648 405.050 268.689  c
h
413.074 276.830 m
411.902 273.486 l
407.918 273.486 l
406.746 276.830 l
405.340 276.830 l
409.261 266.049 l
410.496 266.049 l
414.480 276.830 l
413.074 276.830 l
h
411.496 272.314 m
410.386 269.205 l
410.147 268.549 409.991 267.986 409.918 267.518  c
409.793 268.059 409.616 268.622 409.386 269.205  c
408.324 272.314 l
411.496 272.314 l
h
417.293 266.111 m
418.527 266.111 l
417.162 268.059 416.480 270.262 416.480 272.721  c
416.480 275.148 417.162 277.299 418.527 279.174  c
417.293 279.174 l
415.813 277.497 415.074 275.346 415.074 272.721  c
415.074 270.064 415.813 267.861 417.293 266.111  c
h
419.695 271.439 m
419.695 269.606 419.979 268.229 420.547 267.307  c
421.114 266.385 421.966 265.924 423.101 265.924  c
424.268 265.924 425.135 266.385 425.703 267.307  c
426.271 268.229 426.554 269.606 426.554 271.439  c
426.554 273.273 426.271 274.650 425.703 275.572  c
425.135 276.494 424.268 276.955 423.101 276.955  c
421.966 276.955 421.114 276.494 420.547 275.572  c
419.979 274.650 419.695 273.273 419.695 271.439  c
h
425.211 271.439 m
425.211 269.794 425.023 268.658 424.648 268.033  c
424.273 267.408 423.758 267.096 423.101 267.096  c
422.476 267.096 421.976 267.400 421.601 268.010  c
421.226 268.619 421.039 269.762 421.039 271.439  c
421.039 273.158 421.226 274.320 421.601 274.924  c
421.976 275.528 422.476 275.830 423.101 275.830  c
423.758 275.830 424.273 275.518 424.648 274.893  c
425.023 274.268 425.211 273.117 425.211 271.439  c
h
429.894 275.064 m
430.004 275.252 l
429.733 276.262 429.306 277.434 428.722 278.768  c
427.722 278.768 l
428.035 277.393 428.290 276.158 428.488 275.064  c
429.894 275.064 l
h
431.707 271.439 m
431.707 269.606 431.991 268.229 432.558 267.307  c
433.126 266.385 433.978 265.924 435.113 265.924  c
436.280 265.924 437.147 266.385 437.715 267.307  c
438.282 268.229 438.566 269.606 438.566 271.439  c
438.566 273.273 438.282 274.650 437.715 275.572  c
437.147 276.494 436.280 276.955 435.113 276.955  c
433.978 276.955 433.126 276.494 432.558 275.572  c
431.991 274.650 431.707 273.273 431.707 271.439  c
h
437.222 271.439 m
437.222 269.794 437.035 268.658 436.660 268.033  c
436.285 267.408 435.769 267.096 435.113 267.096  c
434.488 267.096 433.988 267.400 433.613 268.010  c
433.238 268.619 433.050 269.762 433.050 271.439  c
433.050 273.158 433.238 274.320 433.613 274.924  c
433.988 275.528 434.488 275.830 435.113 275.830  c
435.769 275.830 436.285 275.518 436.660 274.893  c
437.035 274.268 437.222 273.117 437.222 271.439  c
h
440.968 279.174 m
439.734 279.174 l
441.099 277.299 441.781 275.148 441.781 272.721  c
441.781 270.221 441.099 268.018 439.734 266.111  c
440.968 266.111 l
442.448 267.903 443.187 270.106 443.187 272.721  c
443.187 275.304 442.448 277.455 440.968 279.174  c
h
f
2 J
10.0000 M
1.00000 1.00000 1.00000 RG
0.00000 0.00000 0.00000 RG
1.00000 1.00000 1.00000 RG
newpath
298.000 222.500 m
330.000 222.500 l
330.000 250.500 l
298.000 250.500 l
298.000 222.500 l
h
f
0 J
1.45000 M
newpath
298.000 222.500 m
330.000 222.500 l
330.000 250.500 l
298.000 250.500 l
298.000 222.500 l
h
S
2 J
10.0000 M
0.00000 0.00000 0.00000 RG
0 J
1.45000 M
newpath
305.055 243.805 m
305.055 242.164 l
306.201 242.737 307.268 243.023 308.258 243.023  c
309.039 243.023 309.625 242.893 310.016 242.633  c
310.406 242.372 310.602 241.982 310.602 241.461  c
310.602 241.044 310.458 240.719 310.172 240.484  c
309.885 240.250 309.156 239.859 307.984 239.312  c
306.812 238.766 306.057 238.271 305.719 237.828  c
305.380 237.385 305.211 236.852 305.211 236.227  c
305.211 235.341 305.536 234.638 306.188 234.117  c
306.839 233.596 307.763 233.336 308.961 233.336  c
310.055 233.336 311.122 233.596 312.164 234.117  c
311.539 235.523 l
310.497 235.055 309.612 234.820 308.883 234.820  c
308.258 234.820 307.776 234.924 307.438 235.133  c
307.099 235.341 306.930 235.654 306.930 236.070  c
306.930 236.487 307.060 236.812 307.320 237.047  c
307.581 237.281 308.310 237.659 309.508 238.180  c
310.706 238.701 311.474 239.195 311.812 239.664  c
312.151 240.133 312.320 240.680 312.320 241.305  c
312.320 242.294 311.982 243.062 311.305 243.609  c
310.628 244.156 309.612 244.430 308.258 244.430  c
306.904 244.430 305.836 244.221 305.055 243.805  c
h
318.492 237.242 m
321.852 229.977 l
323.805 229.977 l
319.430 238.727 l
319.430 244.273 l
317.633 244.273 l
317.633 238.805 l
313.258 229.977 l
315.211 229.977 l
318.492 237.242 l
h
f
2 J
10.0000 M
1.00000 1.00000 1.00000 RG
0.00000 0.00000 0.00000 RG
1.00000 1.00000 1.00000 RG
newpath
80.9400 247.500 m
110.940 247.500 l
110.940 277.500 l
80.9400 277.500 l
80.9400 247.500 l
h
f
0 J
1.45000 M
newpath
80.9400 247.500 m
110.940 247.500 l
110.940 277.500 l
80.9400 277.500 l
80.9400 247.500 l
h
S
2 J
10.0000 M
0.00000 0.00000 0.00000 RG
0 J
1.45000 M
newpath
81.7994 273.891 m
81.7994 272.250 l
82.9452 272.823 84.0129 273.109 85.0025 273.109  c
85.7838 273.109 86.3697 272.979 86.7603 272.719  c
87.1509 272.458 87.3463 272.068 87.3463 271.547  c
87.3463 271.130 87.2030 270.805 86.9166 270.570  c
86.6301 270.336 85.9009 269.945 84.7291 269.398  c
83.5572 268.852 82.8020 268.357 82.4634 267.914  c
82.1249 267.471 81.9556 266.938 81.9556 266.312  c
81.9556 265.427 82.2811 264.724 82.9322 264.203  c
83.5832 263.682 84.5077 263.422 85.7056 263.422  c
86.7994 263.422 87.8671 263.682 88.9088 264.203  c
88.2838 265.609 l
87.2421 265.141 86.3567 264.906 85.6275 264.906  c
85.0025 264.906 84.5207 265.010 84.1822 265.219  c
83.8436 265.427 83.6744 265.740 83.6744 266.156  c
83.6744 266.573 83.8046 266.898 84.0650 267.133  c
84.3254 267.367 85.0546 267.745 86.2525 268.266  c
87.4504 268.786 88.2186 269.281 88.5572 269.750  c
88.8957 270.219 89.0650 270.766 89.0650 271.391  c
89.0650 272.380 88.7265 273.148 88.0494 273.695  c
87.3723 274.242 86.3567 274.516 85.0025 274.516  c
83.6483 274.516 82.5806 274.307 81.7994 273.891  c
h
95.2369 267.328 m
98.5963 260.062 l
100.549 260.062 l
96.1744 268.812 l
96.1744 274.359 l
94.3775 274.359 l
94.3775 268.891 l
90.0025 260.062 l
91.9556 260.062 l
95.2369 267.328 l
h
106.643 274.359 m
104.846 274.359 l
104.846 261.703 l
100.784 261.703 l
100.784 260.062 l
110.706 260.062 l
110.706 261.703 l
106.643 261.703 l
106.643 274.359 l
h
f
2 J
10.0000 M
1.00000 1.00000 1.00000 RG
0.00000 0.00000 0.00000 RG
1.00000 1.00000 1.00000 RG
newpath
85.3150 172.559 m
106.565 172.559 l
106.565 200.559 l
85.3150 200.559 l
85.3150 172.559 l
h
f
0 J
1.45000 M
newpath
85.3150 172.559 m
106.565 172.559 l
106.565 200.559 l
85.3150 200.559 l
85.3150 172.559 l
h
S
2 J
10.0000 M
0.00000 0.00000 0.00000 RG
0 J
1.45000 M
newpath
92.9517 193.555 m
92.9517 187.368 l
92.9517 186.566 92.7877 185.977 92.4595 185.602  c
92.1314 185.227 91.6392 185.040 90.9830 185.040  c
90.1913 185.040 89.5845 185.310 89.1627 185.852  c
88.7408 186.394 88.5298 187.295 88.5298 188.555  c
88.5298 193.555 l
86.9048 193.555 l
86.9048 183.915 l
88.1705 183.915 l
88.4517 185.180 l
88.5298 185.180 l
89.0923 184.201 90.0038 183.711 91.2642 183.711  c
92.3476 183.711 93.1575 184.003 93.6939 184.586  c
94.2304 185.170 94.4986 186.050 94.4986 187.227  c
94.4986 193.555 l
92.9517 193.555 l
h
99.1470 192.352 m
99.0064 192.352 l
98.6470 193.555 l
97.5220 193.555 l
97.5220 179.836 l
99.1470 179.836 l
99.1470 183.149 l
99.1470 183.659 99.1210 184.336 99.0689 185.180  c
99.1470 185.180 l
99.7512 184.201 100.663 183.711 101.881 183.711  c
102.965 183.711 103.845 184.133 104.522 184.977  c
105.199 185.821 105.538 187.060 105.538 188.696  c
105.538 190.342 105.199 191.586 104.522 192.430  c
103.845 193.274 102.965 193.696 101.881 193.696  c
100.663 193.696 99.7512 193.248 99.1470 192.352  c
h
101.600 192.430 m
102.350 192.430 102.913 192.112 103.288 191.477  c
103.663 190.842 103.850 189.915 103.850 188.696  c
103.850 187.477 103.663 186.563 103.288 185.954  c
102.913 185.344 102.329 185.040 101.538 185.040  c
100.736 185.040 100.137 185.297 99.7408 185.813  c
99.3450 186.329 99.1470 187.290 99.1470 188.696  c
99.1470 190.102 99.3450 191.076 99.7408 191.618  c
100.137 192.159 100.756 192.430 101.600 192.430  c
h
f
2 J
10.0000 M
1.00000 1.00000 1.00000 RG
0.00000 0.00000 0.00000 RG
1.00000 1.00000 1.00000 RG
newpath
89.4400 345.059 m
104.440 345.059 l
104.440 384.500 l
89.4400 384.500 l
89.4400 345.059 l
h
f
0 J
1.45000 M
newpath
89.4400 345.059 m
104.440 345.059 l
104.440 384.500 l
89.4400 384.500 l
89.4400 345.059 l
h
S
2 J
10.0000 M
0.00000 0.00000 0.00000 RG
0 J
1.45000 M
newpath
99.2252 371.776 m
99.2252 365.588 l
99.2252 364.786 99.0611 364.198 98.7330 363.823  c
98.4048 363.448 97.9127 363.260 97.2564 363.260  c
96.4647 363.260 95.8580 363.531 95.4361 364.073  c
95.0142 364.614 94.8033 365.515 94.8033 366.776  c
94.8033 371.776 l
93.1783 371.776 l
93.1783 362.135 l
94.4439 362.135 l
94.7252 363.401 l
94.8033 363.401 l
95.3658 362.421 96.2772 361.932 97.5377 361.932  c
98.6210 361.932 99.4309 362.224 99.9673 362.807  c
100.504 363.390 100.772 364.270 100.772 365.448  c
100.772 371.776 l
99.2252 371.776 l
h
f
2 J
10.0000 M
1.00000 1.00000 1.00000 RG
0.00000 0.00000 0.00000 RG
1.00000 1.00000 1.00000 RG
newpath
484.320 256.500 m
516.320 256.500 l
516.320 271.500 l
484.320 271.500 l
484.320 256.500 l
h
f
0 J
1.45000 M
newpath
484.320 256.500 m
516.320 256.500 l
516.320 271.500 l
484.320 271.500 l
484.320 256.500 l
h
S
2 J
10.0000 M
0.00000 0.00000 0.00000 RG
0 J
1.45000 M
newpath
498.320 269.094 m
498.258 269.094 l
497.674 269.927 496.841 270.344 495.758 270.344  c
494.799 270.344 494.018 269.979 493.414 269.250  c
492.810 268.521 492.508 267.427 492.508 265.969  c
492.508 264.469 492.810 263.344 493.414 262.594  c
494.018 261.844 494.799 261.469 495.758 261.469  c
496.799 261.469 497.633 261.885 498.258 262.719  c
498.320 262.719 l
498.258 261.469 l
498.258 258.031 l
499.633 258.031 l
499.633 270.219 l
498.508 270.219 l
498.320 269.094 l
h
498.258 266.281 m
498.258 265.969 l
498.258 264.719 498.070 263.854 497.695 263.375  c
497.320 262.896 496.758 262.656 496.008 262.656  c
495.341 262.656 494.841 262.927 494.508 263.469  c
494.174 264.010 494.008 264.844 494.008 265.969  c
494.008 267.052 494.174 267.865 494.508 268.406  c
494.841 268.948 495.362 269.219 496.070 269.219  c
496.778 269.219 497.320 268.990 497.695 268.531  c
498.070 268.073 498.258 267.323 498.258 266.281  c
h
504.195 265.844 m
501.445 261.656 l
503.070 261.656 l
505.008 264.844 l
506.945 261.656 l
508.570 261.656 l
505.820 265.844 l
508.695 270.219 l
507.133 270.219 l
505.008 266.781 l
502.883 270.219 l
501.258 270.219 l
504.195 265.844 l
h
f
2 J
10.0000 M
1.00000 1.00000 1.00000 RG
0.00000 0.00000 0.00000 RG
1.00000 1.00000 1.00000 RG
newpath
552.607 367.500 m
573.000 367.500 l
573.000 395.500 l
552.607 395.500 l
552.607 367.500 l
h
f
0 J
1.45000 M
newpath
552.607 367.500 m
573.000 367.500 l
573.000 395.500 l
552.607 395.500 l
552.607 367.500 l
h
S
2 J
10.0000 M
0.00000 0.00000 0.00000 RG
0 J
1.45000 M
newpath
560.897 386.594 m
560.835 386.594 l
560.251 387.427 559.418 387.844 558.335 387.844  c
557.376 387.844 556.595 387.479 555.991 386.750  c
555.387 386.021 555.085 384.927 555.085 383.469  c
555.085 381.969 555.387 380.844 555.991 380.094  c
556.595 379.344 557.376 378.969 558.335 378.969  c
559.376 378.969 560.210 379.385 560.835 380.219  c
560.897 380.219 l
560.835 378.969 l
560.835 375.531 l
562.210 375.531 l
562.210 387.719 l
561.085 387.719 l
560.897 386.594 l
h
560.835 383.781 m
560.835 383.469 l
560.835 382.219 560.647 381.354 560.272 380.875  c
559.897 380.396 559.335 380.156 558.585 380.156  c
557.918 380.156 557.418 380.427 557.085 380.969  c
556.751 381.510 556.585 382.344 556.585 383.469  c
556.585 384.552 556.751 385.365 557.085 385.906  c
557.418 386.448 557.939 386.719 558.647 386.719  c
559.355 386.719 559.897 386.490 560.272 386.031  c
560.647 385.573 560.835 384.823 560.835 383.781  c
h
563.647 379.156 m
565.147 379.156 l
566.835 383.906 l
567.210 385.073 567.439 385.948 567.522 386.531  c
567.585 386.531 l
567.710 385.906 567.960 385.031 568.335 383.906  c
569.835 379.156 l
571.335 379.156 l
567.960 388.844 l
567.585 389.885 567.168 390.594 566.710 390.969  c
566.251 391.344 565.689 391.531 565.022 391.531  c
564.605 391.531 564.189 391.490 563.772 391.406  c
563.772 390.281 l
564.064 390.365 564.376 390.406 564.710 390.406  c
565.543 390.406 566.126 389.948 566.460 389.031  c
566.897 387.781 l
563.647 379.156 l
h
f
2 J
10.0000 M
1.00000 1.00000 1.00000 RG
0.00000 0.00000 0.00000 RG
1.00000 1.00000 1.00000 RG
newpath
496.607 142.500 m
511.607 142.500 l
511.607 161.500 l
496.607 161.500 l
496.607 142.500 l
h
f
0 J
1.45000 M
newpath
496.607 142.500 m
511.607 142.500 l
511.607 161.500 l
496.607 161.500 l
496.607 142.500 l
h
S
2 J
10.0000 M
0.00000 0.00000 0.00000 RG
0 J
1.45000 M
newpath
507.154 150.398 m
504.810 150.398 l
504.810 159.773 l
503.013 159.773 l
503.013 150.398 l
501.138 150.398 l
501.138 149.617 l
503.013 148.992 l
503.013 148.055 l
503.013 146.753 503.273 145.828 503.794 145.281  c
504.315 144.734 505.122 144.461 506.216 144.461  c
506.841 144.461 507.492 144.591 508.169 144.852  c
507.700 146.180 l
507.180 146.023 506.711 145.945 506.294 145.945  c
505.773 145.945 505.396 146.089 505.161 146.375  c
504.927 146.661 504.810 147.221 504.810 148.055  c
504.810 149.070 l
507.154 149.070 l
507.154 150.398 l
h
f
2 J
10.0000 M
1.00000 1.00000 1.00000 RG
0.00000 0.00000 0.00000 RG
1.00000 1.00000 1.00000 RG
newpath
344.640 348.000 m
397.140 348.000 l
397.140 367.000 l
344.640 367.000 l
344.640 348.000 l
h
f
0 J
1.45000 M
newpath
344.640 348.000 m
397.140 348.000 l
397.140 367.000 l
344.640 367.000 l
344.640 348.000 l
h
S
2 J
10.0000 M
0.00000 0.00000 0.00000 RG
0 J
1.45000 M
newpath
354.370 355.189 m
354.199 356.408 l
353.886 356.377 353.610 356.361 353.370 356.361  c
352.787 356.361 352.300 356.596 351.910 357.064  c
351.519 357.533 351.324 358.174 351.324 358.986  c
351.324 363.330 l
349.980 363.330 l
349.980 355.299 l
351.027 355.299 l
351.199 356.768 l
351.261 356.768 l
351.886 355.674 352.610 355.127 353.433 355.127  c
353.787 355.127 354.100 355.148 354.370 355.189  c
h
362.394 363.330 m
361.222 359.986 l
357.238 359.986 l
356.066 363.330 l
354.660 363.330 l
358.581 352.549 l
359.816 352.549 l
363.800 363.330 l
362.394 363.330 l
h
360.816 358.814 m
359.706 355.705 l
359.467 355.049 359.311 354.486 359.238 354.018  c
359.113 354.559 358.936 355.122 358.706 355.705  c
357.644 358.814 l
360.816 358.814 l
h
366.613 352.611 m
367.847 352.611 l
366.482 354.559 365.800 356.762 365.800 359.221  c
365.800 361.648 366.482 363.799 367.847 365.674  c
366.613 365.674 l
365.134 363.997 364.394 361.846 364.394 359.221  c
364.394 356.564 365.134 354.361 366.613 352.611  c
h
369.015 357.939 m
369.015 356.106 369.299 354.729 369.867 353.807  c
370.434 352.885 371.286 352.424 372.421 352.424  c
373.588 352.424 374.455 352.885 375.023 353.807  c
375.591 354.729 375.874 356.106 375.874 357.939  c
375.874 359.773 375.591 361.150 375.023 362.072  c
374.455 362.994 373.588 363.455 372.421 363.455  c
371.286 363.455 370.434 362.994 369.867 362.072  c
369.299 361.150 369.015 359.773 369.015 357.939  c
h
374.531 357.939 m
374.531 356.294 374.343 355.158 373.968 354.533  c
373.593 353.908 373.078 353.596 372.421 353.596  c
371.796 353.596 371.296 353.900 370.921 354.510  c
370.546 355.119 370.359 356.262 370.359 357.939  c
370.359 359.658 370.546 360.820 370.921 361.424  c
371.296 362.028 371.796 362.330 372.421 362.330  c
373.078 362.330 373.593 362.018 373.968 361.393  c
374.343 360.768 374.531 359.617 374.531 357.939  c
h
379.214 361.564 m
379.324 361.752 l
379.053 362.762 378.626 363.934 378.042 365.268  c
377.042 365.268 l
377.355 363.893 377.610 362.658 377.808 361.564  c
379.214 361.564 l
h
385.542 363.330 m
384.245 363.330 l
384.245 356.643 l
384.245 355.705 384.266 354.830 384.308 354.018  c
382.324 355.705 l
381.620 354.830 l
384.433 352.611 l
385.542 352.611 l
385.542 363.330 l
h
390.288 365.674 m
389.054 365.674 l
390.419 363.799 391.101 361.648 391.101 359.221  c
391.101 356.721 390.419 354.518 389.054 352.611  c
390.288 352.611 l
391.768 354.403 392.507 356.606 392.507 359.221  c
392.507 361.804 391.768 363.955 390.288 365.674  c
h
f
2 J
10.0000 M
1.00000 1.00000 1.00000 RG
0.00000 0.00000 0.00000 RG
0 J
1.45000 M
newpath
123.964 155.500 m
120.455 156.225 l
117.413 158.274 l
112.734 165.587 l
109.927 175.927 l
108.991 187.780 l
109.927 199.632 l
112.734 209.972 l
117.413 217.285 l
120.455 219.334 l
123.964 220.059 l
S
2 J
10.0000 M
0 J
1.45000 M
newpath
300.000 188.000 m
254.000 188.000 l
254.000 189.000 l
253.968 189.000 l
S
newpath
253.968 189.000 m
265.968 194.000 l
262.968 189.000 l
265.968 184.000 l
h
f
2 J
10.0000 M
0 J
1.45000 M
newpath
221.500 250.500 m
221.500 228.500 l
S
newpath
221.500 220.500 m
216.500 232.500 l
221.500 229.500 l
226.500 232.500 l
h
f
2 J
10.0000 M
0 J
1.45000 M
newpath
460.022 218.994 m
466.852 217.557 l
472.794 213.479 l
477.822 207.141 l
481.935 198.922 l
485.135 189.197 l
487.420 178.342 l
489.249 154.750 l
487.420 131.158 l
485.135 120.303 l
481.935 110.578 l
477.822 102.359 l
472.794 96.0215 l
466.852 91.9431 l
460.022 90.5056 l
S
2 J
10.0000 M
0 J
1.45000 M
newpath
124.001 306.013 m
111.193 338.723 l
108.023 350.421 l
107.033 360.657 l
108.233 370.671 l
111.636 381.702 l
123.989 409.279 l
S
2 J
10.0000 M
2.00000 w
0 J
1.45000 M
newpath
246.676 220.510 m
258.964 242.116 l
272.984 261.298 l
288.738 278.057 l
306.224 292.393 l
325.444 304.305 l
346.396 313.793 l
369.082 320.858 l
384.658 323.819 l
S
newpath
393.500 325.500 m
381.288 317.453 l
383.553 323.609 l
379.187 328.505 l
h
f
1.00000 w
2 J
10.0000 M
0 J
1.45000 M
newpath
534.805 411.636 m
536.807 411.304 l
540.451 409.336 l
546.081 402.312 l
549.524 392.383 l
550.805 381.000 l
549.950 369.617 l
546.986 359.688 l
541.938 352.664 l
538.641 350.696 l
534.833 350.000 l
S
2 J
10.0000 M
0 J
1.45000 M
newpath
532.500 283.977 m
514.656 275.826 l
508.137 273.773 l
502.250 273.060 l
496.270 273.681 l
489.469 275.632 l
470.500 283.500 l
S
2 J
10.0000 M
Q
[ 1.00000 0.00000 0.00000 1.00000 0.00000 0.00000 ] defaultmatrix matrix concatmatrix setmatrix
cliprestore

%%Trailer
%%EOF
