%!PS-Adobe-3.0 EPSF-3.0
%%BoundingBox: 0 0 512 229
%%Creator: yExport 1.5
%%Producer: org.freehep.graphicsio.ps.EPSGraphics2D Revision: 12753 
%%For: 
%%Title: 
%%CreationDate: Thursday, May 11, 2017 11:21:44 AM CST
%%LanguageLevel: 3
%%EndComments
%%BeginProlog
100 dict dup begin

%
% File: org/freehep/graphicsio.ps/PSProlog.txt
% Author: Charles Loomis
%

% Redefinitions which save some space in the output file.  These are also
% the same as the PDF operators.
/q {gsave} def
/Q {grestore} def

/n {newpath} def
/m {moveto} def
/l {lineto} def
/c {curveto} def
/h {closepath} def

/re {4 -2 roll moveto
     dup 0 exch rlineto exch 0 rlineto
     neg 0 exch rlineto closepath} def

/f {fill} def
/f* {eofill} def
/F {gsave vg&FC fill grestore} def
/F* {gsave vg&FC eofill grestore} def

/s {closepath stroke} def
/S {stroke} def

/b {closepath gsave vg&FC fill grestore
    gsave stroke grestore newpath} def
/B {gsave vg&FC fill grestore gsave stroke grestore newpath} def
/b* {closepath gsave vg&FC eofill grestore
    gsave stroke grestore newpath} def
/B* {gsave vg&FC eofill grestore gsave stroke grestore newpath} def

/g {1 array astore /vg&fcolor exch def} def
/G {setgray} def
/k {4 array astore /vg&fcolor exch def} def
/K {setcmykcolor} def
/rg {3 array astore /vg&fcolor exch def} def
/RG {setrgbcolor} def

% Initialize the fill color.
0 0 0 rg

/vg&FC {mark vg&fcolor aload pop
        counttomark 1 eq {G} if
        counttomark 3 eq {RG} if
        counttomark 4 eq {K} if
        cleartomark } def

/vg&DFC {/vg&fcolor exch def} def

/vg&C {mark exch aload pop
       counttomark 1 eq {G} if
       counttomark 3 eq {RG} if
       counttomark 4 eq {K} if
       cleartomark } def

/w {setlinewidth} def
/j {setlinejoin} def
/J {setlinecap} def
/M {setmiterlimit} def
/d {setdash} def
/i {setflat} def

/W {clip} def
/W* {eoclip} def

% Setup the default graphics state.
% (black; 1 pt. linewidth; miter join; butt-ends; solid)
/defaultGraphicsState {0 g 1 w 0 j 0 J [] 0 d} def

% Emulation of the rectangle operators for PostScript implementations
% which do not implement all Level 2 features.  This is an INCOMPLETE
% emulation; only the "x y width height rect..." form is emulated.
/*rf {gsave newpath re fill grestore} def
/*rs {gsave newpath re stroke grestore} def
/*rc {newpath re clip} def
/rf  /rectfill where {pop /rectfill}{/*rf} ifelse load def
/rs  /rectstroke where {pop /rectstroke}{/*rs} ifelse load def
/rc  /rectclip where {pop /rectclip}{/*rc} ifelse load def

% Emulation of the selectfont operator.  This includes a 20% increase in
% the fontsize which is necessary to get sizes similar to the Java fonts.
/*sf {exch findfont exch
      dup type /arraytype eq {makefont}{scalefont} ifelse setfont} bind def
/sf /selectfont where {pop {1.2 mul selectfont}}{{1.2 mul *sf}} ifelse def

% Special version of stroke which allows the dash pattern to continue
% across path segments.  (This may be needed for PostScript although
% modern printers seem to do this correctly.)
/vg&stroke {
  currentdash pop length 0 eq
  {stroke}
  {
    currentdash /vg&doffset exch def pop
    flattenpath
    {m vg&resetdash}
    {2 copy
     currentpoint
     3 -1 roll sub dup mul
     3 1 roll sub dup mul
     add sqrt
     3 1 roll l
     currentdash 3 -1 roll add setdash}
     {}
     {h vg&resetdash}
     pathforall
     stroke
     vg&resetdash
  } ifelse
} def
/vg&resetdash {currentdash pop vg&doffset setdash} def

% Initialize variables for safety.
/delta 0 def
/xv 0 def  /yv 0 def  /width 0 def  /height 0 def

% Initialize to portrait INTERNATIONAL (Letter-height, A4-width) page.
/pw 595 def  /ph 791  def  /po true def /ftp false def

% Initialize margins to 20 points.
/ml 20 def  /mr 20 def  /mt 20 def  /mb 20 def

% Temporary matrices.
/smatrix 0 def  /nmatrix 0 def

% set page size (usage: <page width><page height> setpagesize)
/setpagesize {/ph exch def /pw exch def} def

% set page orientation (usage: portrait or landscape)
/portrait {/po true def} def
/landscape {/po false def} def

% force natural size for image (usage: naturalsize)
/naturalsize {/ftp false def} def

% resize image to fill page (usage: fittopage)
/fittopage {/ftp true def} def

% set margins of the page (usage: <left><bottom><top><right> setmargins)
/setmargins {/mr exch def /mt exch def /mb exch def /ml exch def} def

% set the graphic's size (usage: <width><height> setsize)
/setsize {/gh exch def /gw exch def} def

% set the graphic's origin (usage: <x0><y0> setorigin)
/setorigin {/gy exch def /gx exch def} def

% calculate image center
/imagecenter {pw ml sub mr sub 2 div ml add
              ph mt sub mb sub 2 div mb add} def

% calculate the necessary scaling
/imagescale {po {gw}{gh} ifelse pw ml sub mr sub div
             po {gh}{gw} ifelse ph mt sub mb sub div
             2 copy lt {exch} if pop
             ftp not {1 2 copy lt {exch} if pop} if
             1 exch div /sfactor exch def
             /gw gw sfactor mul def /gh gh sfactor mul def} def

% calculate image origin
/imageorigin {pw ml sub mr sub 2 div ml add
              po {gw}{gh} ifelse 2 div sub
              ph mt sub mb sub 2 div mb add
              po {gh}{gw} ifelse 2 div po {add}{sub} ifelse} def

% calculate the clipping origin
/cliporigin  {pw ml sub mr sub 2 div ml add
              po {gw}{gh} ifelse 2 div sub floor
              ph mt sub mb sub 2 div mb add
              po {gh}{gw} ifelse 2 div sub floor} def

% Set the clipping region to the bounding box.
/cliptobounds {cliporigin po {gw}{gh} ifelse 1 add
                          po {gh}{gw} ifelse 1 add rc} def

% set the base transformation matrix (usage: setbasematrix)
/setbasematrix {imageorigin translate
                po {0}{90} ifelse rotate
                sfactor sfactor neg scale
                /defaultmatrix matrix currentmatrix def} def

% The lower-right bias in drawing 1 pt. wide lines.
/bias  {q 0.5 0.5 translate} def
/unbias {Q} def

% Define the composite fonts used to print Unicode strings.
% Undefine particular values in an encoding array.
/vg&undef { {exch dup 3 -1 roll /.notdef put} forall } def
/vg&redef { {3 -1 roll dup 4 2 roll put} forall } def

% usage: key encoding basefontname vg&newbasefont font
/vg&newbasefont {
findfont dup length dict copy
  begin
    currentdict /FID undef
    /Encoding exch def
    dup /FontName exch def
    currentdict
  end
definefont
} def

% usage: key encoding basefontname vg&newskewedbasefont font
/vg&newskewedbasefont {
findfont dup length dict copy
  begin
    currentdict /FID undef
    /Encoding exch def
    dup /FontName exch def
    exch FontMatrix exch matrix concatmatrix /FontMatrix exch def
    currentdict
  end
definefont
} def

% usage: basekey suffix vg&nconcat name
/vg&nconcat {
  2 {dup length string cvs exch} repeat
  dup length 3 -1 roll dup length 3 -1 roll add string
  dup 0 4 -1 roll dup length 5 1 roll putinterval
  dup 4 -2 roll exch putinterval cvn
} def

%usage: fontname vg&skewmatrix matrix
/vg&skewmatrix {
findfont dup /FontInfo known
  {
    /FontInfo get dup /ItalicAngle known
    {
      [ 1 0 4 -1 roll /ItalicAngle get neg dup sin exch cos div 1 0 0 ]
    }
    {pop matrix} ifelse
  }
  {pop matrix} ifelse
} def

% usage: newfontname basefontname vg&newcompositefont --
/vg&newcompositefont {
/vg&fstyle exch def
/vg&bfont exch def
/vg&fname exch def
<<
/FontStyleBits vg&fstyle
/FontType 0
/FontMatrix matrix
/FontName vg&fname
/FMapType 2
/Encoding [ 0 1 255 {pop 6} for ]
          dup 16#00 0 put % Latin
          dup 16#03 1 put % Greek
          dup 16#20 2 put % Punctuation
          dup 16#21 3 put % Arrows
          dup 16#22 4 put % MathOps
          dup 16#27 5 put % Dingbats

/FDepVector [
vg&bfont /-UC-Latin vg&nconcat UCLatinEncoding
vg&bfont vg&newbasefont

vg&bfont vg&skewmatrix
vg&bfont /-UC-Greek vg&nconcat UCGreekEncoding
/Symbol vg&newskewedbasefont

vg&bfont /-UC-Punctuation vg&nconcat UCPunctuationEncoding
vg&bfont vg&newbasefont

/Arrows-UC findfont
/MathOps-UC findfont
/Dingbats-UC findfont
/Undefined-UC findfont ]
>>
vg&fname exch definefont pop
} def

% Null encoding vector (all elements set to .notdef)
/NullEncoding [ 256 {/.notdef} repeat ] def

% Unicode Latin encoding (unicode codes \u0000-\u00ff)
/UCLatinEncoding
  ISOLatin1Encoding dup length array copy
  dup 16#60 /grave put
  [ 16#90 16#91 16#92 16#93 16#94 16#95 16#96
    16#97 16#98 16#9a 16#9b 16#9d 16#9e 16#9f
  ] vg&undef
  def

% Unicode Greek encoding (unicode codes \u0370-\u03ff)
/UCGreekEncoding
  NullEncoding dup length array copy
  << 16#91 /Alpha    16#92 /Beta      16#93 /Gamma    16#94 /Delta
     16#95 /Epsilon  16#96 /Zeta      16#97 /Eta      16#98 /Theta
     16#99 /Iota     16#9a /Kappa     16#9b /Lambda   16#9c /Mu
     16#9d /Nu       16#9e /Xi        16#9f /Omicron  16#a0 /Pi
     16#a1 /Rho      16#a3 /Sigma     16#a4 /Tau      16#a5 /Upsilon
     16#a6 /Phi      16#a7 /Chi       16#a8 /Psi      16#a9 /Omega
     16#b1 /alpha    16#b2 /beta      16#b3 /gamma    16#b4 /delta
     16#b5 /epsilon  16#b6 /zeta      16#b7 /eta      16#b8 /theta
     16#b9 /iota     16#ba /kappa     16#bb /lambda   16#bc /mu
     16#bd /nu       16#be /xi        16#bf /omicron  16#c0 /pi
     16#c1 /rho      16#c2 /sigma1    16#c3 /sigma    16#c4 /tau
     16#c5 /upsilon  16#c6 /phi1      16#c7 /chi      16#c8 /psi
     16#c9 /omega    16#7e /semicolon 16#87 /dotmath  16#d1 /theta1
     16#d2 /Upsilon1 16#d5 /phi       16#d6 /omega1
  >> vg&redef
  def

% Unicode punctuation encoding (unicode codes \u2000-\u206f)
/UCPunctuationEncoding
  NullEncoding dup length array copy
  << 16#10 /hyphen          16#11 /hyphen              16#12 /endash
     16#13 /emdash          16#18 /quoteleft           16#19 /quoteright
     16#1a /quotesinglbase  16#1b /quotesingle         16#1c /quotedblleft
     16#1d /quotedblright   16#1e /quotedblbase        16#1f /quotedbl
     16#20 /dagger          16#21 /daggerdbl           16#22 /bullet
     16#24 /period          16#26 /ellipsis            16#27 /periodcentered
     16#30 /perthousand     16#44 /fraction
     16#70 /zerosuperior    16#74 /foursuperior        16#75 /fivesuperior
     16#76 /sixsuperior     16#77 /sevensuperior       16#78 /eightsuperior
     16#79 /ninesuperior    16#7b /hyphensuperior      16#7d /parenleftsuperior
     16#7e /parenrightsuperior
     16#80 /zeroinferior    16#84 /fourinferior        16#85 /fiveinferior
     16#81 /oneinferior     16#82 /twoinferior         16#83 /threeinferior
     16#86 /sixinferior     16#87 /seveninferior       16#88 /eightinferior
     16#89 /nineinferior    16#8b /hypheninferior      16#8d /parenleftinferior
     16#8e /parenrightinferior
  >> vg&redef
  def

% Unicode mathematical operators encoding (unicode codes \u2200-\u22ff)
/UCMathOpsEncoding
  NullEncoding dup length array copy
  << 16#00 /universal       16#02 /partialdiff         16#03 /existential
     16#05 /emptyset        16#06 /Delta               16#07 /gradient
     16#08 /element         16#09 /notelement          16#0b /suchthat
     16#0f /product         16#11 /summation           16#12 /minus
     16#15 /fraction        16#17 /asteriskmath        16#19 /bullet
     16#1a /radical         16#1d /proportional        16#1e /infinity
     16#20 /angle           16#23 /bar                 16#27 /logicaland
     16#28 /logicalor       16#29 /intersection        16#2a /union
     16#2b /integral        16#34 /therefore           16#36 /colon
     16#3c /similar         16#45 /congruent           16#48 /approxequal
     16#60 /notequal        16#61 /equivalence         16#64 /lessequal
     16#65 /greaterequal    16#82 /propersubset        16#83 /propersuperset
     16#86 /reflexsubset    16#87 /reflexsuperset      16#95 /circleplus
     16#97 /circlemultiply  16#a5 /perpendicular       16#03 /existential
     16#c0 /logicaland      16#c1 /logicalor           16#c2 /intersection
     16#c3 /union           16#c4 /diamond             16#c5 /dotmath
  >> vg&redef
  def

% Unicode arrows encoding (unicode codes \u2190-\u21ff)
% Also includes those "Letterlike" unicode characters
% which are available in the symbol font. (unicode codes \u2100-\u214f)
/UCArrowsEncoding
  NullEncoding dup length array copy
  << 16#11 /Ifraktur        16#1c /Rfraktur            16#22 /trademarkserif
     16#35 /aleph
     16#90 /arrowleft       16#91 /arrowup             16#92 /arrowright
     16#93 /arrowdown       16#94 /arrowboth           16#d0 /arrowdblleft
     16#d1 /arrowdblup      16#d2 /arrowdblright       16#d3 /arrowdbldown
     16#d4 /arrowdblboth
  >> vg&redef
  def

/ZapfDingbats findfont /Encoding get
dup length array copy /UCDingbatsEncoding exch def
16#20 1 16#7f {
  dup 16#20 sub exch
  UCDingbatsEncoding exch get
  UCDingbatsEncoding 3 1 roll put
} for
16#a0 1 16#ff {
  dup 16#40 sub exch
  UCDingbatsEncoding exch get
  UCDingbatsEncoding 3 1 roll put
} for
UCDingbatsEncoding [ 16#c0 1 16#ff {} for ] vg&undef
[ 16#00  16#05 16#0a 16#0b  16#28 16#4c 16#4e  16#53 16#54 16#55  16#57 16#5f
  16#60  16#68 16#69 16#6a  16#6b 16#6c 16#6d  16#6e 16#6f 16#70  16#71 16#72
  16#73  16#74 16#75 16#95  16#96 16#97 16#b0  16#bf
] vg&undef pop

% Define the base fonts which don't change.
/Undefined-UC NullEncoding       /Helvetica    vg&newbasefont pop
/MathOps-UC   UCMathOpsEncoding  /Symbol       vg&newbasefont pop
/Arrows-UC    UCArrowsEncoding   /Symbol       vg&newbasefont pop
/Dingbats-UC  UCDingbatsEncoding /ZapfDingbats vg&newbasefont pop

% Make the SansSerif composite fonts.
/SansSerif /Helvetica 16#00 vg&newcompositefont
/SansSerif-Bold /Helvetica-Bold 16#01 vg&newcompositefont
/SansSerif-Italic /Helvetica-Oblique 16#02 vg&newcompositefont
/SansSerif-BoldItalic /Helvetica-BoldOblique 16#03 vg&newcompositefont

% Make the Serif composite fonts.
/Serif /Times-Roman 16#00 vg&newcompositefont
/Serif-Bold /Times-Bold 16#01 vg&newcompositefont
/Serif-Italic /Times-Italic 16#02 vg&newcompositefont
/Serif-BoldItalic /Times-BoldItalic 16#03 vg&newcompositefont

% Make the Monospaced composite fonts.
/Monospaced /Courier 16#00 vg&newcompositefont
/Monospaced-Bold /Courier-Bold 16#01 vg&newcompositefont
/Monospaced-Italic /Courier-Oblique 16#02 vg&newcompositefont
/Monospaced-BoldItalic /Courier-BoldOblique 16#03 vg&newcompositefont

% Make the Dialog composite fonts.
/Dialog /Helvetica 16#00 vg&newcompositefont
/Dialog-Bold /Helvetica-Bold 16#01 vg&newcompositefont
/Dialog-Italic /Helvetica-Oblique 16#02 vg&newcompositefont
/Dialog-BoldItalic /Helvetica-BoldOblique 16#03 vg&newcompositefont

% Make the DialogInput composite fonts.
/DialogInput /Courier 16#00 vg&newcompositefont
/DialogInput-Bold /Courier-Bold 16#01 vg&newcompositefont
/DialogInput-Italic /Courier-Oblique 16#02 vg&newcompositefont
/DialogInput-BoldItalic /Courier-BoldOblique 16#03 vg&newcompositefont

% Make the Typewriter composite fonts (JDK 1.1 only).
/Typewriter /Courier 16#00 vg&newcompositefont
/Typewriter-Bold /Courier-Bold 16#01 vg&newcompositefont
/Typewriter-Italic /Courier-Oblique 16#02 vg&newcompositefont
/Typewriter-BoldItalic /Courier-BoldOblique 16#03 vg&newcompositefont


/cfontH {
 dup /fontsize exch def /SansSerif exch sf
 /vg&fontstyles [{cfontH} {cfontHB} {cfontHI} {cfontHBI}] def
} def
/cfontHB {
  dup /fontsize exch def /SansSerif-Bold exch sf
 /vg&fontstyles [{cfontH} {cfontHB} {cfontHI} {cfontHBI}] def
} def
/cfontHI {
 dup /fontsize exch def /SansSerif-Italic exch sf
 /vg&fontstyles [{cfontH} {cfontHB} {cfontHI} {cfontHBI}] def
} def
/cfontHBI {
 dup /fontsize exch def /SansSerif-BoldItalic exch sf
 /vg&fontstyles [{cfontH} {cfontHB} {cfontHI} {cfontHBI}] def
} def

/cfontT {
 dup /fontsize exch def /Serif exch sf
 /vg&fontstyles [{cfontT} {cfontTB} {cfontTI} {cfontTBI}] def
} def
/cfontTB {
 dup /fontsize exch def /Serif-Bold exch sf
 /vg&fontstyles [{cfontT} {cfontTB} {cfontTI} {cfontTBI}] def
} def
/cfontTI {
 dup /fontsize exch def /Serif-Italic exch sf
 /vg&fontstyles [{cfontT} {cfontTB} {cfontTI} {cfontTBI}] def
} def
/cfontTBI {
 dup /fontsize exch def /Serif-BoldItalic exch sf
 /vg&fontstyles [{cfontT} {cfontTB} {cfontTI} {cfontTBI}] def
} def

/cfontC {
 dup /fontsize exch def /Typewriter exch sf
 /vg&fontstyles [{cfontC} {cfontCB} {cfontCI} {cfontCBI}] def
} def
/cfontCB {
 dup /fontsize exch def /Typewriter-Bold exch sf
 /vg&fontstyles [{cfontC} {cfontCB} {cfontCI} {cfontCBI}] def
} def
/cfontCI {
 dup /fontsize exch def /Typewriter-Italic exch sf
 /vg&fontstyles [{cfontC} {cfontCB} {cfontCI} {cfontCBI}] def
} def
/cfontCBI {
 dup /fontsize exch def /Typewriter-BoldItalic exch sf
 /vg&fontstyles [{cfontC} {cfontCB} {cfontCI} {cfontCBI}] def
} def

% Darken or lighten the current color.
/darken {0.7 exch exp 3 copy
         q 4 -1 roll vg&C
         currentrgbcolor 3 {4 -2 roll mul} repeat
         3 array astore Q} def

/displayColorMap
<< /Cr   [1.00 0.00 0.00]       /Cg     [0.00 1.00 0.00]
   /Cb   [0.00 0.00 1.00]       /Cc     [1.00 0.00 0.00 0.00]
   /Cm   [0.00 1.00 0.00 0.00]  /Cy     [0.00 0.00 1.00 0.00]
   /Co   [1.00 0.78 0.00]       /Cp     [1.00 0.67 0.67]
   /Cw   [1   ]                 /Cgrl   [0.75]
   /Cgr  [0.50]                 /Cgrd   [0.25]
   /Ck   [0   ]
   /CGr  [1.00 0.00 0.00]       /CGg    [0.00 1.00 0.00]
   /CGb  [0.00 0.00 1.00]       /CGc    [1.00 0.00 0.00 0.00]
   /CGm  [0.00 1.00 0.00 0.00]  /CGy    [0.00 0.00 1.00 0.00]
   /CGo  [1.00 0.78 0.00]       /CGp    [1.00 0.67 0.67]
   /CGw  [1   ]                 /CGgrl  [0.75]
   /CGgr [0.50]                 /CGgrd  [0.25]
   /CGk  [0   ]
   /CIr  [1.00 0.00 0.00]       /CIg    [0.00 1.00 0.00]
   /CIb  [0.00 0.00 1.00]       /CIc    [1.00 0.00 0.00 0.00]
   /CIm  [0.00 1.00 0.00 0.00]  /CIy    [0.00 0.00 1.00 0.00]
   /CIo  [1.00 0.78 0.00]       /CIp    [1.00 0.67 0.67]
   /CIw  [1   ]                 /CIgrl  [0.75]
   /CIgr [0.50]                 /CIgrd  [0.25]
   /CIk  [0   ]
>> def

/printColorMap
<< /Cr   [1.00 0.33 0.33]       /Cg     [0.33 1.00 0.33]
   /Cb   [0.33 0.33 1.00]       /Cc     [1.00 0.00 0.00 0.00]
   /Cm   [0.00 1.00 0.00 0.00]  /Cy     [0.00 0.00 1.00 0.00]
   /Co   [1.00 0.78 0.00]       /Cp     [1.00 0.67 0.67]
   /Cw   [1   ]                 /Cgrl   [0.75]
   /Cgr  [0.50]                 /Cgrd   [0.25]
   /Ck   [0   ]
   /CGr  [1.00 0.33 0.33]       /CGg    [0.33 1.00 0.33]
   /CGb  [0.33 0.33 1.00]       /CGc    [1.00 0.00 0.00 0.00]
   /CGm  [0.00 1.00 0.00 0.00]  /CGy    [0.00 0.00 1.00 0.00]
   /CGo  [1.00 0.78 0.00]       /CGp    [1.00 0.67 0.67]
   /CGw  [1   ]                 /CGgrl  [0.75]
   /CGgr [0.50]                 /CGgrd  [0.25]
   /CGk  [0   ]
   /CIr  [1.00 0.33 0.33]       /CIg    [0.33 1.00 0.33]
   /CIb  [0.33 0.33 1.00]       /CIc    [1.00 0.00 0.00 0.00]
   /CIm  [0.00 1.00 0.00 0.00]  /CIy    [0.00 0.00 1.00 0.00]
   /CIo  [1.00 0.78 0.00]       /CIp    [1.00 0.67 0.67]
   /CIw  [1   ]                 /CIgrl  [0.75]
   /CIgr [0.50]                 /CIgrd  [0.25]
   /CIk  [0   ]
>> def

/grayColorMap
<< /Cr   [0   ]                 /Cg     [0   ]
   /Cb   [0   ]                 /Cc     [0   ]
   /Cm   [0   ]                 /Cy     [0   ]
   /Co   [0   ]                 /Cp     [0   ]
   /Cw   [0   ]                 /Cgrl   [0   ]
   /Cgr  [0   ]                 /Cgrd   [0   ]
   /Ck   [0   ]
   /CGr  [0.75]                 /CGg    [1   ]
   /CGb  [0.50]                 /CGc    [0.75]
   /CGm  [0.50]                 /CGy    [1   ]
   /CGo  [0.75]                 /CGp    [1   ]
   /CGw  [0   ]                 /CGgrl  [0.25]
   /CGgr [0.50]                 /CGgrd  [0.75]
   /CGk  [1   ]
   /CIr  [1   ]                 /CIg    [1   ]
   /CIb  [1   ]                 /CIc    [1   ]
   /CIm  [1   ]                 /CIy    [1   ]
   /CIo  [1   ]                 /CIp    [1   ]
   /CIw  [1   ]                 /CIgrl  [1   ]
   /CIgr [1   ]                 /CIgrd  [1   ]
   /CIk  [1   ]
>> def

/bwColorMap
<< /Cr   [0   ]                 /Cg     [0   ]
   /Cb   [0   ]                 /Cc     [0   ]
   /Cm   [0   ]                 /Cy     [0   ]
   /Co   [0   ]                 /Cp     [0   ]
   /Cw   [0   ]                 /Cgrl   [0   ]
   /Cgr  [0   ]                 /Cgrd   [0   ]
   /Ck   [0   ]
   /CGr  [1   ]                 /CGg    [1   ]
   /CGb  [1   ]                 /CGc    [1   ]
   /CGm  [1   ]                 /CGy    [1   ]
   /CGo  [1   ]                 /CGp    [1   ]
   /CGw  [0   ]                 /CGgrl  [1   ]
   /CGgr [1   ]                 /CGgrd  [1   ]
   /CGk  [1   ]
   /CIr  [1   ]                 /CIg    [1   ]
   /CIb  [1   ]                 /CIc    [1   ]
   /CIm  [1   ]                 /CIy    [1   ]
   /CIo  [1   ]                 /CIp    [1   ]
   /CIw  [1   ]                 /CIgrl  [1   ]
   /CIgr [1   ]                 /CIgrd  [1   ]
   /CIk  [1   ]
>> def

%
% The following routines handle the alignment of and printing of
% tagged strings.
%

% Predefine the bounding box values.
/bbllx 0 def /bblly 0 def /bburx 0 def /bbury 0 def

% This routine pops the first unicode character off of a string and returns
% the remainder of the string, the character code of first character,
% and a "true" if the string was non-zero length.
% <string>      popfirst <remaining string> <true>
% <null string> popfirst <false>
/popfirst {
  dup length 1 gt
    {dup 0 get /vg&fbyte exch def
     dup 1 get /vg&cbyte exch def
     dup length 2 sub 2 exch getinterval true}
    {pop false} ifelse
} def

% This routine shows a single unicode character given the font and
% character codes.
% <font code> <char code> unicharshow --
/unicharshow {
  2 string
  dup 0 5 -1 roll put
  dup 1 4 -1 roll put
  internalshow
} def

% This is an internal routine to alternate between determining the
% bounding box for stringsize and showing the string for recshow.
% <string> internalshow --
/internalshow {show} def

% This is an internal routine to alternate between determining the
% bounding box for stringsize and stroking various ornaments.
% <string> internalstroke --
/internalstroke {S} def

% Sets up internalshow to use the null device to determine string size.
% -- nullinternalshow --
/nullinternalshow {/internalshow {false charpath flattenpath
                                  pathbbox updatebbox} def} def

% Sets up internalstroke to use the null device to determine string size.
% -- nullinternalstroke --
/nullinternalstroke {
 /internalstroke {flattenpath pathbbox updatebbox} def} def

% This routine tests to see if the character code matches the first
% character of a string.
% <char code> <string> testchar <char code> <true or false>
/testchar {exch dup 3 -1 roll 0 get eq} def

% Raise the text baseline for superscripts.
% -- raise --
/raise {
  0 fontsize 2 div rmoveto
  /fontsize fontsize 2 mul 3 div def
  currentfont /FontName get fontsize sf
} def

% Un-raise the text baseline for superscripts.
% -- unraise --
/unraise {
  /fontsize fontsize 1.5 mul def
  0 fontsize 2 div neg rmoveto
} def

% Lower the text baseline for subscripts.
% -- lower --
/lower {
  0 fontsize 3 div neg rmoveto
  /fontsize fontsize 2 mul 3 div def
  currentfont /FontName get fontsize sf
} def

% Un-lower the text baseline for subscripts.
% -- unlower --
/unlower {
  /fontsize fontsize 1.5 mul def
  0 fontsize 3 div rmoveto
} def

% Compare the top two elements on the stack and leave only the
% larger one.
/maxval {2 copy gt {pop} {exch pop} ifelse} def

% Tokenize a string.  Do not use the usual PostScript token because
% parentheses will not be interpreted correctly because of rescanning
% of the string.
/vg&token {/vg&string exch def /vg&index -1 def /vg&level 0 def
0 2 vg&string length 2 sub {
  dup dup 1 add exch vg&string exch get 8 bitshift vg&string 3 -1 roll get or
  dup 16#f0fe eq {pop 1}{16#f0ff eq {-1}{0} ifelse} ifelse
  /vg&level exch vg&level add def
  vg&level 0 eq {/vg&index exch def exit} if pop
} for
vg&index 0 ge {
  vg&string vg&index 2 add dup vg&string length exch sub getinterval
  vg&index 2 gt {vg&string 2 vg&index 2 sub getinterval}{()} ifelse
  true}
{false} ifelse
} bind def

% Recursively show an unicode string.
% <string> recshow --
/recshow {
  popfirst
  {
    % Test to see if this is a string attribute.
    vg&fbyte 16#f0 and 16#e0 eq
    {
      q

      % Font style.
      currentfont dup /FontStyleBits known {/FontStyleBits get}{pop 0} ifelse
      vg&cbyte or vg&fontstyles exch get fontsize exch exec

      vg&token pop recshow currentpoint Q m recshow
    }
    {
      vg&fbyte 16#F8 and 16#F0 eq {

        % Superscript and/or subscript.
        vg&cbyte 16#00 eq {
          vg&token pop exch vg&token pop 3 -1 roll
          q raise recshow unraise currentpoint pop Q exch
          q lower recshow unlower currentpoint pop Q
          maxval currentpoint exch pop m recshow } if

        % Strikeout.
        vg&cbyte 16#01 eq {
          vg&token pop currentpoint 3 -1 roll recshow
          q 0 J vg&underline vg&uthick w
          currentpoint 4 -2 roll fontsize 3 div add moveto
          fontsize 3 div add lineto internalstroke Q
          recshow} if

        % Underline.
        vg&cbyte 16#02 eq {
          vg&token pop currentpoint 3 -1 roll recshow
          q 0 J vg&underline vg&uthick w
          currentpoint 4 -2 roll vg&uoffset add moveto
          vg&uoffset add lineto internalstroke Q
          recshow} if

        % Dashed underline.
        vg&cbyte 16#03 eq {
          vg&token pop currentpoint 3 -1 roll recshow
          q 0 J [ vg&uthick 5 mul vg&uthick 2 mul] 0 d
          vg&underline vg&uthick w
          currentpoint 4 -2 roll vg&uoffset add moveto
          vg&uoffset add lineto internalstroke Q
          recshow} if

        % Dotted underline.
        vg&cbyte 16#04 eq {
          vg&token pop currentpoint 3 -1 roll recshow
          q 1 J [ 0 vg&uthick 3 mul] 0 d
          vg&underline vg&uthick w
          currentpoint 4 -2 roll vg&uoffset add moveto
          vg&uoffset add lineto internalstroke Q
          recshow} if

        % Thick underline.
        vg&cbyte 16#05 eq {
          vg&token pop currentpoint 3 -1 roll recshow
          q 0 J vg&underline vg&uthick 2 mul w
          currentpoint 4 -2 roll vg&uoffset vg&uthick 2 div sub add moveto
          vg&uoffset vg&uthick 2 div sub add lineto internalstroke Q
          recshow} if

        % Gray thick underline.
        vg&cbyte 16#06 eq {
          vg&token pop currentpoint 3 -1 roll recshow
          q 0 J vg&underline vg&uthick 2 mul w 0.5 setgray
          currentpoint 4 -2 roll vg&uoffset vg&uthick 2 div sub add moveto
          vg&uoffset vg&uthick 2 div sub add lineto internalstroke Q
          recshow} if

        % Overbar.
        vg&cbyte 16#07 eq {
          vg&token pop dup stringsize relative 4 1 roll pop pop exch
          3 -1 roll recshow
          q 0 J vg&underline vg&uthick w
          vg&uoffset neg add dup currentpoint pop exch m l internalstroke Q
          recshow} if
      }
      {
        vg&fbyte vg&cbyte unicharshow recshow
      } ifelse
    } ifelse
  } if
} def

% Get the underline position and thickness from the current font.
/vg&underline {

currentfont dup /FontType get 0 eq {/FDepVector get 0 get} if
dup dup /FontInfo known {
  /FontInfo get dup
  dup /UnderlinePosition known {
    /UnderlinePosition get /vg&uoffset exch def
  }
  {
    pop /vg&uoffset 0 def
  } ifelse
  dup /UnderlineThickness known {
    /UnderlineThickness get /vg&uthick exch def
  }
  {
    pop /vg&uthick 0 def
  } ifelse
}
{
  pop /vg&uoffset 0 def /vg&uthick 0 def
} ifelse
/FontMatrix get
currentfont dup /FontType get 0 eq
{/FontMatrix get matrix concatmatrix}{pop} ifelse
dup 0 vg&uoffset 3 -1 roll transform /vg&uoffset exch def pop
0 vg&uthick 3 -1 roll transform /vg&uthick exch def pop
} def

% Make a frame with the coordinates on the stack.
% <llx> <lly> <urx> <ury> frame --
/frame {4 copy m 3 1 roll exch l 4 -2 roll l l h} def

% Resets the accumulated bounding box to a degenerate box at the
% current point.
% -- resetbbox --
/resetbbox {
  currentpoint 2 copy
  /bbury exch def
  /bburx exch def
  /bblly exch def
  /bbllx exch def
} def

% Update the accumulated bounding box.
% <llx'> <lly'> <urx'> <ury'> updatebbox --
/updatebbox {
  dup bbury gt {/bbury exch def} {pop} ifelse
  dup bburx gt {/bburx exch def} {pop} ifelse
  dup bblly lt {/bblly exch def} {pop} ifelse
  dup bbllx lt {/bbllx exch def} {pop} ifelse
} def

% Set the bounding box to the values on the stack.
% <llx'> <lly'> <urx'> <ury'> updatebbox --
/restorebbox {
  /bbury exch def /bburx exch def /bblly exch def /bbllx exch def
} def

% Push the accumulated bounding box onto the stack.
% -- pushbbox <llx> <lly> <urx> <ury>
/pushbbox {bbllx bblly bburx bbury} def

% Make the relative bounding box relative to the currentpoint.
% <llx'> <lly'> <urx'> <ury'> inflate <llx> <lly> <urx> <ury>
/inflate {
  2 {fontsize 0.2 mul add 4 1 roll} repeat
  2 {fontsize 0.2 mul sub 4 1 roll} repeat
} def

% Make the relative bounding box relative to the currentpoint.
% <llx'> <lly'> <urx'> <ury'> relative <llx> <lly> <urx> <ury>
/relative {
  currentpoint 3 -1 roll add 3 1 roll add exch 4 2 roll
  currentpoint 3 -1 roll add 3 1 roll add exch 4 2 roll
} def

% Returns the size of a string appropriate for recshow.
% <string> stringsize <llx> <lly> <urx> <ury>
/stringsize {
  pushbbox /internalshow load /internalstroke load 7 -1 roll
  q
  nulldevice 0 0 m
  nullinternalshow nullinternalstroke
  resetbbox
  recshow
  /internalstroke exch def /internalshow exch def
  pushbbox 8 -4 roll restorebbox
  Q
} def

% Calculate values for string positioning.
/calcval {4 copy
  3 -1 roll sub /widy exch def sub neg /widx exch def
  pop pop /dy exch def /dx exch def} def

% Utilities to position a string.
% First letter (U=upper, C=center, B=baseline, L=lower)
% Second letter (L=left, C=center, R=right)
/align [
{calcval dx neg widy dy add neg rmoveto} % UL
{calcval dx neg widy 2 div dy add neg rmoveto} % CL
{calcval dx neg 0 rmoveto} % BL
{calcval dx neg dy neg rmoveto} % LL
{calcval widx dx add neg widy dy add neg rmoveto} % UR
{calcval widx dx add neg widy 2 div dy add neg rmoveto} % CR
{calcval widx dx add neg 0 rmoveto} % BR
{calcval widx dx add neg dy neg rmoveto} % LR
{calcval widx 2 div dx add neg widy dy add neg rmoveto} % UC
{calcval widx 2 div dx add neg widy 2 div dy add neg rmoveto} % CC
{calcval widx 2 div dx add neg 0 rmoveto} % BC
{calcval widx 2 div dx add neg dy neg rmoveto} % LC
] def

/vg&str {m q 1 -1 scale dup stringsize 4 copy align 11 -1 roll get exec
         q inflate relative frame exch exec Q recshow Q} def

end /procDict exch def
%%EndProlog

%%BeginSetup
save
procDict begin
printColorMap begin
512 229 setpagesize
0 0 0 0 setmargins
0 0 setorigin
512 229 setsize
naturalsize
portrait
imagescale
cliptobounds
setbasematrix
/Helvetica 10 sf
defaultGraphicsState
%%EndSetup

0.00000 0.00000 0.00000 RG
[ 1.00000 0.00000 0.00000 1.00000 0.00000 0.00000 ] defaultmatrix matrix concatmatrix setmatrix
cliprestore
1.00000 1.00000 1.00000 RG
newpath
0.00000 0.00000 m
512.000 0.00000 l
512.000 229.000 l
0.00000 229.000 l
0.00000 0.00000 l
h
f
0.00000 0.00000 0.00000 RG
0.00000 0.00000 0.00000 RG
[ 1.00000 0.00000 0.00000 1.00000 0.00000 0.00000 ] defaultmatrix matrix concatmatrix setmatrix
cliprestore
1.00000 1.00000 1.00000 RG
newpath
0.00000 0.00000 m
512.000 0.00000 l
512.000 229.000 l
0.00000 229.000 l
0.00000 0.00000 l
h
f
0.00000 0.00000 0.00000 RG
0 0 512 229 rc
q
[ 1.00000 0.00000 0.00000 1.00000 0.00000 0.00000 ] concat
[ 1.00000 0.00000 0.00000 1.00000 -153.000 -102.000 ] concat
1.00000 1.00000 1.00000 RG
newpath
153.000 102.000 m
665.000 102.000 l
665.000 331.000 l
153.000 331.000 l
153.000 102.000 l
h
f
0.00000 0.00000 0.00000 RG
[ 1.00000 0.00000 0.00000 1.00000 -153.000 -102.000 ] defaultmatrix matrix concatmatrix setmatrix
[ 1.00000 0.00000 0.00000 1.00000 -153.000 -102.000 ] defaultmatrix matrix concatmatrix setmatrix
[ 1.00000 0.00000 0.00000 1.00000 0.00000 0.00000 ] defaultmatrix matrix concatmatrix setmatrix
[ 1.00000 0.00000 0.00000 1.00000 -153.000 -102.000 ] defaultmatrix matrix concatmatrix setmatrix
1.00000 1.00000 1.00000 RG
newpath
210.500 163.000 m
210.500 185.000 l
210.500 187.209 212.291 189.000 214.500 189.000  c
246.500 189.000 l
248.709 189.000 250.500 187.209 250.500 185.000  c
250.500 163.000 l
250.500 160.791 248.709 159.000 246.500 159.000  c
214.500 159.000 l
212.291 159.000 210.500 160.791 210.500 163.000  c
h
f
0 J
1.45000 M
0.00000 0.00000 0.00000 RG
newpath
210.500 163.000 m
210.500 185.000 l
210.500 187.209 212.291 189.000 214.500 189.000  c
246.500 189.000 l
248.709 189.000 250.500 187.209 250.500 185.000  c
250.500 163.000 l
250.500 160.791 248.709 159.000 246.500 159.000  c
214.500 159.000 l
212.291 159.000 210.500 160.791 210.500 163.000  c
h
S
2 J
10.0000 M
1.00000 1.00000 1.00000 RG
newpath
250.500 163.000 m
250.500 185.000 l
250.500 187.209 252.291 189.000 254.500 189.000  c
286.500 189.000 l
288.709 189.000 290.500 187.209 290.500 185.000  c
290.500 163.000 l
290.500 160.791 288.709 159.000 286.500 159.000  c
254.500 159.000 l
252.291 159.000 250.500 160.791 250.500 163.000  c
h
f
0 J
1.45000 M
0.00000 0.00000 0.00000 RG
newpath
250.500 163.000 m
250.500 185.000 l
250.500 187.209 252.291 189.000 254.500 189.000  c
286.500 189.000 l
288.709 189.000 290.500 187.209 290.500 185.000  c
290.500 163.000 l
290.500 160.791 288.709 159.000 286.500 159.000  c
254.500 159.000 l
252.291 159.000 250.500 160.791 250.500 163.000  c
h
S
2 J
10.0000 M
1.00000 1.00000 1.00000 RG
newpath
290.500 163.000 m
290.500 185.000 l
290.500 187.209 292.291 189.000 294.500 189.000  c
326.500 189.000 l
328.709 189.000 330.500 187.209 330.500 185.000  c
330.500 163.000 l
330.500 160.791 328.709 159.000 326.500 159.000  c
294.500 159.000 l
292.291 159.000 290.500 160.791 290.500 163.000  c
h
f
0 J
1.45000 M
0.00000 0.00000 0.00000 RG
newpath
290.500 163.000 m
290.500 185.000 l
290.500 187.209 292.291 189.000 294.500 189.000  c
326.500 189.000 l
328.709 189.000 330.500 187.209 330.500 185.000  c
330.500 163.000 l
330.500 160.791 328.709 159.000 326.500 159.000  c
294.500 159.000 l
292.291 159.000 290.500 160.791 290.500 163.000  c
h
S
2 J
10.0000 M
.501961 .501961 .501961 RG
newpath
330.500 163.000 m
330.500 185.000 l
330.500 187.209 332.291 189.000 334.500 189.000  c
366.500 189.000 l
368.709 189.000 370.500 187.209 370.500 185.000  c
370.500 163.000 l
370.500 160.791 368.709 159.000 366.500 159.000  c
334.500 159.000 l
332.291 159.000 330.500 160.791 330.500 163.000  c
h
f
2.00000 w
0 J
1.45000 M
newpath
330.500 163.000 m
330.500 185.000 l
330.500 187.209 332.291 189.000 334.500 189.000  c
366.500 189.000 l
368.709 189.000 370.500 187.209 370.500 185.000  c
370.500 163.000 l
370.500 160.791 368.709 159.000 366.500 159.000  c
334.500 159.000 l
332.291 159.000 330.500 160.791 330.500 163.000  c
h
S
1.00000 w
2 J
10.0000 M
0.00000 0.00000 0.00000 RG
1.00000 1.00000 1.00000 RG
newpath
210.500 193.000 m
210.500 215.000 l
210.500 217.209 212.291 219.000 214.500 219.000  c
246.500 219.000 l
248.709 219.000 250.500 217.209 250.500 215.000  c
250.500 193.000 l
250.500 190.791 248.709 189.000 246.500 189.000  c
214.500 189.000 l
212.291 189.000 210.500 190.791 210.500 193.000  c
h
f
0 J
1.45000 M
0.00000 0.00000 0.00000 RG
newpath
210.500 193.000 m
210.500 215.000 l
210.500 217.209 212.291 219.000 214.500 219.000  c
246.500 219.000 l
248.709 219.000 250.500 217.209 250.500 215.000  c
250.500 193.000 l
250.500 190.791 248.709 189.000 246.500 189.000  c
214.500 189.000 l
212.291 189.000 210.500 190.791 210.500 193.000  c
h
S
2 J
10.0000 M
1.00000 1.00000 1.00000 RG
newpath
250.500 193.000 m
250.500 215.000 l
250.500 217.209 252.291 219.000 254.500 219.000  c
286.500 219.000 l
288.709 219.000 290.500 217.209 290.500 215.000  c
290.500 193.000 l
290.500 190.791 288.709 189.000 286.500 189.000  c
254.500 189.000 l
252.291 189.000 250.500 190.791 250.500 193.000  c
h
f
0 J
1.45000 M
0.00000 0.00000 0.00000 RG
newpath
250.500 193.000 m
250.500 215.000 l
250.500 217.209 252.291 219.000 254.500 219.000  c
286.500 219.000 l
288.709 219.000 290.500 217.209 290.500 215.000  c
290.500 193.000 l
290.500 190.791 288.709 189.000 286.500 189.000  c
254.500 189.000 l
252.291 189.000 250.500 190.791 250.500 193.000  c
h
S
2 J
10.0000 M
1.00000 1.00000 1.00000 RG
newpath
290.500 193.000 m
290.500 215.000 l
290.500 217.209 292.291 219.000 294.500 219.000  c
326.500 219.000 l
328.709 219.000 330.500 217.209 330.500 215.000  c
330.500 193.000 l
330.500 190.791 328.709 189.000 326.500 189.000  c
294.500 189.000 l
292.291 189.000 290.500 190.791 290.500 193.000  c
h
f
0 J
1.45000 M
0.00000 0.00000 0.00000 RG
newpath
290.500 193.000 m
290.500 215.000 l
290.500 217.209 292.291 219.000 294.500 219.000  c
326.500 219.000 l
328.709 219.000 330.500 217.209 330.500 215.000  c
330.500 193.000 l
330.500 190.791 328.709 189.000 326.500 189.000  c
294.500 189.000 l
292.291 189.000 290.500 190.791 290.500 193.000  c
h
S
2 J
10.0000 M
1.00000 1.00000 1.00000 RG
newpath
330.500 193.000 m
330.500 215.000 l
330.500 217.209 332.291 219.000 334.500 219.000  c
366.500 219.000 l
368.709 219.000 370.500 217.209 370.500 215.000  c
370.500 193.000 l
370.500 190.791 368.709 189.000 366.500 189.000  c
334.500 189.000 l
332.291 189.000 330.500 190.791 330.500 193.000  c
h
f
0 J
1.45000 M
0.00000 0.00000 0.00000 RG
newpath
330.500 193.000 m
330.500 215.000 l
330.500 217.209 332.291 219.000 334.500 219.000  c
366.500 219.000 l
368.709 219.000 370.500 217.209 370.500 215.000  c
370.500 193.000 l
370.500 190.791 368.709 189.000 366.500 189.000  c
334.500 189.000 l
332.291 189.000 330.500 190.791 330.500 193.000  c
h
S
2 J
10.0000 M
1.00000 1.00000 1.00000 RG
newpath
210.500 223.000 m
210.500 245.000 l
210.500 247.209 212.291 249.000 214.500 249.000  c
246.500 249.000 l
248.709 249.000 250.500 247.209 250.500 245.000  c
250.500 223.000 l
250.500 220.791 248.709 219.000 246.500 219.000  c
214.500 219.000 l
212.291 219.000 210.500 220.791 210.500 223.000  c
h
f
0 J
1.45000 M
0.00000 0.00000 0.00000 RG
newpath
210.500 223.000 m
210.500 245.000 l
210.500 247.209 212.291 249.000 214.500 249.000  c
246.500 249.000 l
248.709 249.000 250.500 247.209 250.500 245.000  c
250.500 223.000 l
250.500 220.791 248.709 219.000 246.500 219.000  c
214.500 219.000 l
212.291 219.000 210.500 220.791 210.500 223.000  c
h
S
2 J
10.0000 M
1.00000 1.00000 1.00000 RG
newpath
250.500 223.000 m
250.500 245.000 l
250.500 247.209 252.291 249.000 254.500 249.000  c
286.500 249.000 l
288.709 249.000 290.500 247.209 290.500 245.000  c
290.500 223.000 l
290.500 220.791 288.709 219.000 286.500 219.000  c
254.500 219.000 l
252.291 219.000 250.500 220.791 250.500 223.000  c
h
f
0 J
1.45000 M
0.00000 0.00000 0.00000 RG
newpath
250.500 223.000 m
250.500 245.000 l
250.500 247.209 252.291 249.000 254.500 249.000  c
286.500 249.000 l
288.709 249.000 290.500 247.209 290.500 245.000  c
290.500 223.000 l
290.500 220.791 288.709 219.000 286.500 219.000  c
254.500 219.000 l
252.291 219.000 250.500 220.791 250.500 223.000  c
h
S
2 J
10.0000 M
1.00000 1.00000 1.00000 RG
newpath
290.500 223.000 m
290.500 245.000 l
290.500 247.209 292.291 249.000 294.500 249.000  c
326.500 249.000 l
328.709 249.000 330.500 247.209 330.500 245.000  c
330.500 223.000 l
330.500 220.791 328.709 219.000 326.500 219.000  c
294.500 219.000 l
292.291 219.000 290.500 220.791 290.500 223.000  c
h
f
0 J
1.45000 M
0.00000 0.00000 0.00000 RG
newpath
290.500 223.000 m
290.500 245.000 l
290.500 247.209 292.291 249.000 294.500 249.000  c
326.500 249.000 l
328.709 249.000 330.500 247.209 330.500 245.000  c
330.500 223.000 l
330.500 220.791 328.709 219.000 326.500 219.000  c
294.500 219.000 l
292.291 219.000 290.500 220.791 290.500 223.000  c
h
S
2 J
10.0000 M
1.00000 1.00000 1.00000 RG
newpath
330.500 223.000 m
330.500 245.000 l
330.500 247.209 332.291 249.000 334.500 249.000  c
366.500 249.000 l
368.709 249.000 370.500 247.209 370.500 245.000  c
370.500 223.000 l
370.500 220.791 368.709 219.000 366.500 219.000  c
334.500 219.000 l
332.291 219.000 330.500 220.791 330.500 223.000  c
h
f
0 J
1.45000 M
0.00000 0.00000 0.00000 RG
newpath
330.500 223.000 m
330.500 245.000 l
330.500 247.209 332.291 249.000 334.500 249.000  c
366.500 249.000 l
368.709 249.000 370.500 247.209 370.500 245.000  c
370.500 223.000 l
370.500 220.791 368.709 219.000 366.500 219.000  c
334.500 219.000 l
332.291 219.000 330.500 220.791 330.500 223.000  c
h
S
2 J
10.0000 M
1.00000 1.00000 1.00000 RG
newpath
210.500 253.000 m
210.500 275.000 l
210.500 277.209 212.291 279.000 214.500 279.000  c
246.500 279.000 l
248.709 279.000 250.500 277.209 250.500 275.000  c
250.500 253.000 l
250.500 250.791 248.709 249.000 246.500 249.000  c
214.500 249.000 l
212.291 249.000 210.500 250.791 210.500 253.000  c
h
f
0 J
1.45000 M
0.00000 0.00000 0.00000 RG
newpath
210.500 253.000 m
210.500 275.000 l
210.500 277.209 212.291 279.000 214.500 279.000  c
246.500 279.000 l
248.709 279.000 250.500 277.209 250.500 275.000  c
250.500 253.000 l
250.500 250.791 248.709 249.000 246.500 249.000  c
214.500 249.000 l
212.291 249.000 210.500 250.791 210.500 253.000  c
h
S
2 J
10.0000 M
1.00000 1.00000 1.00000 RG
newpath
250.500 253.000 m
250.500 275.000 l
250.500 277.209 252.291 279.000 254.500 279.000  c
286.500 279.000 l
288.709 279.000 290.500 277.209 290.500 275.000  c
290.500 253.000 l
290.500 250.791 288.709 249.000 286.500 249.000  c
254.500 249.000 l
252.291 249.000 250.500 250.791 250.500 253.000  c
h
f
0 J
1.45000 M
0.00000 0.00000 0.00000 RG
newpath
250.500 253.000 m
250.500 275.000 l
250.500 277.209 252.291 279.000 254.500 279.000  c
286.500 279.000 l
288.709 279.000 290.500 277.209 290.500 275.000  c
290.500 253.000 l
290.500 250.791 288.709 249.000 286.500 249.000  c
254.500 249.000 l
252.291 249.000 250.500 250.791 250.500 253.000  c
h
S
2 J
10.0000 M
1.00000 1.00000 1.00000 RG
newpath
290.500 253.000 m
290.500 275.000 l
290.500 277.209 292.291 279.000 294.500 279.000  c
326.500 279.000 l
328.709 279.000 330.500 277.209 330.500 275.000  c
330.500 253.000 l
330.500 250.791 328.709 249.000 326.500 249.000  c
294.500 249.000 l
292.291 249.000 290.500 250.791 290.500 253.000  c
h
f
0 J
1.45000 M
0.00000 0.00000 0.00000 RG
newpath
290.500 253.000 m
290.500 275.000 l
290.500 277.209 292.291 279.000 294.500 279.000  c
326.500 279.000 l
328.709 279.000 330.500 277.209 330.500 275.000  c
330.500 253.000 l
330.500 250.791 328.709 249.000 326.500 249.000  c
294.500 249.000 l
292.291 249.000 290.500 250.791 290.500 253.000  c
h
S
2 J
10.0000 M
1.00000 1.00000 1.00000 RG
newpath
330.500 253.000 m
330.500 275.000 l
330.500 277.209 332.291 279.000 334.500 279.000  c
366.500 279.000 l
368.709 279.000 370.500 277.209 370.500 275.000  c
370.500 253.000 l
370.500 250.791 368.709 249.000 366.500 249.000  c
334.500 249.000 l
332.291 249.000 330.500 250.791 330.500 253.000  c
h
f
0 J
1.45000 M
0.00000 0.00000 0.00000 RG
newpath
330.500 253.000 m
330.500 275.000 l
330.500 277.209 332.291 279.000 334.500 279.000  c
366.500 279.000 l
368.709 279.000 370.500 277.209 370.500 275.000  c
370.500 253.000 l
370.500 250.791 368.709 249.000 366.500 249.000  c
334.500 249.000 l
332.291 249.000 330.500 250.791 330.500 253.000  c
h
S
2 J
10.0000 M
1.00000 1.00000 1.00000 RG
newpath
446.000 164.500 m
446.000 171.500 l
446.000 173.709 447.791 175.500 450.000 175.500  c
457.000 175.500 l
459.209 175.500 461.000 173.709 461.000 171.500  c
461.000 164.500 l
461.000 162.291 459.209 160.500 457.000 160.500  c
450.000 160.500 l
447.791 160.500 446.000 162.291 446.000 164.500  c
h
f
0 J
1.45000 M
0.00000 0.00000 0.00000 RG
newpath
446.000 164.500 m
446.000 171.500 l
446.000 173.709 447.791 175.500 450.000 175.500  c
457.000 175.500 l
459.209 175.500 461.000 173.709 461.000 171.500  c
461.000 164.500 l
461.000 162.291 459.209 160.500 457.000 160.500  c
450.000 160.500 l
447.791 160.500 446.000 162.291 446.000 164.500  c
h
S
2 J
10.0000 M
.501961 0.00000 .501961 RG
newpath
461.000 164.500 m
461.000 171.500 l
461.000 173.709 462.791 175.500 465.000 175.500  c
472.000 175.500 l
474.209 175.500 476.000 173.709 476.000 171.500  c
476.000 164.500 l
476.000 162.291 474.209 160.500 472.000 160.500  c
465.000 160.500 l
462.791 160.500 461.000 162.291 461.000 164.500  c
h
f
0 J
1.45000 M
0.00000 0.00000 0.00000 RG
newpath
461.000 164.500 m
461.000 171.500 l
461.000 173.709 462.791 175.500 465.000 175.500  c
472.000 175.500 l
474.209 175.500 476.000 173.709 476.000 171.500  c
476.000 164.500 l
476.000 162.291 474.209 160.500 472.000 160.500  c
465.000 160.500 l
462.791 160.500 461.000 162.291 461.000 164.500  c
h
S
2 J
10.0000 M
1.00000 1.00000 1.00000 RG
newpath
476.000 164.500 m
476.000 171.500 l
476.000 173.709 477.791 175.500 480.000 175.500  c
487.000 175.500 l
489.209 175.500 491.000 173.709 491.000 171.500  c
491.000 164.500 l
491.000 162.291 489.209 160.500 487.000 160.500  c
480.000 160.500 l
477.791 160.500 476.000 162.291 476.000 164.500  c
h
f
0 J
1.45000 M
0.00000 0.00000 0.00000 RG
newpath
476.000 164.500 m
476.000 171.500 l
476.000 173.709 477.791 175.500 480.000 175.500  c
487.000 175.500 l
489.209 175.500 491.000 173.709 491.000 171.500  c
491.000 164.500 l
491.000 162.291 489.209 160.500 487.000 160.500  c
480.000 160.500 l
477.791 160.500 476.000 162.291 476.000 164.500  c
h
S
2 J
10.0000 M
1.00000 1.00000 1.00000 RG
newpath
476.000 179.500 m
476.000 186.500 l
476.000 188.709 477.791 190.500 480.000 190.500  c
487.000 190.500 l
489.209 190.500 491.000 188.709 491.000 186.500  c
491.000 179.500 l
491.000 177.291 489.209 175.500 487.000 175.500  c
480.000 175.500 l
477.791 175.500 476.000 177.291 476.000 179.500  c
h
f
0 J
1.45000 M
0.00000 0.00000 0.00000 RG
newpath
476.000 179.500 m
476.000 186.500 l
476.000 188.709 477.791 190.500 480.000 190.500  c
487.000 190.500 l
489.209 190.500 491.000 188.709 491.000 186.500  c
491.000 179.500 l
491.000 177.291 489.209 175.500 487.000 175.500  c
480.000 175.500 l
477.791 175.500 476.000 177.291 476.000 179.500  c
h
S
2 J
10.0000 M
1.00000 1.00000 1.00000 RG
newpath
461.000 179.500 m
461.000 186.500 l
461.000 188.709 462.791 190.500 465.000 190.500  c
472.000 190.500 l
474.209 190.500 476.000 188.709 476.000 186.500  c
476.000 179.500 l
476.000 177.291 474.209 175.500 472.000 175.500  c
465.000 175.500 l
462.791 175.500 461.000 177.291 461.000 179.500  c
h
f
0 J
1.45000 M
0.00000 0.00000 0.00000 RG
newpath
461.000 179.500 m
461.000 186.500 l
461.000 188.709 462.791 190.500 465.000 190.500  c
472.000 190.500 l
474.209 190.500 476.000 188.709 476.000 186.500  c
476.000 179.500 l
476.000 177.291 474.209 175.500 472.000 175.500  c
465.000 175.500 l
462.791 175.500 461.000 177.291 461.000 179.500  c
h
S
2 J
10.0000 M
1.00000 1.00000 1.00000 RG
newpath
446.000 179.500 m
446.000 186.500 l
446.000 188.709 447.791 190.500 450.000 190.500  c
457.000 190.500 l
459.209 190.500 461.000 188.709 461.000 186.500  c
461.000 179.500 l
461.000 177.291 459.209 175.500 457.000 175.500  c
450.000 175.500 l
447.791 175.500 446.000 177.291 446.000 179.500  c
h
f
0 J
1.45000 M
0.00000 0.00000 0.00000 RG
newpath
446.000 179.500 m
446.000 186.500 l
446.000 188.709 447.791 190.500 450.000 190.500  c
457.000 190.500 l
459.209 190.500 461.000 188.709 461.000 186.500  c
461.000 179.500 l
461.000 177.291 459.209 175.500 457.000 175.500  c
450.000 175.500 l
447.791 175.500 446.000 177.291 446.000 179.500  c
h
S
2 J
10.0000 M
1.00000 1.00000 1.00000 RG
newpath
446.000 194.500 m
446.000 201.500 l
446.000 203.709 447.791 205.500 450.000 205.500  c
457.000 205.500 l
459.209 205.500 461.000 203.709 461.000 201.500  c
461.000 194.500 l
461.000 192.291 459.209 190.500 457.000 190.500  c
450.000 190.500 l
447.791 190.500 446.000 192.291 446.000 194.500  c
h
f
0 J
1.45000 M
0.00000 0.00000 0.00000 RG
newpath
446.000 194.500 m
446.000 201.500 l
446.000 203.709 447.791 205.500 450.000 205.500  c
457.000 205.500 l
459.209 205.500 461.000 203.709 461.000 201.500  c
461.000 194.500 l
461.000 192.291 459.209 190.500 457.000 190.500  c
450.000 190.500 l
447.791 190.500 446.000 192.291 446.000 194.500  c
h
S
2 J
10.0000 M
.501961 0.00000 .501961 RG
newpath
461.000 194.500 m
461.000 201.500 l
461.000 203.709 462.791 205.500 465.000 205.500  c
472.000 205.500 l
474.209 205.500 476.000 203.709 476.000 201.500  c
476.000 194.500 l
476.000 192.291 474.209 190.500 472.000 190.500  c
465.000 190.500 l
462.791 190.500 461.000 192.291 461.000 194.500  c
h
f
0 J
1.45000 M
0.00000 0.00000 0.00000 RG
newpath
461.000 194.500 m
461.000 201.500 l
461.000 203.709 462.791 205.500 465.000 205.500  c
472.000 205.500 l
474.209 205.500 476.000 203.709 476.000 201.500  c
476.000 194.500 l
476.000 192.291 474.209 190.500 472.000 190.500  c
465.000 190.500 l
462.791 190.500 461.000 192.291 461.000 194.500  c
h
S
2 J
10.0000 M
1.00000 1.00000 1.00000 RG
newpath
476.000 194.500 m
476.000 201.500 l
476.000 203.709 477.791 205.500 480.000 205.500  c
487.000 205.500 l
489.209 205.500 491.000 203.709 491.000 201.500  c
491.000 194.500 l
491.000 192.291 489.209 190.500 487.000 190.500  c
480.000 190.500 l
477.791 190.500 476.000 192.291 476.000 194.500  c
h
f
0 J
1.45000 M
0.00000 0.00000 0.00000 RG
newpath
476.000 194.500 m
476.000 201.500 l
476.000 203.709 477.791 205.500 480.000 205.500  c
487.000 205.500 l
489.209 205.500 491.000 203.709 491.000 201.500  c
491.000 194.500 l
491.000 192.291 489.209 190.500 487.000 190.500  c
480.000 190.500 l
477.791 190.500 476.000 192.291 476.000 194.500  c
h
S
2 J
10.0000 M
1.00000 1.00000 1.00000 RG
newpath
491.000 164.500 m
491.000 171.500 l
491.000 173.709 492.791 175.500 495.000 175.500  c
502.000 175.500 l
504.209 175.500 506.000 173.709 506.000 171.500  c
506.000 164.500 l
506.000 162.291 504.209 160.500 502.000 160.500  c
495.000 160.500 l
492.791 160.500 491.000 162.291 491.000 164.500  c
h
f
0 J
1.45000 M
0.00000 0.00000 0.00000 RG
newpath
491.000 164.500 m
491.000 171.500 l
491.000 173.709 492.791 175.500 495.000 175.500  c
502.000 175.500 l
504.209 175.500 506.000 173.709 506.000 171.500  c
506.000 164.500 l
506.000 162.291 504.209 160.500 502.000 160.500  c
495.000 160.500 l
492.791 160.500 491.000 162.291 491.000 164.500  c
h
S
2 J
10.0000 M
.501961 0.00000 .501961 RG
newpath
491.000 179.500 m
491.000 186.500 l
491.000 188.709 492.791 190.500 495.000 190.500  c
502.000 190.500 l
504.209 190.500 506.000 188.709 506.000 186.500  c
506.000 179.500 l
506.000 177.291 504.209 175.500 502.000 175.500  c
495.000 175.500 l
492.791 175.500 491.000 177.291 491.000 179.500  c
h
f
0 J
1.45000 M
0.00000 0.00000 0.00000 RG
newpath
491.000 179.500 m
491.000 186.500 l
491.000 188.709 492.791 190.500 495.000 190.500  c
502.000 190.500 l
504.209 190.500 506.000 188.709 506.000 186.500  c
506.000 179.500 l
506.000 177.291 504.209 175.500 502.000 175.500  c
495.000 175.500 l
492.791 175.500 491.000 177.291 491.000 179.500  c
h
S
2 J
10.0000 M
1.00000 1.00000 1.00000 RG
newpath
491.000 194.500 m
491.000 201.500 l
491.000 203.709 492.791 205.500 495.000 205.500  c
502.000 205.500 l
504.209 205.500 506.000 203.709 506.000 201.500  c
506.000 194.500 l
506.000 192.291 504.209 190.500 502.000 190.500  c
495.000 190.500 l
492.791 190.500 491.000 192.291 491.000 194.500  c
h
f
0 J
1.45000 M
0.00000 0.00000 0.00000 RG
newpath
491.000 194.500 m
491.000 201.500 l
491.000 203.709 492.791 205.500 495.000 205.500  c
502.000 205.500 l
504.209 205.500 506.000 203.709 506.000 201.500  c
506.000 194.500 l
506.000 192.291 504.209 190.500 502.000 190.500  c
495.000 190.500 l
492.791 190.500 491.000 192.291 491.000 194.500  c
h
S
2 J
10.0000 M
1.00000 1.00000 1.00000 RG
newpath
446.000 209.500 m
446.000 216.500 l
446.000 218.709 447.791 220.500 450.000 220.500  c
457.000 220.500 l
459.209 220.500 461.000 218.709 461.000 216.500  c
461.000 209.500 l
461.000 207.291 459.209 205.500 457.000 205.500  c
450.000 205.500 l
447.791 205.500 446.000 207.291 446.000 209.500  c
h
f
0 J
1.45000 M
0.00000 0.00000 0.00000 RG
newpath
446.000 209.500 m
446.000 216.500 l
446.000 218.709 447.791 220.500 450.000 220.500  c
457.000 220.500 l
459.209 220.500 461.000 218.709 461.000 216.500  c
461.000 209.500 l
461.000 207.291 459.209 205.500 457.000 205.500  c
450.000 205.500 l
447.791 205.500 446.000 207.291 446.000 209.500  c
h
S
2 J
10.0000 M
1.00000 1.00000 1.00000 RG
newpath
476.000 209.500 m
476.000 216.500 l
476.000 218.709 477.791 220.500 480.000 220.500  c
487.000 220.500 l
489.209 220.500 491.000 218.709 491.000 216.500  c
491.000 209.500 l
491.000 207.291 489.209 205.500 487.000 205.500  c
480.000 205.500 l
477.791 205.500 476.000 207.291 476.000 209.500  c
h
f
0 J
1.45000 M
0.00000 0.00000 0.00000 RG
newpath
476.000 209.500 m
476.000 216.500 l
476.000 218.709 477.791 220.500 480.000 220.500  c
487.000 220.500 l
489.209 220.500 491.000 218.709 491.000 216.500  c
491.000 209.500 l
491.000 207.291 489.209 205.500 487.000 205.500  c
480.000 205.500 l
477.791 205.500 476.000 207.291 476.000 209.500  c
h
S
2 J
10.0000 M
1.00000 1.00000 1.00000 RG
newpath
461.000 209.500 m
461.000 216.500 l
461.000 218.709 462.791 220.500 465.000 220.500  c
472.000 220.500 l
474.209 220.500 476.000 218.709 476.000 216.500  c
476.000 209.500 l
476.000 207.291 474.209 205.500 472.000 205.500  c
465.000 205.500 l
462.791 205.500 461.000 207.291 461.000 209.500  c
h
f
0 J
1.45000 M
0.00000 0.00000 0.00000 RG
newpath
461.000 209.500 m
461.000 216.500 l
461.000 218.709 462.791 220.500 465.000 220.500  c
472.000 220.500 l
474.209 220.500 476.000 218.709 476.000 216.500  c
476.000 209.500 l
476.000 207.291 474.209 205.500 472.000 205.500  c
465.000 205.500 l
462.791 205.500 461.000 207.291 461.000 209.500  c
h
S
2 J
10.0000 M
1.00000 1.00000 1.00000 RG
newpath
491.000 209.500 m
491.000 216.500 l
491.000 218.709 492.791 220.500 495.000 220.500  c
502.000 220.500 l
504.209 220.500 506.000 218.709 506.000 216.500  c
506.000 209.500 l
506.000 207.291 504.209 205.500 502.000 205.500  c
495.000 205.500 l
492.791 205.500 491.000 207.291 491.000 209.500  c
h
f
0 J
1.45000 M
0.00000 0.00000 0.00000 RG
newpath
491.000 209.500 m
491.000 216.500 l
491.000 218.709 492.791 220.500 495.000 220.500  c
502.000 220.500 l
504.209 220.500 506.000 218.709 506.000 216.500  c
506.000 209.500 l
506.000 207.291 504.209 205.500 502.000 205.500  c
495.000 205.500 l
492.791 205.500 491.000 207.291 491.000 209.500  c
h
S
2 J
10.0000 M
.501961 0.00000 .501961 RG
newpath
506.000 164.500 m
506.000 171.500 l
506.000 173.709 507.791 175.500 510.000 175.500  c
517.000 175.500 l
519.209 175.500 521.000 173.709 521.000 171.500  c
521.000 164.500 l
521.000 162.291 519.209 160.500 517.000 160.500  c
510.000 160.500 l
507.791 160.500 506.000 162.291 506.000 164.500  c
h
f
0 J
1.45000 M
0.00000 0.00000 0.00000 RG
newpath
506.000 164.500 m
506.000 171.500 l
506.000 173.709 507.791 175.500 510.000 175.500  c
517.000 175.500 l
519.209 175.500 521.000 173.709 521.000 171.500  c
521.000 164.500 l
521.000 162.291 519.209 160.500 517.000 160.500  c
510.000 160.500 l
507.791 160.500 506.000 162.291 506.000 164.500  c
h
S
2 J
10.0000 M
1.00000 1.00000 1.00000 RG
newpath
506.000 179.500 m
506.000 186.500 l
506.000 188.709 507.791 190.500 510.000 190.500  c
517.000 190.500 l
519.209 190.500 521.000 188.709 521.000 186.500  c
521.000 179.500 l
521.000 177.291 519.209 175.500 517.000 175.500  c
510.000 175.500 l
507.791 175.500 506.000 177.291 506.000 179.500  c
h
f
0 J
1.45000 M
0.00000 0.00000 0.00000 RG
newpath
506.000 179.500 m
506.000 186.500 l
506.000 188.709 507.791 190.500 510.000 190.500  c
517.000 190.500 l
519.209 190.500 521.000 188.709 521.000 186.500  c
521.000 179.500 l
521.000 177.291 519.209 175.500 517.000 175.500  c
510.000 175.500 l
507.791 175.500 506.000 177.291 506.000 179.500  c
h
S
2 J
10.0000 M
1.00000 1.00000 1.00000 RG
newpath
506.000 194.500 m
506.000 201.500 l
506.000 203.709 507.791 205.500 510.000 205.500  c
517.000 205.500 l
519.209 205.500 521.000 203.709 521.000 201.500  c
521.000 194.500 l
521.000 192.291 519.209 190.500 517.000 190.500  c
510.000 190.500 l
507.791 190.500 506.000 192.291 506.000 194.500  c
h
f
0 J
1.45000 M
0.00000 0.00000 0.00000 RG
newpath
506.000 194.500 m
506.000 201.500 l
506.000 203.709 507.791 205.500 510.000 205.500  c
517.000 205.500 l
519.209 205.500 521.000 203.709 521.000 201.500  c
521.000 194.500 l
521.000 192.291 519.209 190.500 517.000 190.500  c
510.000 190.500 l
507.791 190.500 506.000 192.291 506.000 194.500  c
h
S
2 J
10.0000 M
1.00000 1.00000 1.00000 RG
newpath
506.000 209.500 m
506.000 216.500 l
506.000 218.709 507.791 220.500 510.000 220.500  c
517.000 220.500 l
519.209 220.500 521.000 218.709 521.000 216.500  c
521.000 209.500 l
521.000 207.291 519.209 205.500 517.000 205.500  c
510.000 205.500 l
507.791 205.500 506.000 207.291 506.000 209.500  c
h
f
0 J
1.45000 M
0.00000 0.00000 0.00000 RG
newpath
506.000 209.500 m
506.000 216.500 l
506.000 218.709 507.791 220.500 510.000 220.500  c
517.000 220.500 l
519.209 220.500 521.000 218.709 521.000 216.500  c
521.000 209.500 l
521.000 207.291 519.209 205.500 517.000 205.500  c
510.000 205.500 l
507.791 205.500 506.000 207.291 506.000 209.500  c
h
S
2 J
10.0000 M
1.00000 1.00000 1.00000 RG
newpath
446.000 224.500 m
446.000 231.500 l
446.000 233.709 447.791 235.500 450.000 235.500  c
457.000 235.500 l
459.209 235.500 461.000 233.709 461.000 231.500  c
461.000 224.500 l
461.000 222.291 459.209 220.500 457.000 220.500  c
450.000 220.500 l
447.791 220.500 446.000 222.291 446.000 224.500  c
h
f
0 J
1.45000 M
0.00000 0.00000 0.00000 RG
newpath
446.000 224.500 m
446.000 231.500 l
446.000 233.709 447.791 235.500 450.000 235.500  c
457.000 235.500 l
459.209 235.500 461.000 233.709 461.000 231.500  c
461.000 224.500 l
461.000 222.291 459.209 220.500 457.000 220.500  c
450.000 220.500 l
447.791 220.500 446.000 222.291 446.000 224.500  c
h
S
2 J
10.0000 M
1.00000 1.00000 1.00000 RG
newpath
461.000 224.500 m
461.000 231.500 l
461.000 233.709 462.791 235.500 465.000 235.500  c
472.000 235.500 l
474.209 235.500 476.000 233.709 476.000 231.500  c
476.000 224.500 l
476.000 222.291 474.209 220.500 472.000 220.500  c
465.000 220.500 l
462.791 220.500 461.000 222.291 461.000 224.500  c
h
f
0 J
1.45000 M
0.00000 0.00000 0.00000 RG
newpath
461.000 224.500 m
461.000 231.500 l
461.000 233.709 462.791 235.500 465.000 235.500  c
472.000 235.500 l
474.209 235.500 476.000 233.709 476.000 231.500  c
476.000 224.500 l
476.000 222.291 474.209 220.500 472.000 220.500  c
465.000 220.500 l
462.791 220.500 461.000 222.291 461.000 224.500  c
h
S
2 J
10.0000 M
.501961 0.00000 .501961 RG
newpath
476.000 224.500 m
476.000 231.500 l
476.000 233.709 477.791 235.500 480.000 235.500  c
487.000 235.500 l
489.209 235.500 491.000 233.709 491.000 231.500  c
491.000 224.500 l
491.000 222.291 489.209 220.500 487.000 220.500  c
480.000 220.500 l
477.791 220.500 476.000 222.291 476.000 224.500  c
h
f
0 J
1.45000 M
0.00000 0.00000 0.00000 RG
newpath
476.000 224.500 m
476.000 231.500 l
476.000 233.709 477.791 235.500 480.000 235.500  c
487.000 235.500 l
489.209 235.500 491.000 233.709 491.000 231.500  c
491.000 224.500 l
491.000 222.291 489.209 220.500 487.000 220.500  c
480.000 220.500 l
477.791 220.500 476.000 222.291 476.000 224.500  c
h
S
2 J
10.0000 M
1.00000 1.00000 1.00000 RG
newpath
491.000 224.500 m
491.000 231.500 l
491.000 233.709 492.791 235.500 495.000 235.500  c
502.000 235.500 l
504.209 235.500 506.000 233.709 506.000 231.500  c
506.000 224.500 l
506.000 222.291 504.209 220.500 502.000 220.500  c
495.000 220.500 l
492.791 220.500 491.000 222.291 491.000 224.500  c
h
f
0 J
1.45000 M
0.00000 0.00000 0.00000 RG
newpath
491.000 224.500 m
491.000 231.500 l
491.000 233.709 492.791 235.500 495.000 235.500  c
502.000 235.500 l
504.209 235.500 506.000 233.709 506.000 231.500  c
506.000 224.500 l
506.000 222.291 504.209 220.500 502.000 220.500  c
495.000 220.500 l
492.791 220.500 491.000 222.291 491.000 224.500  c
h
S
2 J
10.0000 M
.501961 0.00000 .501961 RG
newpath
506.000 224.500 m
506.000 231.500 l
506.000 233.709 507.791 235.500 510.000 235.500  c
517.000 235.500 l
519.209 235.500 521.000 233.709 521.000 231.500  c
521.000 224.500 l
521.000 222.291 519.209 220.500 517.000 220.500  c
510.000 220.500 l
507.791 220.500 506.000 222.291 506.000 224.500  c
h
f
0 J
1.45000 M
0.00000 0.00000 0.00000 RG
newpath
506.000 224.500 m
506.000 231.500 l
506.000 233.709 507.791 235.500 510.000 235.500  c
517.000 235.500 l
519.209 235.500 521.000 233.709 521.000 231.500  c
521.000 224.500 l
521.000 222.291 519.209 220.500 517.000 220.500  c
510.000 220.500 l
507.791 220.500 506.000 222.291 506.000 224.500  c
h
S
2 J
10.0000 M
1.00000 1.00000 1.00000 RG
newpath
274.500 219.000 m
274.500 241.000 l
274.500 243.209 276.291 245.000 278.500 245.000  c
300.500 245.000 l
302.709 245.000 304.500 243.209 304.500 241.000  c
304.500 219.000 l
304.500 216.791 302.709 215.000 300.500 215.000  c
278.500 215.000 l
276.291 215.000 274.500 216.791 274.500 219.000  c
h
f
0 J
1.45000 M
newpath
274.500 219.000 m
274.500 241.000 l
274.500 243.209 276.291 245.000 278.500 245.000  c
300.500 245.000 l
302.709 245.000 304.500 243.209 304.500 241.000  c
304.500 219.000 l
304.500 216.791 302.709 215.000 300.500 215.000  c
278.500 215.000 l
276.291 215.000 274.500 216.791 274.500 219.000  c
h
S
2 J
10.0000 M
0.00000 0.00000 0.00000 RG
0 J
1.45000 M
newpath
287.137 232.020 m
287.137 238.551 l
285.168 238.551 l
285.168 222.816 l
288.949 222.816 l
290.835 222.816 292.236 223.189 293.152 223.934  c
294.069 224.678 294.527 225.796 294.527 227.285  c
294.527 229.348 293.496 230.754 291.434 231.504  c
295.730 238.551 l
293.418 238.551 l
289.637 232.020 l
287.137 232.020 l
h
287.137 230.379 m
288.949 230.379 l
290.147 230.379 291.033 230.121 291.605 229.605  c
292.178 229.090 292.465 228.348 292.465 227.379  c
292.465 226.400 292.194 225.681 291.652 225.223  c
291.111 224.764 290.178 224.535 288.855 224.535  c
287.137 224.535 l
287.137 230.379 l
h
f
2 J
10.0000 M
1.00000 1.00000 1.00000 RG
0.00000 0.00000 0.00000 RG
1.00000 1.00000 1.00000 RG
newpath
521.000 164.500 m
521.000 171.500 l
521.000 173.709 522.791 175.500 525.000 175.500  c
532.000 175.500 l
534.209 175.500 536.000 173.709 536.000 171.500  c
536.000 164.500 l
536.000 162.291 534.209 160.500 532.000 160.500  c
525.000 160.500 l
522.791 160.500 521.000 162.291 521.000 164.500  c
h
f
0 J
1.45000 M
0.00000 0.00000 0.00000 RG
newpath
521.000 164.500 m
521.000 171.500 l
521.000 173.709 522.791 175.500 525.000 175.500  c
532.000 175.500 l
534.209 175.500 536.000 173.709 536.000 171.500  c
536.000 164.500 l
536.000 162.291 534.209 160.500 532.000 160.500  c
525.000 160.500 l
522.791 160.500 521.000 162.291 521.000 164.500  c
h
S
2 J
10.0000 M
1.00000 1.00000 1.00000 RG
newpath
521.000 179.500 m
521.000 186.500 l
521.000 188.709 522.791 190.500 525.000 190.500  c
532.000 190.500 l
534.209 190.500 536.000 188.709 536.000 186.500  c
536.000 179.500 l
536.000 177.291 534.209 175.500 532.000 175.500  c
525.000 175.500 l
522.791 175.500 521.000 177.291 521.000 179.500  c
h
f
0 J
1.45000 M
0.00000 0.00000 0.00000 RG
newpath
521.000 179.500 m
521.000 186.500 l
521.000 188.709 522.791 190.500 525.000 190.500  c
532.000 190.500 l
534.209 190.500 536.000 188.709 536.000 186.500  c
536.000 179.500 l
536.000 177.291 534.209 175.500 532.000 175.500  c
525.000 175.500 l
522.791 175.500 521.000 177.291 521.000 179.500  c
h
S
2 J
10.0000 M
.501961 0.00000 .501961 RG
newpath
521.000 194.500 m
521.000 201.500 l
521.000 203.709 522.791 205.500 525.000 205.500  c
532.000 205.500 l
534.209 205.500 536.000 203.709 536.000 201.500  c
536.000 194.500 l
536.000 192.291 534.209 190.500 532.000 190.500  c
525.000 190.500 l
522.791 190.500 521.000 192.291 521.000 194.500  c
h
f
0 J
1.45000 M
0.00000 0.00000 0.00000 RG
newpath
521.000 194.500 m
521.000 201.500 l
521.000 203.709 522.791 205.500 525.000 205.500  c
532.000 205.500 l
534.209 205.500 536.000 203.709 536.000 201.500  c
536.000 194.500 l
536.000 192.291 534.209 190.500 532.000 190.500  c
525.000 190.500 l
522.791 190.500 521.000 192.291 521.000 194.500  c
h
S
2 J
10.0000 M
1.00000 1.00000 1.00000 RG
newpath
521.000 209.500 m
521.000 216.500 l
521.000 218.709 522.791 220.500 525.000 220.500  c
532.000 220.500 l
534.209 220.500 536.000 218.709 536.000 216.500  c
536.000 209.500 l
536.000 207.291 534.209 205.500 532.000 205.500  c
525.000 205.500 l
522.791 205.500 521.000 207.291 521.000 209.500  c
h
f
0 J
1.45000 M
0.00000 0.00000 0.00000 RG
newpath
521.000 209.500 m
521.000 216.500 l
521.000 218.709 522.791 220.500 525.000 220.500  c
532.000 220.500 l
534.209 220.500 536.000 218.709 536.000 216.500  c
536.000 209.500 l
536.000 207.291 534.209 205.500 532.000 205.500  c
525.000 205.500 l
522.791 205.500 521.000 207.291 521.000 209.500  c
h
S
2 J
10.0000 M
1.00000 1.00000 1.00000 RG
newpath
521.000 224.500 m
521.000 231.500 l
521.000 233.709 522.791 235.500 525.000 235.500  c
532.000 235.500 l
534.209 235.500 536.000 233.709 536.000 231.500  c
536.000 224.500 l
536.000 222.291 534.209 220.500 532.000 220.500  c
525.000 220.500 l
522.791 220.500 521.000 222.291 521.000 224.500  c
h
f
0 J
1.45000 M
0.00000 0.00000 0.00000 RG
newpath
521.000 224.500 m
521.000 231.500 l
521.000 233.709 522.791 235.500 525.000 235.500  c
532.000 235.500 l
534.209 235.500 536.000 233.709 536.000 231.500  c
536.000 224.500 l
536.000 222.291 534.209 220.500 532.000 220.500  c
525.000 220.500 l
522.791 220.500 521.000 222.291 521.000 224.500  c
h
S
2 J
10.0000 M
1.00000 1.00000 1.00000 RG
newpath
474.000 126.000 m
474.000 134.000 l
474.000 136.209 475.791 138.000 478.000 138.000  c
502.000 138.000 l
504.209 138.000 506.000 136.209 506.000 134.000  c
506.000 126.000 l
506.000 123.791 504.209 122.000 502.000 122.000  c
478.000 122.000 l
475.791 122.000 474.000 123.791 474.000 126.000  c
h
f
0 J
1.45000 M
newpath
474.000 126.000 m
474.000 134.000 l
474.000 136.209 475.791 138.000 478.000 138.000  c
502.000 138.000 l
504.209 138.000 506.000 136.209 506.000 134.000  c
506.000 126.000 l
506.000 123.791 504.209 122.000 502.000 122.000  c
478.000 122.000 l
475.791 122.000 474.000 123.791 474.000 126.000  c
h
S
2 J
10.0000 M
0.00000 0.00000 0.00000 RG
0 J
1.45000 M
newpath
467.094 127.656 m
468.594 127.656 l
470.281 132.406 l
470.656 133.573 470.885 134.448 470.969 135.031  c
471.031 135.031 l
471.156 134.406 471.406 133.531 471.781 132.406  c
473.281 127.656 l
474.781 127.656 l
471.406 137.344 l
471.031 138.385 470.615 139.094 470.156 139.469  c
469.698 139.844 469.135 140.031 468.469 140.031  c
468.052 140.031 467.635 139.990 467.219 139.906  c
467.219 138.781 l
467.510 138.865 467.823 138.906 468.156 138.906  c
468.990 138.906 469.573 138.448 469.906 137.531  c
470.344 136.281 l
467.094 127.656 l
h
477.656 135.156 m
477.531 135.156 l
477.219 136.219 l
476.219 136.219 l
476.219 124.031 l
477.656 124.031 l
477.656 126.969 l
477.656 127.427 477.635 128.031 477.594 128.781  c
477.656 128.781 l
478.198 127.906 479.010 127.469 480.094 127.469  c
481.052 127.469 481.833 127.844 482.438 128.594  c
483.042 129.344 483.344 130.448 483.344 131.906  c
483.344 133.365 483.042 134.469 482.438 135.219  c
481.833 135.969 481.052 136.344 480.094 136.344  c
479.010 136.344 478.198 135.948 477.656 135.156  c
h
479.844 135.219 m
480.510 135.219 481.010 134.938 481.344 134.375  c
481.677 133.812 481.844 132.990 481.844 131.906  c
481.844 130.823 481.677 130.010 481.344 129.469  c
481.010 128.927 480.490 128.656 479.781 128.656  c
479.073 128.656 478.542 128.885 478.188 129.344  c
477.833 129.802 477.656 130.656 477.656 131.906  c
477.656 133.156 477.833 134.021 478.188 134.500  c
478.542 134.979 479.094 135.219 479.844 135.219  c
h
487.031 136.219 m
485.594 136.219 l
485.594 124.031 l
487.031 124.031 l
487.031 136.219 l
h
489.219 131.906 m
489.219 130.490 489.562 129.396 490.250 128.625  c
490.938 127.854 491.844 127.469 492.969 127.469  c
494.052 127.469 494.948 127.865 495.656 128.656  c
496.365 129.448 496.719 130.531 496.719 131.906  c
496.719 133.365 496.375 134.469 495.688 135.219  c
495.000 135.969 494.094 136.344 492.969 136.344  c
491.844 136.344 490.938 135.958 490.250 135.188  c
489.562 134.417 489.219 133.323 489.219 131.906  c
h
495.219 131.906 m
495.219 130.823 495.031 130.010 494.656 129.469  c
494.281 128.927 493.719 128.656 492.969 128.656  c
492.219 128.656 491.656 128.927 491.281 129.469  c
490.906 130.010 490.719 130.823 490.719 131.906  c
490.719 132.990 490.906 133.812 491.281 134.375  c
491.656 134.938 492.219 135.219 492.969 135.219  c
493.719 135.219 494.281 134.938 494.656 134.375  c
495.031 133.812 495.219 132.990 495.219 131.906  c
h
504.469 127.969 m
504.031 129.156 l
503.365 128.865 502.781 128.719 502.281 128.719  c
501.490 128.719 500.906 128.990 500.531 129.531  c
500.156 130.073 499.969 130.885 499.969 131.969  c
499.969 133.010 500.156 133.802 500.531 134.344  c
500.906 134.885 501.469 135.156 502.219 135.156  c
502.927 135.156 503.635 134.990 504.344 134.656  c
504.344 135.906 l
503.760 136.198 503.052 136.344 502.219 136.344  c
501.052 136.344 500.135 135.979 499.469 135.250  c
498.802 134.521 498.469 133.427 498.469 131.969  c
498.469 130.469 498.812 129.344 499.500 128.594  c
500.188 127.844 501.115 127.469 502.281 127.469  c
503.073 127.469 503.802 127.635 504.469 127.969  c
h
507.719 131.781 m
511.031 127.656 l
512.719 127.656 l
509.594 131.344 l
512.906 136.219 l
511.281 136.219 l
508.656 132.281 l
507.781 132.906 l
507.781 136.219 l
506.406 136.219 l
506.406 124.031 l
507.781 124.031 l
507.781 129.656 l
507.656 131.781 l
507.719 131.781 l
h
f
2 J
10.0000 M
1.00000 1.00000 1.00000 RG
0.00000 0.00000 0.00000 RG
1.00000 1.00000 1.00000 RG
newpath
566.000 187.000 m
566.000 209.000 l
566.000 211.209 567.791 213.000 570.000 213.000  c
592.000 213.000 l
594.209 213.000 596.000 211.209 596.000 209.000  c
596.000 187.000 l
596.000 184.791 594.209 183.000 592.000 183.000  c
570.000 183.000 l
567.791 183.000 566.000 184.791 566.000 187.000  c
h
f
0 J
1.45000 M
newpath
566.000 187.000 m
566.000 209.000 l
566.000 211.209 567.791 213.000 570.000 213.000  c
592.000 213.000 l
594.209 213.000 596.000 211.209 596.000 209.000  c
596.000 187.000 l
596.000 184.791 594.209 183.000 592.000 183.000  c
570.000 183.000 l
567.791 183.000 566.000 184.791 566.000 187.000  c
h
S
2 J
10.0000 M
0.00000 0.00000 0.00000 RG
0 J
1.45000 M
newpath
560.219 195.531 m
560.031 196.844 l
559.698 196.802 559.406 196.781 559.156 196.781  c
558.531 196.781 558.010 197.031 557.594 197.531  c
557.177 198.031 556.969 198.719 556.969 199.594  c
556.969 204.219 l
555.531 204.219 l
555.531 195.656 l
556.656 195.656 l
556.844 197.219 l
556.906 197.219 l
557.573 196.052 558.344 195.469 559.219 195.469  c
559.594 195.469 559.927 195.490 560.219 195.531  c
h
561.406 199.906 m
561.406 198.490 561.750 197.396 562.438 196.625  c
563.125 195.854 564.031 195.469 565.156 195.469  c
566.240 195.469 567.135 195.865 567.844 196.656  c
568.552 197.448 568.906 198.531 568.906 199.906  c
568.906 201.365 568.562 202.469 567.875 203.219  c
567.188 203.969 566.281 204.344 565.156 204.344  c
564.031 204.344 563.125 203.958 562.438 203.188  c
561.750 202.417 561.406 201.323 561.406 199.906  c
h
567.406 199.906 m
567.406 198.823 567.219 198.010 566.844 197.469  c
566.469 196.927 565.906 196.656 565.156 196.656  c
564.406 196.656 563.844 196.927 563.469 197.469  c
563.094 198.010 562.906 198.823 562.906 199.906  c
562.906 200.990 563.094 201.812 563.469 202.375  c
563.844 202.938 564.406 203.219 565.156 203.219  c
565.906 203.219 566.469 202.938 566.844 202.375  c
567.219 201.812 567.406 200.990 567.406 199.906  c
h
577.656 204.219 m
576.344 199.406 l
576.302 199.281 576.115 198.469 575.781 196.969  c
575.719 196.969 l
573.781 204.219 l
572.156 204.219 l
569.969 195.656 l
571.406 195.656 l
572.469 200.219 l
572.635 201.052 572.802 202.010 572.969 203.094  c
573.031 203.094 l
573.240 201.927 573.427 201.052 573.594 200.469  c
575.031 195.656 l
576.531 195.656 l
577.906 200.469 l
578.115 201.344 578.302 202.219 578.469 203.094  c
578.531 203.094 l
578.656 202.052 578.823 201.094 579.031 200.219  c
580.094 195.656 l
581.531 195.656 l
579.344 204.219 l
577.656 204.219 l
h
582.406 203.844 m
582.406 202.531 l
583.323 202.990 584.177 203.219 584.969 203.219  c
585.594 203.219 586.062 203.115 586.375 202.906  c
586.688 202.698 586.844 202.385 586.844 201.969  c
586.844 201.635 586.729 201.375 586.500 201.188  c
586.271 201.000 585.688 200.688 584.750 200.250  c
583.812 199.812 583.208 199.417 582.938 199.062  c
582.667 198.708 582.531 198.281 582.531 197.781  c
582.531 197.073 582.792 196.510 583.312 196.094  c
583.833 195.677 584.573 195.469 585.531 195.469  c
586.406 195.469 587.260 195.677 588.094 196.094  c
587.594 197.219 l
586.760 196.844 586.052 196.656 585.469 196.656  c
584.969 196.656 584.583 196.740 584.312 196.906  c
584.042 197.073 583.906 197.323 583.906 197.656  c
583.906 197.990 584.010 198.250 584.219 198.438  c
584.427 198.625 585.010 198.927 585.969 199.344  c
586.927 199.760 587.542 200.156 587.812 200.531  c
588.083 200.906 588.219 201.344 588.219 201.844  c
588.219 202.635 587.948 203.250 587.406 203.688  c
586.865 204.125 586.052 204.344 584.969 204.344  c
583.885 204.344 583.031 204.177 582.406 203.844  c
h
595.594 206.719 m
588.969 206.719 l
588.969 205.656 l
595.594 205.656 l
595.594 206.719 l
h
598.344 203.156 m
598.219 203.156 l
598.302 203.823 598.344 204.240 598.344 204.406  c
598.344 208.031 l
596.906 208.031 l
596.906 195.656 l
598.031 195.656 l
598.281 196.781 l
598.344 196.781 l
598.885 195.906 599.698 195.469 600.781 195.469  c
601.740 195.469 602.521 195.844 603.125 196.594  c
603.729 197.344 604.031 198.448 604.031 199.906  c
604.031 201.365 603.729 202.469 603.125 203.219  c
602.521 203.969 601.740 204.344 600.781 204.344  c
599.698 204.344 598.885 203.948 598.344 203.156  c
h
598.344 199.594 m
598.344 199.906 l
598.344 201.156 598.521 202.021 598.875 202.500  c
599.229 202.979 599.781 203.219 600.531 203.219  c
601.198 203.219 601.698 202.938 602.031 202.375  c
602.365 201.812 602.531 200.990 602.531 199.906  c
602.531 198.823 602.365 198.010 602.031 197.469  c
601.698 196.927 601.177 196.656 600.469 196.656  c
599.760 196.656 599.229 196.875 598.875 197.312  c
598.521 197.750 598.344 198.510 598.344 199.594  c
h
612.656 200.219 m
607.281 200.219 l
607.281 201.177 607.479 201.906 607.875 202.406  c
608.271 202.906 608.865 203.156 609.656 203.156  c
610.573 203.156 611.448 202.948 612.281 202.531  c
612.281 203.781 l
611.490 204.156 610.615 204.344 609.656 204.344  c
608.490 204.344 607.552 203.969 606.844 203.219  c
606.135 202.469 605.781 201.385 605.781 199.969  c
605.781 198.552 606.115 197.448 606.781 196.656  c
607.448 195.865 608.302 195.469 609.344 195.469  c
610.344 195.469 611.146 195.812 611.750 196.500  c
612.354 197.188 612.656 198.135 612.656 199.344  c
612.656 200.219 l
h
607.281 199.031 m
611.156 199.031 l
611.156 198.240 611.000 197.646 610.688 197.250  c
610.375 196.854 609.906 196.656 609.281 196.656  c
608.073 196.656 607.406 197.448 607.281 199.031  c
h
619.531 195.531 m
619.344 196.844 l
619.010 196.802 618.719 196.781 618.469 196.781  c
617.844 196.781 617.323 197.031 616.906 197.531  c
616.490 198.031 616.281 198.719 616.281 199.594  c
616.281 204.219 l
614.844 204.219 l
614.844 195.656 l
615.969 195.656 l
616.156 197.219 l
616.219 197.219 l
616.885 196.052 617.656 195.469 618.531 195.469  c
618.906 195.469 619.240 195.490 619.531 195.531  c
h
626.469 206.719 m
619.844 206.719 l
619.844 205.656 l
626.469 205.656 l
626.469 206.719 l
h
629.219 203.156 m
629.094 203.156 l
628.781 204.219 l
627.781 204.219 l
627.781 192.031 l
629.219 192.031 l
629.219 194.969 l
629.219 195.427 629.198 196.031 629.156 196.781  c
629.219 196.781 l
629.760 195.906 630.573 195.469 631.656 195.469  c
632.615 195.469 633.396 195.844 634.000 196.594  c
634.604 197.344 634.906 198.448 634.906 199.906  c
634.906 201.365 634.604 202.469 634.000 203.219  c
633.396 203.969 632.615 204.344 631.656 204.344  c
630.573 204.344 629.760 203.948 629.219 203.156  c
h
631.406 203.219 m
632.073 203.219 632.573 202.938 632.906 202.375  c
633.240 201.812 633.406 200.990 633.406 199.906  c
633.406 198.823 633.240 198.010 632.906 197.469  c
632.573 196.927 632.052 196.656 631.344 196.656  c
630.635 196.656 630.104 196.885 629.750 197.344  c
629.396 197.802 629.219 198.656 629.219 199.906  c
629.219 201.156 629.396 202.021 629.750 202.500  c
630.104 202.979 630.656 203.219 631.406 203.219  c
h
638.594 204.219 m
637.156 204.219 l
637.156 192.031 l
638.594 192.031 l
638.594 204.219 l
h
642.594 199.781 m
645.906 195.656 l
647.594 195.656 l
644.469 199.344 l
647.781 204.219 l
646.156 204.219 l
643.531 200.281 l
642.656 200.906 l
642.656 204.219 l
641.281 204.219 l
641.281 192.031 l
642.656 192.031 l
642.656 197.656 l
642.531 199.781 l
642.594 199.781 l
h
f
2 J
10.0000 M
1.00000 1.00000 1.00000 RG
0.00000 0.00000 0.00000 RG
1.00000 1.00000 1.00000 RG
newpath
210.000 283.000 m
210.000 305.000 l
210.000 307.209 211.791 309.000 214.000 309.000  c
246.000 309.000 l
248.209 309.000 250.000 307.209 250.000 305.000  c
250.000 283.000 l
250.000 280.791 248.209 279.000 246.000 279.000  c
214.000 279.000 l
211.791 279.000 210.000 280.791 210.000 283.000  c
h
f
0 J
1.45000 M
0.00000 0.00000 0.00000 RG
newpath
210.000 283.000 m
210.000 305.000 l
210.000 307.209 211.791 309.000 214.000 309.000  c
246.000 309.000 l
248.209 309.000 250.000 307.209 250.000 305.000  c
250.000 283.000 l
250.000 280.791 248.209 279.000 246.000 279.000  c
214.000 279.000 l
211.791 279.000 210.000 280.791 210.000 283.000  c
h
S
2 J
10.0000 M
1.00000 1.00000 1.00000 RG
newpath
250.500 283.000 m
250.500 305.000 l
250.500 307.209 252.291 309.000 254.500 309.000  c
286.500 309.000 l
288.709 309.000 290.500 307.209 290.500 305.000  c
290.500 283.000 l
290.500 280.791 288.709 279.000 286.500 279.000  c
254.500 279.000 l
252.291 279.000 250.500 280.791 250.500 283.000  c
h
f
0 J
1.45000 M
0.00000 0.00000 0.00000 RG
newpath
250.500 283.000 m
250.500 305.000 l
250.500 307.209 252.291 309.000 254.500 309.000  c
286.500 309.000 l
288.709 309.000 290.500 307.209 290.500 305.000  c
290.500 283.000 l
290.500 280.791 288.709 279.000 286.500 279.000  c
254.500 279.000 l
252.291 279.000 250.500 280.791 250.500 283.000  c
h
S
2 J
10.0000 M
1.00000 1.00000 1.00000 RG
newpath
290.000 283.000 m
290.000 305.000 l
290.000 307.209 291.791 309.000 294.000 309.000  c
326.000 309.000 l
328.209 309.000 330.000 307.209 330.000 305.000  c
330.000 283.000 l
330.000 280.791 328.209 279.000 326.000 279.000  c
294.000 279.000 l
291.791 279.000 290.000 280.791 290.000 283.000  c
h
f
0 J
1.45000 M
0.00000 0.00000 0.00000 RG
newpath
290.000 283.000 m
290.000 305.000 l
290.000 307.209 291.791 309.000 294.000 309.000  c
326.000 309.000 l
328.209 309.000 330.000 307.209 330.000 305.000  c
330.000 283.000 l
330.000 280.791 328.209 279.000 326.000 279.000  c
294.000 279.000 l
291.791 279.000 290.000 280.791 290.000 283.000  c
h
S
2 J
10.0000 M
1.00000 1.00000 1.00000 RG
newpath
330.500 283.000 m
330.500 305.000 l
330.500 307.209 332.291 309.000 334.500 309.000  c
366.500 309.000 l
368.709 309.000 370.500 307.209 370.500 305.000  c
370.500 283.000 l
370.500 280.791 368.709 279.000 366.500 279.000  c
334.500 279.000 l
332.291 279.000 330.500 280.791 330.500 283.000  c
h
f
0 J
1.45000 M
0.00000 0.00000 0.00000 RG
newpath
330.500 283.000 m
330.500 305.000 l
330.500 307.209 332.291 309.000 334.500 309.000  c
366.500 309.000 l
368.709 309.000 370.500 307.209 370.500 305.000  c
370.500 283.000 l
370.500 280.791 368.709 279.000 366.500 279.000  c
334.500 279.000 l
332.291 279.000 330.500 280.791 330.500 283.000  c
h
S
2 J
10.0000 M
.800000 1.00000 1.00000 RG
newpath
460.000 260.000 m
460.000 312.000 l
460.000 314.209 461.791 316.000 464.000 316.000  c
471.000 316.000 l
473.209 316.000 475.000 314.209 475.000 312.000  c
475.000 260.000 l
475.000 257.791 473.209 256.000 471.000 256.000  c
464.000 256.000 l
461.791 256.000 460.000 257.791 460.000 260.000  c
h
f
0 J
1.45000 M
0.00000 0.00000 0.00000 RG
newpath
460.000 260.000 m
460.000 312.000 l
460.000 314.209 461.791 316.000 464.000 316.000  c
471.000 316.000 l
473.209 316.000 475.000 314.209 475.000 312.000  c
475.000 260.000 l
475.000 257.791 473.209 256.000 471.000 256.000  c
464.000 256.000 l
461.791 256.000 460.000 257.791 460.000 260.000  c
h
S
2 J
10.0000 M
.800000 1.00000 1.00000 RG
newpath
475.000 260.000 m
475.000 312.000 l
475.000 314.209 476.791 316.000 479.000 316.000  c
486.000 316.000 l
488.209 316.000 490.000 314.209 490.000 312.000  c
490.000 260.000 l
490.000 257.791 488.209 256.000 486.000 256.000  c
479.000 256.000 l
476.791 256.000 475.000 257.791 475.000 260.000  c
h
f
0 J
1.45000 M
0.00000 0.00000 0.00000 RG
newpath
475.000 260.000 m
475.000 312.000 l
475.000 314.209 476.791 316.000 479.000 316.000  c
486.000 316.000 l
488.209 316.000 490.000 314.209 490.000 312.000  c
490.000 260.000 l
490.000 257.791 488.209 256.000 486.000 256.000  c
479.000 256.000 l
476.791 256.000 475.000 257.791 475.000 260.000  c
h
S
2 J
10.0000 M
.800000 1.00000 1.00000 RG
newpath
490.000 260.000 m
490.000 312.000 l
490.000 314.209 491.791 316.000 494.000 316.000  c
501.000 316.000 l
503.209 316.000 505.000 314.209 505.000 312.000  c
505.000 260.000 l
505.000 257.791 503.209 256.000 501.000 256.000  c
494.000 256.000 l
491.791 256.000 490.000 257.791 490.000 260.000  c
h
f
0 J
1.45000 M
0.00000 0.00000 0.00000 RG
newpath
490.000 260.000 m
490.000 312.000 l
490.000 314.209 491.791 316.000 494.000 316.000  c
501.000 316.000 l
503.209 316.000 505.000 314.209 505.000 312.000  c
505.000 260.000 l
505.000 257.791 503.209 256.000 501.000 256.000  c
494.000 256.000 l
491.791 256.000 490.000 257.791 490.000 260.000  c
h
S
2 J
10.0000 M
.800000 1.00000 1.00000 RG
newpath
505.000 260.000 m
505.000 312.000 l
505.000 314.209 506.791 316.000 509.000 316.000  c
516.000 316.000 l
518.209 316.000 520.000 314.209 520.000 312.000  c
520.000 260.000 l
520.000 257.791 518.209 256.000 516.000 256.000  c
509.000 256.000 l
506.791 256.000 505.000 257.791 505.000 260.000  c
h
f
0 J
1.45000 M
0.00000 0.00000 0.00000 RG
newpath
505.000 260.000 m
505.000 312.000 l
505.000 314.209 506.791 316.000 509.000 316.000  c
516.000 316.000 l
518.209 316.000 520.000 314.209 520.000 312.000  c
520.000 260.000 l
520.000 257.791 518.209 256.000 516.000 256.000  c
509.000 256.000 l
506.791 256.000 505.000 257.791 505.000 260.000  c
h
S
2 J
10.0000 M
.800000 1.00000 1.00000 RG
newpath
520.000 260.000 m
520.000 312.000 l
520.000 314.209 521.791 316.000 524.000 316.000  c
531.000 316.000 l
533.209 316.000 535.000 314.209 535.000 312.000  c
535.000 260.000 l
535.000 257.791 533.209 256.000 531.000 256.000  c
524.000 256.000 l
521.791 256.000 520.000 257.791 520.000 260.000  c
h
f
0 J
1.45000 M
0.00000 0.00000 0.00000 RG
newpath
520.000 260.000 m
520.000 312.000 l
520.000 314.209 521.791 316.000 524.000 316.000  c
531.000 316.000 l
533.209 316.000 535.000 314.209 535.000 312.000  c
535.000 260.000 l
535.000 257.791 533.209 256.000 531.000 256.000  c
524.000 256.000 l
521.791 256.000 520.000 257.791 520.000 260.000  c
h
S
2 J
10.0000 M
.800000 1.00000 1.00000 RG
newpath
493.000 275.000 m
504.000 275.000 l
504.000 291.000 l
493.000 291.000 l
493.000 275.000 l
h
f
0 J
1.45000 M
newpath
493.000 275.000 m
504.000 275.000 l
504.000 291.000 l
493.000 291.000 l
493.000 275.000 l
h
S
2 J
10.0000 M
0.00000 0.00000 0.00000 RG
0 J
1.45000 M
newpath
492.246 288.113 m
492.246 286.957 l
493.048 287.363 493.793 287.566 494.480 287.566  c
495.033 287.566 495.444 287.475 495.715 287.293  c
495.986 287.111 496.121 286.837 496.121 286.473  c
496.121 286.181 496.022 285.952 495.824 285.785  c
495.626 285.618 495.116 285.345 494.293 284.965  c
493.470 284.585 492.941 284.238 492.707 283.926  c
492.473 283.613 492.355 283.238 492.355 282.801  c
492.355 282.186 492.582 281.697 493.035 281.332  c
493.488 280.967 494.137 280.785 494.980 280.785  c
495.741 280.785 496.486 280.967 497.215 281.332  c
496.777 282.316 l
496.048 281.983 495.428 281.816 494.918 281.816  c
494.480 281.816 494.145 281.889 493.910 282.035  c
493.676 282.181 493.559 282.400 493.559 282.691  c
493.559 282.983 493.650 283.212 493.832 283.379  c
494.014 283.546 494.525 283.811 495.363 284.176  c
496.202 284.540 496.738 284.887 496.973 285.215  c
497.207 285.543 497.324 285.926 497.324 286.363  c
497.324 287.051 497.087 287.587 496.613 287.973  c
496.139 288.358 495.428 288.551 494.480 288.551  c
493.533 288.551 492.788 288.405 492.246 288.113  c
h
501.652 283.520 m
503.996 278.426 l
505.371 278.426 l
502.309 284.551 l
502.309 288.441 l
501.043 288.441 l
501.043 284.613 l
497.980 278.426 l
499.355 278.426 l
501.652 283.520 l
h
f
2 J
10.0000 M
.800000 1.00000 1.00000 RG
0.00000 0.00000 0.00000 RG
1.00000 1.00000 1.00000 RG
newpath
169.913 221.237 m
185.913 221.237 l
185.913 246.237 l
169.913 246.237 l
169.913 221.237 l
h
f
0 J
1.45000 M
newpath
169.913 221.237 m
185.913 221.237 l
185.913 246.237 l
169.913 246.237 l
169.913 221.237 l
h
S
2 J
10.0000 M
0.00000 0.00000 0.00000 RG
0 J
1.45000 M
newpath
182.668 240.344 m
182.668 234.500 l
182.668 233.750 182.523 233.198 182.231 232.844  c
181.939 232.490 181.528 232.313 180.997 232.313  c
180.247 232.313 179.684 232.565 179.309 233.071  c
178.934 233.576 178.747 234.318 178.747 235.297  c
178.747 240.344 l
177.215 240.344 l
177.215 234.500 l
177.215 233.750 177.072 233.198 176.786 232.844  c
176.499 232.490 176.069 232.313 175.497 232.313  c
174.788 232.313 174.244 232.555 173.864 233.039  c
173.484 233.524 173.293 234.386 173.293 235.625  c
173.293 240.344 l
171.778 240.344 l
171.778 231.250 l
172.965 231.250 l
173.231 232.438 l
173.293 232.438 l
173.825 231.511 174.668 231.047 175.825 231.047  c
177.148 231.047 178.012 231.558 178.418 232.578  c
178.481 232.578 l
179.054 231.558 179.981 231.047 181.262 231.047  c
182.241 231.047 182.973 231.323 183.458 231.875  c
183.942 232.427 184.184 233.255 184.184 234.360  c
184.184 240.344 l
182.668 240.344 l
h
f
2 J
10.0000 M
1.00000 1.00000 1.00000 RG
0.00000 0.00000 0.00000 RG
1.00000 1.00000 1.00000 RG
newpath
272.913 124.237 m
298.913 124.237 l
298.913 136.237 l
272.913 136.237 l
272.913 124.237 l
h
f
0 J
1.45000 M
newpath
272.913 124.237 m
298.913 124.237 l
298.913 136.237 l
272.913 136.237 l
272.913 124.237 l
h
S
2 J
10.0000 M
0.00000 0.00000 0.00000 RG
0 J
1.45000 M
newpath
288.071 136.844 m
288.071 131.000 l
288.071 130.250 287.917 129.698 287.610 129.344  c
287.303 128.990 286.836 128.813 286.211 128.813  c
285.461 128.813 284.886 129.065 284.485 129.571  c
284.084 130.076 283.883 130.927 283.883 132.125  c
283.883 136.844 l
282.368 136.844 l
282.368 127.750 l
283.555 127.750 l
283.821 128.938 l
283.883 128.938 l
284.415 128.011 285.279 127.547 286.477 127.547  c
287.498 127.547 288.264 127.823 288.774 128.375  c
289.284 128.927 289.540 129.755 289.540 130.860  c
289.540 136.844 l
288.071 136.844 l
h
f
2 J
10.0000 M
1.00000 1.00000 1.00000 RG
0.00000 0.00000 0.00000 RG
0 J
1.45000 M
newpath
212.913 158.237 m
214.653 153.842 l
219.573 150.033 l
227.217 146.811 l
237.131 144.174 l
261.956 140.658 l
290.413 139.487 l
318.870 140.658 l
343.694 144.174 l
353.608 146.811 l
361.252 150.033 l
366.172 153.842 l
367.913 158.237 l
S
2 J
10.0000 M
0 J
1.45000 M
newpath
377.000 179.000 m
382.592 186.577 l
388.730 193.132 l
395.412 198.665 l
402.640 203.176 l
410.412 206.665 l
418.730 209.132 l
427.592 210.577 l
429.008 210.641 l
S
newpath
437.000 211.000 m
425.237 205.466 l
428.009 210.596 l
424.787 215.456 l
h
f
2 J
10.0000 M
0 J
1.45000 M
newpath
453.506 160.468 m
454.266 155.354 l
456.770 150.949 l
460.756 147.279 l
465.970 144.332 l
479.064 140.552 l
494.014 139.504 l
508.780 141.083 l
521.327 145.184 l
526.131 148.147 l
529.616 151.700 l
531.526 155.832 l
531.608 160.491 l
S
2 J
10.0000 M
0 J
1.45000 M
newpath
536.013 168.005 m
539.504 168.674 l
542.553 170.578 l
547.244 177.375 l
550.058 186.984 l
550.996 198.000 l
550.058 209.016 l
547.244 218.625 l
542.553 225.422 l
539.504 227.326 l
536.013 227.995 l
S
2 J
10.0000 M
0 J
1.45000 M
newpath
210.726 159.000 m
205.662 160.687 l
201.278 165.455 l
197.579 172.865 l
194.568 182.474 l
190.635 206.536 l
189.514 234.118 l
191.245 261.701 l
195.863 285.762 l
199.267 295.372 l
203.406 302.781 l
208.287 307.549 l
213.913 309.237 l
S
2 J
10.0000 M
0 J
1.45000 M
newpath
468.500 235.522 m
468.500 247.968 l
S
newpath
468.500 255.968 m
473.500 243.968 l
468.500 246.968 l
463.500 243.968 l
h
f
2 J
10.0000 M
0 J
1.45000 M
newpath
483.500 235.505 m
483.500 248.034 l
S
newpath
483.500 256.034 m
488.500 244.034 l
483.500 247.034 l
478.500 244.034 l
h
f
2 J
10.0000 M
0 J
1.45000 M
newpath
498.500 235.505 m
498.500 248.034 l
S
newpath
498.500 256.034 m
503.500 244.034 l
498.500 247.034 l
493.500 244.034 l
h
f
2 J
10.0000 M
0 J
1.45000 M
newpath
513.500 235.505 m
513.500 248.034 l
S
newpath
513.500 256.034 m
518.500 244.034 l
513.500 247.034 l
508.500 244.034 l
h
f
2 J
10.0000 M
0 J
1.45000 M
newpath
528.500 235.505 m
528.500 248.034 l
S
newpath
528.500 256.034 m
533.500 244.034 l
528.500 247.034 l
523.500 244.034 l
h
f
2 J
10.0000 M
Q
[ 1.00000 0.00000 0.00000 1.00000 0.00000 0.00000 ] defaultmatrix matrix concatmatrix setmatrix
cliprestore

%%Trailer
%%EOF
