%!PS-Adobe-3.0 EPSF-3.0
%%BoundingBox: 0 0 422 286
%%Creator: yExport 1.5
%%Producer: org.freehep.graphicsio.ps.EPSGraphics2D Revision: 12753 
%%For: 
%%Title: 
%%CreationDate: Thursday, May 11, 2017 8:53:50 AM CST
%%LanguageLevel: 3
%%EndComments
%%BeginProlog
100 dict dup begin

%
% File: org/freehep/graphicsio.ps/PSProlog.txt
% Author: Charles Loomis
%

% Redefinitions which save some space in the output file.  These are also
% the same as the PDF operators.
/q {gsave} def
/Q {grestore} def

/n {newpath} def
/m {moveto} def
/l {lineto} def
/c {curveto} def
/h {closepath} def

/re {4 -2 roll moveto
     dup 0 exch rlineto exch 0 rlineto
     neg 0 exch rlineto closepath} def

/f {fill} def
/f* {eofill} def
/F {gsave vg&FC fill grestore} def
/F* {gsave vg&FC eofill grestore} def

/s {closepath stroke} def
/S {stroke} def

/b {closepath gsave vg&FC fill grestore
    gsave stroke grestore newpath} def
/B {gsave vg&FC fill grestore gsave stroke grestore newpath} def
/b* {closepath gsave vg&FC eofill grestore
    gsave stroke grestore newpath} def
/B* {gsave vg&FC eofill grestore gsave stroke grestore newpath} def

/g {1 array astore /vg&fcolor exch def} def
/G {setgray} def
/k {4 array astore /vg&fcolor exch def} def
/K {setcmykcolor} def
/rg {3 array astore /vg&fcolor exch def} def
/RG {setrgbcolor} def

% Initialize the fill color.
0 0 0 rg

/vg&FC {mark vg&fcolor aload pop
        counttomark 1 eq {G} if
        counttomark 3 eq {RG} if
        counttomark 4 eq {K} if
        cleartomark } def

/vg&DFC {/vg&fcolor exch def} def

/vg&C {mark exch aload pop
       counttomark 1 eq {G} if
       counttomark 3 eq {RG} if
       counttomark 4 eq {K} if
       cleartomark } def

/w {setlinewidth} def
/j {setlinejoin} def
/J {setlinecap} def
/M {setmiterlimit} def
/d {setdash} def
/i {setflat} def

/W {clip} def
/W* {eoclip} def

% Setup the default graphics state.
% (black; 1 pt. linewidth; miter join; butt-ends; solid)
/defaultGraphicsState {0 g 1 w 0 j 0 J [] 0 d} def

% Emulation of the rectangle operators for PostScript implementations
% which do not implement all Level 2 features.  This is an INCOMPLETE
% emulation; only the "x y width height rect..." form is emulated.
/*rf {gsave newpath re fill grestore} def
/*rs {gsave newpath re stroke grestore} def
/*rc {newpath re clip} def
/rf  /rectfill where {pop /rectfill}{/*rf} ifelse load def
/rs  /rectstroke where {pop /rectstroke}{/*rs} ifelse load def
/rc  /rectclip where {pop /rectclip}{/*rc} ifelse load def

% Emulation of the selectfont operator.  This includes a 20% increase in
% the fontsize which is necessary to get sizes similar to the Java fonts.
/*sf {exch findfont exch
      dup type /arraytype eq {makefont}{scalefont} ifelse setfont} bind def
/sf /selectfont where {pop {1.2 mul selectfont}}{{1.2 mul *sf}} ifelse def

% Special version of stroke which allows the dash pattern to continue
% across path segments.  (This may be needed for PostScript although
% modern printers seem to do this correctly.)
/vg&stroke {
  currentdash pop length 0 eq
  {stroke}
  {
    currentdash /vg&doffset exch def pop
    flattenpath
    {m vg&resetdash}
    {2 copy
     currentpoint
     3 -1 roll sub dup mul
     3 1 roll sub dup mul
     add sqrt
     3 1 roll l
     currentdash 3 -1 roll add setdash}
     {}
     {h vg&resetdash}
     pathforall
     stroke
     vg&resetdash
  } ifelse
} def
/vg&resetdash {currentdash pop vg&doffset setdash} def

% Initialize variables for safety.
/delta 0 def
/xv 0 def  /yv 0 def  /width 0 def  /height 0 def

% Initialize to portrait INTERNATIONAL (Letter-height, A4-width) page.
/pw 595 def  /ph 791  def  /po true def /ftp false def

% Initialize margins to 20 points.
/ml 20 def  /mr 20 def  /mt 20 def  /mb 20 def

% Temporary matrices.
/smatrix 0 def  /nmatrix 0 def

% set page size (usage: <page width><page height> setpagesize)
/setpagesize {/ph exch def /pw exch def} def

% set page orientation (usage: portrait or landscape)
/portrait {/po true def} def
/landscape {/po false def} def

% force natural size for image (usage: naturalsize)
/naturalsize {/ftp false def} def

% resize image to fill page (usage: fittopage)
/fittopage {/ftp true def} def

% set margins of the page (usage: <left><bottom><top><right> setmargins)
/setmargins {/mr exch def /mt exch def /mb exch def /ml exch def} def

% set the graphic's size (usage: <width><height> setsize)
/setsize {/gh exch def /gw exch def} def

% set the graphic's origin (usage: <x0><y0> setorigin)
/setorigin {/gy exch def /gx exch def} def

% calculate image center
/imagecenter {pw ml sub mr sub 2 div ml add
              ph mt sub mb sub 2 div mb add} def

% calculate the necessary scaling
/imagescale {po {gw}{gh} ifelse pw ml sub mr sub div
             po {gh}{gw} ifelse ph mt sub mb sub div
             2 copy lt {exch} if pop
             ftp not {1 2 copy lt {exch} if pop} if
             1 exch div /sfactor exch def
             /gw gw sfactor mul def /gh gh sfactor mul def} def

% calculate image origin
/imageorigin {pw ml sub mr sub 2 div ml add
              po {gw}{gh} ifelse 2 div sub
              ph mt sub mb sub 2 div mb add
              po {gh}{gw} ifelse 2 div po {add}{sub} ifelse} def

% calculate the clipping origin
/cliporigin  {pw ml sub mr sub 2 div ml add
              po {gw}{gh} ifelse 2 div sub floor
              ph mt sub mb sub 2 div mb add
              po {gh}{gw} ifelse 2 div sub floor} def

% Set the clipping region to the bounding box.
/cliptobounds {cliporigin po {gw}{gh} ifelse 1 add
                          po {gh}{gw} ifelse 1 add rc} def

% set the base transformation matrix (usage: setbasematrix)
/setbasematrix {imageorigin translate
                po {0}{90} ifelse rotate
                sfactor sfactor neg scale
                /defaultmatrix matrix currentmatrix def} def

% The lower-right bias in drawing 1 pt. wide lines.
/bias  {q 0.5 0.5 translate} def
/unbias {Q} def

% Define the composite fonts used to print Unicode strings.
% Undefine particular values in an encoding array.
/vg&undef { {exch dup 3 -1 roll /.notdef put} forall } def
/vg&redef { {3 -1 roll dup 4 2 roll put} forall } def

% usage: key encoding basefontname vg&newbasefont font
/vg&newbasefont {
findfont dup length dict copy
  begin
    currentdict /FID undef
    /Encoding exch def
    dup /FontName exch def
    currentdict
  end
definefont
} def

% usage: key encoding basefontname vg&newskewedbasefont font
/vg&newskewedbasefont {
findfont dup length dict copy
  begin
    currentdict /FID undef
    /Encoding exch def
    dup /FontName exch def
    exch FontMatrix exch matrix concatmatrix /FontMatrix exch def
    currentdict
  end
definefont
} def

% usage: basekey suffix vg&nconcat name
/vg&nconcat {
  2 {dup length string cvs exch} repeat
  dup length 3 -1 roll dup length 3 -1 roll add string
  dup 0 4 -1 roll dup length 5 1 roll putinterval
  dup 4 -2 roll exch putinterval cvn
} def

%usage: fontname vg&skewmatrix matrix
/vg&skewmatrix {
findfont dup /FontInfo known
  {
    /FontInfo get dup /ItalicAngle known
    {
      [ 1 0 4 -1 roll /ItalicAngle get neg dup sin exch cos div 1 0 0 ]
    }
    {pop matrix} ifelse
  }
  {pop matrix} ifelse
} def

% usage: newfontname basefontname vg&newcompositefont --
/vg&newcompositefont {
/vg&fstyle exch def
/vg&bfont exch def
/vg&fname exch def
<<
/FontStyleBits vg&fstyle
/FontType 0
/FontMatrix matrix
/FontName vg&fname
/FMapType 2
/Encoding [ 0 1 255 {pop 6} for ]
          dup 16#00 0 put % Latin
          dup 16#03 1 put % Greek
          dup 16#20 2 put % Punctuation
          dup 16#21 3 put % Arrows
          dup 16#22 4 put % MathOps
          dup 16#27 5 put % Dingbats

/FDepVector [
vg&bfont /-UC-Latin vg&nconcat UCLatinEncoding
vg&bfont vg&newbasefont

vg&bfont vg&skewmatrix
vg&bfont /-UC-Greek vg&nconcat UCGreekEncoding
/Symbol vg&newskewedbasefont

vg&bfont /-UC-Punctuation vg&nconcat UCPunctuationEncoding
vg&bfont vg&newbasefont

/Arrows-UC findfont
/MathOps-UC findfont
/Dingbats-UC findfont
/Undefined-UC findfont ]
>>
vg&fname exch definefont pop
} def

% Null encoding vector (all elements set to .notdef)
/NullEncoding [ 256 {/.notdef} repeat ] def

% Unicode Latin encoding (unicode codes \u0000-\u00ff)
/UCLatinEncoding
  ISOLatin1Encoding dup length array copy
  dup 16#60 /grave put
  [ 16#90 16#91 16#92 16#93 16#94 16#95 16#96
    16#97 16#98 16#9a 16#9b 16#9d 16#9e 16#9f
  ] vg&undef
  def

% Unicode Greek encoding (unicode codes \u0370-\u03ff)
/UCGreekEncoding
  NullEncoding dup length array copy
  << 16#91 /Alpha    16#92 /Beta      16#93 /Gamma    16#94 /Delta
     16#95 /Epsilon  16#96 /Zeta      16#97 /Eta      16#98 /Theta
     16#99 /Iota     16#9a /Kappa     16#9b /Lambda   16#9c /Mu
     16#9d /Nu       16#9e /Xi        16#9f /Omicron  16#a0 /Pi
     16#a1 /Rho      16#a3 /Sigma     16#a4 /Tau      16#a5 /Upsilon
     16#a6 /Phi      16#a7 /Chi       16#a8 /Psi      16#a9 /Omega
     16#b1 /alpha    16#b2 /beta      16#b3 /gamma    16#b4 /delta
     16#b5 /epsilon  16#b6 /zeta      16#b7 /eta      16#b8 /theta
     16#b9 /iota     16#ba /kappa     16#bb /lambda   16#bc /mu
     16#bd /nu       16#be /xi        16#bf /omicron  16#c0 /pi
     16#c1 /rho      16#c2 /sigma1    16#c3 /sigma    16#c4 /tau
     16#c5 /upsilon  16#c6 /phi1      16#c7 /chi      16#c8 /psi
     16#c9 /omega    16#7e /semicolon 16#87 /dotmath  16#d1 /theta1
     16#d2 /Upsilon1 16#d5 /phi       16#d6 /omega1
  >> vg&redef
  def

% Unicode punctuation encoding (unicode codes \u2000-\u206f)
/UCPunctuationEncoding
  NullEncoding dup length array copy
  << 16#10 /hyphen          16#11 /hyphen              16#12 /endash
     16#13 /emdash          16#18 /quoteleft           16#19 /quoteright
     16#1a /quotesinglbase  16#1b /quotesingle         16#1c /quotedblleft
     16#1d /quotedblright   16#1e /quotedblbase        16#1f /quotedbl
     16#20 /dagger          16#21 /daggerdbl           16#22 /bullet
     16#24 /period          16#26 /ellipsis            16#27 /periodcentered
     16#30 /perthousand     16#44 /fraction
     16#70 /zerosuperior    16#74 /foursuperior        16#75 /fivesuperior
     16#76 /sixsuperior     16#77 /sevensuperior       16#78 /eightsuperior
     16#79 /ninesuperior    16#7b /hyphensuperior      16#7d /parenleftsuperior
     16#7e /parenrightsuperior
     16#80 /zeroinferior    16#84 /fourinferior        16#85 /fiveinferior
     16#81 /oneinferior     16#82 /twoinferior         16#83 /threeinferior
     16#86 /sixinferior     16#87 /seveninferior       16#88 /eightinferior
     16#89 /nineinferior    16#8b /hypheninferior      16#8d /parenleftinferior
     16#8e /parenrightinferior
  >> vg&redef
  def

% Unicode mathematical operators encoding (unicode codes \u2200-\u22ff)
/UCMathOpsEncoding
  NullEncoding dup length array copy
  << 16#00 /universal       16#02 /partialdiff         16#03 /existential
     16#05 /emptyset        16#06 /Delta               16#07 /gradient
     16#08 /element         16#09 /notelement          16#0b /suchthat
     16#0f /product         16#11 /summation           16#12 /minus
     16#15 /fraction        16#17 /asteriskmath        16#19 /bullet
     16#1a /radical         16#1d /proportional        16#1e /infinity
     16#20 /angle           16#23 /bar                 16#27 /logicaland
     16#28 /logicalor       16#29 /intersection        16#2a /union
     16#2b /integral        16#34 /therefore           16#36 /colon
     16#3c /similar         16#45 /congruent           16#48 /approxequal
     16#60 /notequal        16#61 /equivalence         16#64 /lessequal
     16#65 /greaterequal    16#82 /propersubset        16#83 /propersuperset
     16#86 /reflexsubset    16#87 /reflexsuperset      16#95 /circleplus
     16#97 /circlemultiply  16#a5 /perpendicular       16#03 /existential
     16#c0 /logicaland      16#c1 /logicalor           16#c2 /intersection
     16#c3 /union           16#c4 /diamond             16#c5 /dotmath
  >> vg&redef
  def

% Unicode arrows encoding (unicode codes \u2190-\u21ff)
% Also includes those "Letterlike" unicode characters
% which are available in the symbol font. (unicode codes \u2100-\u214f)
/UCArrowsEncoding
  NullEncoding dup length array copy
  << 16#11 /Ifraktur        16#1c /Rfraktur            16#22 /trademarkserif
     16#35 /aleph
     16#90 /arrowleft       16#91 /arrowup             16#92 /arrowright
     16#93 /arrowdown       16#94 /arrowboth           16#d0 /arrowdblleft
     16#d1 /arrowdblup      16#d2 /arrowdblright       16#d3 /arrowdbldown
     16#d4 /arrowdblboth
  >> vg&redef
  def

/ZapfDingbats findfont /Encoding get
dup length array copy /UCDingbatsEncoding exch def
16#20 1 16#7f {
  dup 16#20 sub exch
  UCDingbatsEncoding exch get
  UCDingbatsEncoding 3 1 roll put
} for
16#a0 1 16#ff {
  dup 16#40 sub exch
  UCDingbatsEncoding exch get
  UCDingbatsEncoding 3 1 roll put
} for
UCDingbatsEncoding [ 16#c0 1 16#ff {} for ] vg&undef
[ 16#00  16#05 16#0a 16#0b  16#28 16#4c 16#4e  16#53 16#54 16#55  16#57 16#5f
  16#60  16#68 16#69 16#6a  16#6b 16#6c 16#6d  16#6e 16#6f 16#70  16#71 16#72
  16#73  16#74 16#75 16#95  16#96 16#97 16#b0  16#bf
] vg&undef pop

% Define the base fonts which don't change.
/Undefined-UC NullEncoding       /Helvetica    vg&newbasefont pop
/MathOps-UC   UCMathOpsEncoding  /Symbol       vg&newbasefont pop
/Arrows-UC    UCArrowsEncoding   /Symbol       vg&newbasefont pop
/Dingbats-UC  UCDingbatsEncoding /ZapfDingbats vg&newbasefont pop

% Make the SansSerif composite fonts.
/SansSerif /Helvetica 16#00 vg&newcompositefont
/SansSerif-Bold /Helvetica-Bold 16#01 vg&newcompositefont
/SansSerif-Italic /Helvetica-Oblique 16#02 vg&newcompositefont
/SansSerif-BoldItalic /Helvetica-BoldOblique 16#03 vg&newcompositefont

% Make the Serif composite fonts.
/Serif /Times-Roman 16#00 vg&newcompositefont
/Serif-Bold /Times-Bold 16#01 vg&newcompositefont
/Serif-Italic /Times-Italic 16#02 vg&newcompositefont
/Serif-BoldItalic /Times-BoldItalic 16#03 vg&newcompositefont

% Make the Monospaced composite fonts.
/Monospaced /Courier 16#00 vg&newcompositefont
/Monospaced-Bold /Courier-Bold 16#01 vg&newcompositefont
/Monospaced-Italic /Courier-Oblique 16#02 vg&newcompositefont
/Monospaced-BoldItalic /Courier-BoldOblique 16#03 vg&newcompositefont

% Make the Dialog composite fonts.
/Dialog /Helvetica 16#00 vg&newcompositefont
/Dialog-Bold /Helvetica-Bold 16#01 vg&newcompositefont
/Dialog-Italic /Helvetica-Oblique 16#02 vg&newcompositefont
/Dialog-BoldItalic /Helvetica-BoldOblique 16#03 vg&newcompositefont

% Make the DialogInput composite fonts.
/DialogInput /Courier 16#00 vg&newcompositefont
/DialogInput-Bold /Courier-Bold 16#01 vg&newcompositefont
/DialogInput-Italic /Courier-Oblique 16#02 vg&newcompositefont
/DialogInput-BoldItalic /Courier-BoldOblique 16#03 vg&newcompositefont

% Make the Typewriter composite fonts (JDK 1.1 only).
/Typewriter /Courier 16#00 vg&newcompositefont
/Typewriter-Bold /Courier-Bold 16#01 vg&newcompositefont
/Typewriter-Italic /Courier-Oblique 16#02 vg&newcompositefont
/Typewriter-BoldItalic /Courier-BoldOblique 16#03 vg&newcompositefont


/cfontH {
 dup /fontsize exch def /SansSerif exch sf
 /vg&fontstyles [{cfontH} {cfontHB} {cfontHI} {cfontHBI}] def
} def
/cfontHB {
  dup /fontsize exch def /SansSerif-Bold exch sf
 /vg&fontstyles [{cfontH} {cfontHB} {cfontHI} {cfontHBI}] def
} def
/cfontHI {
 dup /fontsize exch def /SansSerif-Italic exch sf
 /vg&fontstyles [{cfontH} {cfontHB} {cfontHI} {cfontHBI}] def
} def
/cfontHBI {
 dup /fontsize exch def /SansSerif-BoldItalic exch sf
 /vg&fontstyles [{cfontH} {cfontHB} {cfontHI} {cfontHBI}] def
} def

/cfontT {
 dup /fontsize exch def /Serif exch sf
 /vg&fontstyles [{cfontT} {cfontTB} {cfontTI} {cfontTBI}] def
} def
/cfontTB {
 dup /fontsize exch def /Serif-Bold exch sf
 /vg&fontstyles [{cfontT} {cfontTB} {cfontTI} {cfontTBI}] def
} def
/cfontTI {
 dup /fontsize exch def /Serif-Italic exch sf
 /vg&fontstyles [{cfontT} {cfontTB} {cfontTI} {cfontTBI}] def
} def
/cfontTBI {
 dup /fontsize exch def /Serif-BoldItalic exch sf
 /vg&fontstyles [{cfontT} {cfontTB} {cfontTI} {cfontTBI}] def
} def

/cfontC {
 dup /fontsize exch def /Typewriter exch sf
 /vg&fontstyles [{cfontC} {cfontCB} {cfontCI} {cfontCBI}] def
} def
/cfontCB {
 dup /fontsize exch def /Typewriter-Bold exch sf
 /vg&fontstyles [{cfontC} {cfontCB} {cfontCI} {cfontCBI}] def
} def
/cfontCI {
 dup /fontsize exch def /Typewriter-Italic exch sf
 /vg&fontstyles [{cfontC} {cfontCB} {cfontCI} {cfontCBI}] def
} def
/cfontCBI {
 dup /fontsize exch def /Typewriter-BoldItalic exch sf
 /vg&fontstyles [{cfontC} {cfontCB} {cfontCI} {cfontCBI}] def
} def

% Darken or lighten the current color.
/darken {0.7 exch exp 3 copy
         q 4 -1 roll vg&C
         currentrgbcolor 3 {4 -2 roll mul} repeat
         3 array astore Q} def

/displayColorMap
<< /Cr   [1.00 0.00 0.00]       /Cg     [0.00 1.00 0.00]
   /Cb   [0.00 0.00 1.00]       /Cc     [1.00 0.00 0.00 0.00]
   /Cm   [0.00 1.00 0.00 0.00]  /Cy     [0.00 0.00 1.00 0.00]
   /Co   [1.00 0.78 0.00]       /Cp     [1.00 0.67 0.67]
   /Cw   [1   ]                 /Cgrl   [0.75]
   /Cgr  [0.50]                 /Cgrd   [0.25]
   /Ck   [0   ]
   /CGr  [1.00 0.00 0.00]       /CGg    [0.00 1.00 0.00]
   /CGb  [0.00 0.00 1.00]       /CGc    [1.00 0.00 0.00 0.00]
   /CGm  [0.00 1.00 0.00 0.00]  /CGy    [0.00 0.00 1.00 0.00]
   /CGo  [1.00 0.78 0.00]       /CGp    [1.00 0.67 0.67]
   /CGw  [1   ]                 /CGgrl  [0.75]
   /CGgr [0.50]                 /CGgrd  [0.25]
   /CGk  [0   ]
   /CIr  [1.00 0.00 0.00]       /CIg    [0.00 1.00 0.00]
   /CIb  [0.00 0.00 1.00]       /CIc    [1.00 0.00 0.00 0.00]
   /CIm  [0.00 1.00 0.00 0.00]  /CIy    [0.00 0.00 1.00 0.00]
   /CIo  [1.00 0.78 0.00]       /CIp    [1.00 0.67 0.67]
   /CIw  [1   ]                 /CIgrl  [0.75]
   /CIgr [0.50]                 /CIgrd  [0.25]
   /CIk  [0   ]
>> def

/printColorMap
<< /Cr   [1.00 0.33 0.33]       /Cg     [0.33 1.00 0.33]
   /Cb   [0.33 0.33 1.00]       /Cc     [1.00 0.00 0.00 0.00]
   /Cm   [0.00 1.00 0.00 0.00]  /Cy     [0.00 0.00 1.00 0.00]
   /Co   [1.00 0.78 0.00]       /Cp     [1.00 0.67 0.67]
   /Cw   [1   ]                 /Cgrl   [0.75]
   /Cgr  [0.50]                 /Cgrd   [0.25]
   /Ck   [0   ]
   /CGr  [1.00 0.33 0.33]       /CGg    [0.33 1.00 0.33]
   /CGb  [0.33 0.33 1.00]       /CGc    [1.00 0.00 0.00 0.00]
   /CGm  [0.00 1.00 0.00 0.00]  /CGy    [0.00 0.00 1.00 0.00]
   /CGo  [1.00 0.78 0.00]       /CGp    [1.00 0.67 0.67]
   /CGw  [1   ]                 /CGgrl  [0.75]
   /CGgr [0.50]                 /CGgrd  [0.25]
   /CGk  [0   ]
   /CIr  [1.00 0.33 0.33]       /CIg    [0.33 1.00 0.33]
   /CIb  [0.33 0.33 1.00]       /CIc    [1.00 0.00 0.00 0.00]
   /CIm  [0.00 1.00 0.00 0.00]  /CIy    [0.00 0.00 1.00 0.00]
   /CIo  [1.00 0.78 0.00]       /CIp    [1.00 0.67 0.67]
   /CIw  [1   ]                 /CIgrl  [0.75]
   /CIgr [0.50]                 /CIgrd  [0.25]
   /CIk  [0   ]
>> def

/grayColorMap
<< /Cr   [0   ]                 /Cg     [0   ]
   /Cb   [0   ]                 /Cc     [0   ]
   /Cm   [0   ]                 /Cy     [0   ]
   /Co   [0   ]                 /Cp     [0   ]
   /Cw   [0   ]                 /Cgrl   [0   ]
   /Cgr  [0   ]                 /Cgrd   [0   ]
   /Ck   [0   ]
   /CGr  [0.75]                 /CGg    [1   ]
   /CGb  [0.50]                 /CGc    [0.75]
   /CGm  [0.50]                 /CGy    [1   ]
   /CGo  [0.75]                 /CGp    [1   ]
   /CGw  [0   ]                 /CGgrl  [0.25]
   /CGgr [0.50]                 /CGgrd  [0.75]
   /CGk  [1   ]
   /CIr  [1   ]                 /CIg    [1   ]
   /CIb  [1   ]                 /CIc    [1   ]
   /CIm  [1   ]                 /CIy    [1   ]
   /CIo  [1   ]                 /CIp    [1   ]
   /CIw  [1   ]                 /CIgrl  [1   ]
   /CIgr [1   ]                 /CIgrd  [1   ]
   /CIk  [1   ]
>> def

/bwColorMap
<< /Cr   [0   ]                 /Cg     [0   ]
   /Cb   [0   ]                 /Cc     [0   ]
   /Cm   [0   ]                 /Cy     [0   ]
   /Co   [0   ]                 /Cp     [0   ]
   /Cw   [0   ]                 /Cgrl   [0   ]
   /Cgr  [0   ]                 /Cgrd   [0   ]
   /Ck   [0   ]
   /CGr  [1   ]                 /CGg    [1   ]
   /CGb  [1   ]                 /CGc    [1   ]
   /CGm  [1   ]                 /CGy    [1   ]
   /CGo  [1   ]                 /CGp    [1   ]
   /CGw  [0   ]                 /CGgrl  [1   ]
   /CGgr [1   ]                 /CGgrd  [1   ]
   /CGk  [1   ]
   /CIr  [1   ]                 /CIg    [1   ]
   /CIb  [1   ]                 /CIc    [1   ]
   /CIm  [1   ]                 /CIy    [1   ]
   /CIo  [1   ]                 /CIp    [1   ]
   /CIw  [1   ]                 /CIgrl  [1   ]
   /CIgr [1   ]                 /CIgrd  [1   ]
   /CIk  [1   ]
>> def

%
% The following routines handle the alignment of and printing of
% tagged strings.
%

% Predefine the bounding box values.
/bbllx 0 def /bblly 0 def /bburx 0 def /bbury 0 def

% This routine pops the first unicode character off of a string and returns
% the remainder of the string, the character code of first character,
% and a "true" if the string was non-zero length.
% <string>      popfirst <remaining string> <true>
% <null string> popfirst <false>
/popfirst {
  dup length 1 gt
    {dup 0 get /vg&fbyte exch def
     dup 1 get /vg&cbyte exch def
     dup length 2 sub 2 exch getinterval true}
    {pop false} ifelse
} def

% This routine shows a single unicode character given the font and
% character codes.
% <font code> <char code> unicharshow --
/unicharshow {
  2 string
  dup 0 5 -1 roll put
  dup 1 4 -1 roll put
  internalshow
} def

% This is an internal routine to alternate between determining the
% bounding box for stringsize and showing the string for recshow.
% <string> internalshow --
/internalshow {show} def

% This is an internal routine to alternate between determining the
% bounding box for stringsize and stroking various ornaments.
% <string> internalstroke --
/internalstroke {S} def

% Sets up internalshow to use the null device to determine string size.
% -- nullinternalshow --
/nullinternalshow {/internalshow {false charpath flattenpath
                                  pathbbox updatebbox} def} def

% Sets up internalstroke to use the null device to determine string size.
% -- nullinternalstroke --
/nullinternalstroke {
 /internalstroke {flattenpath pathbbox updatebbox} def} def

% This routine tests to see if the character code matches the first
% character of a string.
% <char code> <string> testchar <char code> <true or false>
/testchar {exch dup 3 -1 roll 0 get eq} def

% Raise the text baseline for superscripts.
% -- raise --
/raise {
  0 fontsize 2 div rmoveto
  /fontsize fontsize 2 mul 3 div def
  currentfont /FontName get fontsize sf
} def

% Un-raise the text baseline for superscripts.
% -- unraise --
/unraise {
  /fontsize fontsize 1.5 mul def
  0 fontsize 2 div neg rmoveto
} def

% Lower the text baseline for subscripts.
% -- lower --
/lower {
  0 fontsize 3 div neg rmoveto
  /fontsize fontsize 2 mul 3 div def
  currentfont /FontName get fontsize sf
} def

% Un-lower the text baseline for subscripts.
% -- unlower --
/unlower {
  /fontsize fontsize 1.5 mul def
  0 fontsize 3 div rmoveto
} def

% Compare the top two elements on the stack and leave only the
% larger one.
/maxval {2 copy gt {pop} {exch pop} ifelse} def

% Tokenize a string.  Do not use the usual PostScript token because
% parentheses will not be interpreted correctly because of rescanning
% of the string.
/vg&token {/vg&string exch def /vg&index -1 def /vg&level 0 def
0 2 vg&string length 2 sub {
  dup dup 1 add exch vg&string exch get 8 bitshift vg&string 3 -1 roll get or
  dup 16#f0fe eq {pop 1}{16#f0ff eq {-1}{0} ifelse} ifelse
  /vg&level exch vg&level add def
  vg&level 0 eq {/vg&index exch def exit} if pop
} for
vg&index 0 ge {
  vg&string vg&index 2 add dup vg&string length exch sub getinterval
  vg&index 2 gt {vg&string 2 vg&index 2 sub getinterval}{()} ifelse
  true}
{false} ifelse
} bind def

% Recursively show an unicode string.
% <string> recshow --
/recshow {
  popfirst
  {
    % Test to see if this is a string attribute.
    vg&fbyte 16#f0 and 16#e0 eq
    {
      q

      % Font style.
      currentfont dup /FontStyleBits known {/FontStyleBits get}{pop 0} ifelse
      vg&cbyte or vg&fontstyles exch get fontsize exch exec

      vg&token pop recshow currentpoint Q m recshow
    }
    {
      vg&fbyte 16#F8 and 16#F0 eq {

        % Superscript and/or subscript.
        vg&cbyte 16#00 eq {
          vg&token pop exch vg&token pop 3 -1 roll
          q raise recshow unraise currentpoint pop Q exch
          q lower recshow unlower currentpoint pop Q
          maxval currentpoint exch pop m recshow } if

        % Strikeout.
        vg&cbyte 16#01 eq {
          vg&token pop currentpoint 3 -1 roll recshow
          q 0 J vg&underline vg&uthick w
          currentpoint 4 -2 roll fontsize 3 div add moveto
          fontsize 3 div add lineto internalstroke Q
          recshow} if

        % Underline.
        vg&cbyte 16#02 eq {
          vg&token pop currentpoint 3 -1 roll recshow
          q 0 J vg&underline vg&uthick w
          currentpoint 4 -2 roll vg&uoffset add moveto
          vg&uoffset add lineto internalstroke Q
          recshow} if

        % Dashed underline.
        vg&cbyte 16#03 eq {
          vg&token pop currentpoint 3 -1 roll recshow
          q 0 J [ vg&uthick 5 mul vg&uthick 2 mul] 0 d
          vg&underline vg&uthick w
          currentpoint 4 -2 roll vg&uoffset add moveto
          vg&uoffset add lineto internalstroke Q
          recshow} if

        % Dotted underline.
        vg&cbyte 16#04 eq {
          vg&token pop currentpoint 3 -1 roll recshow
          q 1 J [ 0 vg&uthick 3 mul] 0 d
          vg&underline vg&uthick w
          currentpoint 4 -2 roll vg&uoffset add moveto
          vg&uoffset add lineto internalstroke Q
          recshow} if

        % Thick underline.
        vg&cbyte 16#05 eq {
          vg&token pop currentpoint 3 -1 roll recshow
          q 0 J vg&underline vg&uthick 2 mul w
          currentpoint 4 -2 roll vg&uoffset vg&uthick 2 div sub add moveto
          vg&uoffset vg&uthick 2 div sub add lineto internalstroke Q
          recshow} if

        % Gray thick underline.
        vg&cbyte 16#06 eq {
          vg&token pop currentpoint 3 -1 roll recshow
          q 0 J vg&underline vg&uthick 2 mul w 0.5 setgray
          currentpoint 4 -2 roll vg&uoffset vg&uthick 2 div sub add moveto
          vg&uoffset vg&uthick 2 div sub add lineto internalstroke Q
          recshow} if

        % Overbar.
        vg&cbyte 16#07 eq {
          vg&token pop dup stringsize relative 4 1 roll pop pop exch
          3 -1 roll recshow
          q 0 J vg&underline vg&uthick w
          vg&uoffset neg add dup currentpoint pop exch m l internalstroke Q
          recshow} if
      }
      {
        vg&fbyte vg&cbyte unicharshow recshow
      } ifelse
    } ifelse
  } if
} def

% Get the underline position and thickness from the current font.
/vg&underline {

currentfont dup /FontType get 0 eq {/FDepVector get 0 get} if
dup dup /FontInfo known {
  /FontInfo get dup
  dup /UnderlinePosition known {
    /UnderlinePosition get /vg&uoffset exch def
  }
  {
    pop /vg&uoffset 0 def
  } ifelse
  dup /UnderlineThickness known {
    /UnderlineThickness get /vg&uthick exch def
  }
  {
    pop /vg&uthick 0 def
  } ifelse
}
{
  pop /vg&uoffset 0 def /vg&uthick 0 def
} ifelse
/FontMatrix get
currentfont dup /FontType get 0 eq
{/FontMatrix get matrix concatmatrix}{pop} ifelse
dup 0 vg&uoffset 3 -1 roll transform /vg&uoffset exch def pop
0 vg&uthick 3 -1 roll transform /vg&uthick exch def pop
} def

% Make a frame with the coordinates on the stack.
% <llx> <lly> <urx> <ury> frame --
/frame {4 copy m 3 1 roll exch l 4 -2 roll l l h} def

% Resets the accumulated bounding box to a degenerate box at the
% current point.
% -- resetbbox --
/resetbbox {
  currentpoint 2 copy
  /bbury exch def
  /bburx exch def
  /bblly exch def
  /bbllx exch def
} def

% Update the accumulated bounding box.
% <llx'> <lly'> <urx'> <ury'> updatebbox --
/updatebbox {
  dup bbury gt {/bbury exch def} {pop} ifelse
  dup bburx gt {/bburx exch def} {pop} ifelse
  dup bblly lt {/bblly exch def} {pop} ifelse
  dup bbllx lt {/bbllx exch def} {pop} ifelse
} def

% Set the bounding box to the values on the stack.
% <llx'> <lly'> <urx'> <ury'> updatebbox --
/restorebbox {
  /bbury exch def /bburx exch def /bblly exch def /bbllx exch def
} def

% Push the accumulated bounding box onto the stack.
% -- pushbbox <llx> <lly> <urx> <ury>
/pushbbox {bbllx bblly bburx bbury} def

% Make the relative bounding box relative to the currentpoint.
% <llx'> <lly'> <urx'> <ury'> inflate <llx> <lly> <urx> <ury>
/inflate {
  2 {fontsize 0.2 mul add 4 1 roll} repeat
  2 {fontsize 0.2 mul sub 4 1 roll} repeat
} def

% Make the relative bounding box relative to the currentpoint.
% <llx'> <lly'> <urx'> <ury'> relative <llx> <lly> <urx> <ury>
/relative {
  currentpoint 3 -1 roll add 3 1 roll add exch 4 2 roll
  currentpoint 3 -1 roll add 3 1 roll add exch 4 2 roll
} def

% Returns the size of a string appropriate for recshow.
% <string> stringsize <llx> <lly> <urx> <ury>
/stringsize {
  pushbbox /internalshow load /internalstroke load 7 -1 roll
  q
  nulldevice 0 0 m
  nullinternalshow nullinternalstroke
  resetbbox
  recshow
  /internalstroke exch def /internalshow exch def
  pushbbox 8 -4 roll restorebbox
  Q
} def

% Calculate values for string positioning.
/calcval {4 copy
  3 -1 roll sub /widy exch def sub neg /widx exch def
  pop pop /dy exch def /dx exch def} def

% Utilities to position a string.
% First letter (U=upper, C=center, B=baseline, L=lower)
% Second letter (L=left, C=center, R=right)
/align [
{calcval dx neg widy dy add neg rmoveto} % UL
{calcval dx neg widy 2 div dy add neg rmoveto} % CL
{calcval dx neg 0 rmoveto} % BL
{calcval dx neg dy neg rmoveto} % LL
{calcval widx dx add neg widy dy add neg rmoveto} % UR
{calcval widx dx add neg widy 2 div dy add neg rmoveto} % CR
{calcval widx dx add neg 0 rmoveto} % BR
{calcval widx dx add neg dy neg rmoveto} % LR
{calcval widx 2 div dx add neg widy dy add neg rmoveto} % UC
{calcval widx 2 div dx add neg widy 2 div dy add neg rmoveto} % CC
{calcval widx 2 div dx add neg 0 rmoveto} % BC
{calcval widx 2 div dx add neg dy neg rmoveto} % LC
] def

/vg&str {m q 1 -1 scale dup stringsize 4 copy align 11 -1 roll get exec
         q inflate relative frame exch exec Q recshow Q} def

end /procDict exch def
%%EndProlog

%%BeginSetup
save
procDict begin
printColorMap begin
422 286 setpagesize
0 0 0 0 setmargins
0 0 setorigin
422 286 setsize
naturalsize
portrait
imagescale
cliptobounds
setbasematrix
/Helvetica 10 sf
defaultGraphicsState
%%EndSetup

0.00000 0.00000 0.00000 RG
[ 1.00000 0.00000 0.00000 1.00000 0.00000 0.00000 ] defaultmatrix matrix concatmatrix setmatrix
cliprestore
1.00000 1.00000 1.00000 RG
newpath
0.00000 0.00000 m
422.000 0.00000 l
422.000 286.000 l
0.00000 286.000 l
0.00000 0.00000 l
h
f
0.00000 0.00000 0.00000 RG
0.00000 0.00000 0.00000 RG
[ 1.00000 0.00000 0.00000 1.00000 0.00000 0.00000 ] defaultmatrix matrix concatmatrix setmatrix
cliprestore
1.00000 1.00000 1.00000 RG
newpath
0.00000 0.00000 m
422.000 0.00000 l
422.000 286.000 l
0.00000 286.000 l
0.00000 0.00000 l
h
f
0.00000 0.00000 0.00000 RG
0 0 422 286 rc
q
[ 1.00000 0.00000 0.00000 1.00000 0.00000 0.00000 ] concat
[ 1.00000 0.00000 0.00000 1.00000 -67.0000 -137.000 ] concat
1.00000 1.00000 1.00000 RG
newpath
67.0000 137.000 m
489.000 137.000 l
489.000 423.000 l
67.0000 423.000 l
67.0000 137.000 l
h
f
0.00000 0.00000 0.00000 RG
[ 1.00000 0.00000 0.00000 1.00000 -67.0000 -137.000 ] defaultmatrix matrix concatmatrix setmatrix
[ 1.00000 0.00000 0.00000 1.00000 -67.0000 -137.000 ] defaultmatrix matrix concatmatrix setmatrix
[ 1.00000 0.00000 0.00000 1.00000 0.00000 0.00000 ] defaultmatrix matrix concatmatrix setmatrix
[ 1.00000 0.00000 0.00000 1.00000 -67.0000 -137.000 ] defaultmatrix matrix concatmatrix setmatrix
1.00000 1.00000 1.00000 RG
newpath
90.0000 324.000 m
240.000 324.000 l
240.000 339.000 l
90.0000 339.000 l
90.0000 324.000 l
h
f
0 J
1.45000 M
0.00000 0.00000 0.00000 RG
newpath
90.0000 324.000 m
240.000 324.000 l
240.000 339.000 l
90.0000 339.000 l
90.0000 324.000 l
h
S
2 J
10.0000 M
1.00000 1.00000 1.00000 RG
newpath
90.0000 310.500 m
240.000 310.500 l
240.000 325.500 l
90.0000 325.500 l
90.0000 310.500 l
h
f
0 J
1.45000 M
0.00000 0.00000 0.00000 RG
newpath
90.0000 310.500 m
240.000 310.500 l
240.000 325.500 l
90.0000 325.500 l
90.0000 310.500 l
h
S
2 J
10.0000 M
1.00000 1.00000 1.00000 RG
newpath
90.0000 242.000 m
240.000 242.000 l
240.000 312.000 l
90.0000 312.000 l
90.0000 242.000 l
h
f
0 J
1.45000 M
0.00000 0.00000 0.00000 RG
newpath
90.0000 242.000 m
240.000 242.000 l
240.000 312.000 l
90.0000 312.000 l
90.0000 242.000 l
h
S
2 J
10.0000 M
1.00000 1.00000 1.00000 RG
newpath
90.0000 227.500 m
240.000 227.500 l
240.000 242.500 l
90.0000 242.500 l
90.0000 227.500 l
h
f
0 J
1.45000 M
0.00000 0.00000 0.00000 RG
newpath
90.0000 227.500 m
240.000 227.500 l
240.000 242.500 l
90.0000 242.500 l
90.0000 227.500 l
h
S
2 J
10.0000 M
1.00000 1.00000 1.00000 RG
newpath
90.0000 213.000 m
240.000 213.000 l
240.000 228.000 l
90.0000 228.000 l
90.0000 213.000 l
h
f
0 J
1.45000 M
0.00000 0.00000 0.00000 RG
newpath
90.0000 213.000 m
240.000 213.000 l
240.000 228.000 l
90.0000 228.000 l
90.0000 213.000 l
h
S
2 J
10.0000 M
1.00000 1.00000 1.00000 RG
newpath
307.000 329.000 m
340.000 329.000 l
340.000 335.000 l
307.000 335.000 l
307.000 329.000 l
h
f
0 J
1.45000 M
newpath
307.000 329.000 m
340.000 329.000 l
340.000 335.000 l
307.000 335.000 l
307.000 329.000 l
h
S
2 J
10.0000 M
0.00000 0.00000 0.00000 RG
0 J
1.45000 M
newpath
151.961 283.012 m
151.961 283.428 151.867 283.743 151.680 283.957  c
151.492 284.171 151.211 284.277 150.836 284.277  c
150.461 284.277 150.180 284.171 149.992 283.957  c
149.805 283.743 149.711 283.428 149.711 283.012  c
149.711 282.585 149.805 282.277 149.992 282.090  c
150.180 281.902 150.461 281.809 150.836 281.809  c
151.211 281.809 151.492 281.902 151.680 282.090  c
151.867 282.277 151.961 282.585 151.961 283.012  c
h
156.812 283.012 m
156.812 283.428 156.719 283.743 156.531 283.957  c
156.344 284.171 156.062 284.277 155.688 284.277  c
155.312 284.277 155.031 284.171 154.844 283.957  c
154.656 283.743 154.562 283.428 154.562 283.012  c
154.562 282.585 154.656 282.277 154.844 282.090  c
155.031 281.902 155.312 281.809 155.688 281.809  c
156.062 281.809 156.344 281.902 156.531 282.090  c
156.719 282.277 156.812 282.585 156.812 283.012  c
h
161.664 283.012 m
161.664 283.428 161.570 283.743 161.383 283.957  c
161.195 284.171 160.914 284.277 160.539 284.277  c
160.164 284.277 159.883 284.171 159.695 283.957  c
159.508 283.743 159.414 283.428 159.414 283.012  c
159.414 282.585 159.508 282.277 159.695 282.090  c
159.883 281.902 160.164 281.809 160.539 281.809  c
160.914 281.809 161.195 281.902 161.383 282.090  c
161.570 282.277 161.664 282.585 161.664 283.012  c
h
166.516 283.012 m
166.516 283.428 166.422 283.743 166.234 283.957  c
166.047 284.171 165.766 284.277 165.391 284.277  c
165.016 284.277 164.734 284.171 164.547 283.957  c
164.359 283.743 164.266 283.428 164.266 283.012  c
164.266 282.585 164.359 282.277 164.547 282.090  c
164.734 281.902 165.016 281.809 165.391 281.809  c
165.766 281.809 166.047 281.902 166.234 282.090  c
166.422 282.277 166.516 282.585 166.516 283.012  c
h
171.367 283.012 m
171.367 283.428 171.273 283.743 171.086 283.957  c
170.898 284.171 170.617 284.277 170.242 284.277  c
169.867 284.277 169.586 284.171 169.398 283.957  c
169.211 283.743 169.117 283.428 169.117 283.012  c
169.117 282.585 169.211 282.277 169.398 282.090  c
169.586 281.902 169.867 281.809 170.242 281.809  c
170.617 281.809 170.898 281.902 171.086 282.090  c
171.273 282.277 171.367 282.585 171.367 283.012  c
h
176.219 283.012 m
176.219 283.428 176.125 283.743 175.938 283.957  c
175.750 284.171 175.469 284.277 175.094 284.277  c
174.719 284.277 174.438 284.171 174.250 283.957  c
174.062 283.743 173.969 283.428 173.969 283.012  c
173.969 282.585 174.062 282.277 174.250 282.090  c
174.438 281.902 174.719 281.809 175.094 281.809  c
175.469 281.809 175.750 281.902 175.938 282.090  c
176.125 282.277 176.219 282.585 176.219 283.012  c
h
f
2 J
10.0000 M
1.00000 1.00000 1.00000 RG
0.00000 0.00000 0.00000 RG
1.00000 1.00000 1.00000 RG
newpath
90.5000 198.500 m
105.500 198.500 l
105.500 213.500 l
90.5000 213.500 l
90.5000 198.500 l
h
f
0 J
1.45000 M
0.00000 0.00000 0.00000 RG
newpath
90.5000 198.500 m
105.500 198.500 l
105.500 213.500 l
90.5000 213.500 l
90.5000 198.500 l
h
S
2 J
10.0000 M
0.00000 .501961 0.00000 RG
newpath
105.000 199.000 m
120.000 199.000 l
120.000 214.000 l
105.000 214.000 l
105.000 199.000 l
h
f
0 J
1.45000 M
0.00000 0.00000 0.00000 RG
newpath
105.000 199.000 m
120.000 199.000 l
120.000 214.000 l
105.000 214.000 l
105.000 199.000 l
h
S
2 J
10.0000 M
0 J
1.45000 M
newpath
109.945 210.836 m
109.945 209.805 l
110.508 210.180 111.227 210.367 112.102 210.367  c
112.727 210.367 113.203 210.211 113.531 209.898  c
113.859 209.586 114.023 209.133 114.023 208.539  c
114.023 207.945 113.859 207.508 113.531 207.227  c
113.203 206.945 112.695 206.805 112.008 206.805  c
111.664 206.805 111.227 206.852 110.695 206.945  c
110.133 206.617 l
110.461 202.586 l
114.492 202.586 l
114.492 203.570 l
111.398 203.570 l
111.164 206.008 l
111.570 205.945 111.977 205.914 112.383 205.914  c
113.227 205.914 113.898 206.141 114.398 206.594  c
114.898 207.047 115.148 207.648 115.148 208.398  c
115.148 209.305 114.883 210.008 114.352 210.508  c
113.820 211.008 113.055 211.258 112.055 211.258  c
111.180 211.258 110.477 211.117 109.945 210.836  c
h
f
2 J
10.0000 M
1.00000 1.00000 1.00000 RG
newpath
120.500 198.500 m
135.500 198.500 l
135.500 213.500 l
120.500 213.500 l
120.500 198.500 l
h
f
0 J
1.45000 M
0.00000 0.00000 0.00000 RG
newpath
120.500 198.500 m
135.500 198.500 l
135.500 213.500 l
120.500 213.500 l
120.500 198.500 l
h
S
2 J
10.0000 M
1.00000 1.00000 1.00000 RG
newpath
135.000 199.000 m
150.000 199.000 l
150.000 214.000 l
135.000 214.000 l
135.000 199.000 l
h
f
0 J
1.45000 M
0.00000 0.00000 0.00000 RG
newpath
135.000 199.000 m
150.000 199.000 l
150.000 214.000 l
135.000 214.000 l
135.000 199.000 l
h
S
2 J
10.0000 M
1.00000 1.00000 1.00000 RG
newpath
150.500 198.500 m
165.500 198.500 l
165.500 213.500 l
150.500 213.500 l
150.500 198.500 l
h
f
0 J
1.45000 M
0.00000 0.00000 0.00000 RG
newpath
150.500 198.500 m
165.500 198.500 l
165.500 213.500 l
150.500 213.500 l
150.500 198.500 l
h
S
2 J
10.0000 M
0.00000 .501961 0.00000 RG
newpath
165.000 199.000 m
180.000 199.000 l
180.000 214.000 l
165.000 214.000 l
165.000 199.000 l
h
f
0 J
1.45000 M
0.00000 0.00000 0.00000 RG
newpath
165.000 199.000 m
180.000 199.000 l
180.000 214.000 l
165.000 214.000 l
165.000 199.000 l
h
S
2 J
10.0000 M
0 J
1.45000 M
newpath
174.633 202.586 m
174.633 203.477 l
174.352 203.383 174.023 203.336 173.648 203.336  c
171.898 203.336 170.992 204.492 170.930 206.805  c
171.023 206.805 l
171.398 206.148 171.992 205.820 172.805 205.820  c
173.555 205.820 174.148 206.047 174.586 206.500  c
175.023 206.953 175.242 207.586 175.242 208.398  c
175.242 209.305 175.008 210.008 174.539 210.508  c
174.070 211.008 173.445 211.258 172.664 211.258  c
171.820 211.258 171.141 210.938 170.625 210.297  c
170.109 209.656 169.852 208.727 169.852 207.508  c
169.852 205.820 170.164 204.562 170.789 203.734  c
171.414 202.906 172.352 202.492 173.602 202.492  c
174.008 202.492 174.352 202.523 174.633 202.586  c
h
172.664 206.617 m
172.164 206.617 171.750 206.781 171.422 207.109  c
171.094 207.438 170.930 207.805 170.930 208.211  c
170.930 208.836 171.094 209.352 171.422 209.758  c
171.750 210.164 172.164 210.367 172.664 210.367  c
173.164 210.367 173.547 210.203 173.812 209.875  c
174.078 209.547 174.211 209.055 174.211 208.398  c
174.211 207.805 174.086 207.359 173.836 207.062  c
173.586 206.766 173.195 206.617 172.664 206.617  c
h
f
2 J
10.0000 M
1.00000 1.00000 1.00000 RG
newpath
180.500 198.500 m
195.500 198.500 l
195.500 213.500 l
180.500 213.500 l
180.500 198.500 l
h
f
0 J
1.45000 M
0.00000 0.00000 0.00000 RG
newpath
180.500 198.500 m
195.500 198.500 l
195.500 213.500 l
180.500 213.500 l
180.500 198.500 l
h
S
2 J
10.0000 M
1.00000 1.00000 1.00000 RG
newpath
195.000 199.000 m
210.000 199.000 l
210.000 214.000 l
195.000 214.000 l
195.000 199.000 l
h
f
0 J
1.45000 M
0.00000 0.00000 0.00000 RG
newpath
195.000 199.000 m
210.000 199.000 l
210.000 214.000 l
195.000 214.000 l
195.000 199.000 l
h
S
2 J
10.0000 M
1.00000 1.00000 1.00000 RG
newpath
209.500 198.500 m
224.500 198.500 l
224.500 213.500 l
209.500 213.500 l
209.500 198.500 l
h
f
0 J
1.45000 M
0.00000 0.00000 0.00000 RG
newpath
209.500 198.500 m
224.500 198.500 l
224.500 213.500 l
209.500 213.500 l
209.500 198.500 l
h
S
2 J
10.0000 M
0.00000 .501961 0.00000 RG
newpath
224.000 199.000 m
239.000 199.000 l
239.000 214.000 l
224.000 214.000 l
224.000 199.000 l
h
f
0 J
1.45000 M
0.00000 0.00000 0.00000 RG
newpath
224.000 199.000 m
239.000 199.000 l
239.000 214.000 l
224.000 214.000 l
224.000 199.000 l
h
S
2 J
10.0000 M
0 J
1.45000 M
newpath
229.836 211.164 m
233.164 203.570 l
228.711 203.570 l
228.711 202.586 l
234.242 202.586 l
234.242 203.430 l
230.961 211.164 l
229.836 211.164 l
h
f
2 J
10.0000 M
1.00000 1.00000 1.00000 RG
newpath
90.5000 183.500 m
105.500 183.500 l
105.500 198.500 l
90.5000 198.500 l
90.5000 183.500 l
h
f
0 J
1.45000 M
0.00000 0.00000 0.00000 RG
newpath
90.5000 183.500 m
105.500 183.500 l
105.500 198.500 l
90.5000 198.500 l
90.5000 183.500 l
h
S
2 J
10.0000 M
1.00000 .600000 0.00000 RG
newpath
105.000 184.000 m
120.000 184.000 l
120.000 199.000 l
105.000 199.000 l
105.000 184.000 l
h
f
0 J
1.45000 M
0.00000 0.00000 0.00000 RG
newpath
105.000 184.000 m
120.000 184.000 l
120.000 199.000 l
105.000 199.000 l
105.000 184.000 l
h
S
2 J
10.0000 M
0 J
1.45000 M
newpath
113.367 196.164 m
112.336 196.164 l
112.336 190.820 l
112.336 190.070 112.352 189.367 112.383 188.711  c
110.789 190.070 l
110.227 189.367 l
112.477 187.586 l
113.367 187.586 l
113.367 196.164 l
h
f
2 J
10.0000 M
1.00000 .600000 0.00000 RG
newpath
150.500 183.500 m
165.500 183.500 l
165.500 198.500 l
150.500 198.500 l
150.500 183.500 l
h
f
0 J
1.45000 M
0.00000 0.00000 0.00000 RG
newpath
150.500 183.500 m
165.500 183.500 l
165.500 198.500 l
150.500 198.500 l
150.500 183.500 l
h
S
2 J
10.0000 M
0 J
1.45000 M
newpath
160.602 195.664 m
155.258 195.664 l
155.258 194.727 l
157.320 192.523 l
158.164 191.617 158.688 190.961 158.891 190.555  c
159.094 190.148 159.195 189.727 159.195 189.289  c
159.195 188.852 159.070 188.508 158.820 188.258  c
158.570 188.008 158.227 187.883 157.789 187.883  c
157.164 187.883 156.555 188.148 155.961 188.680  c
155.352 187.977 l
156.102 187.320 156.930 186.992 157.836 186.992  c
158.586 186.992 159.180 187.195 159.617 187.602  c
160.055 188.008 160.273 188.555 160.273 189.242  c
160.273 189.742 160.141 190.242 159.875 190.742  c
159.609 191.242 159.055 191.961 158.211 192.898  c
156.570 194.633 l
156.570 194.680 l
160.602 194.680 l
160.602 195.664 l
h
f
2 J
10.0000 M
1.00000 1.00000 1.00000 RG
newpath
120.000 184.000 m
135.000 184.000 l
135.000 199.000 l
120.000 199.000 l
120.000 184.000 l
h
f
0 J
1.45000 M
0.00000 0.00000 0.00000 RG
newpath
120.000 184.000 m
135.000 184.000 l
135.000 199.000 l
120.000 199.000 l
120.000 184.000 l
h
S
2 J
10.0000 M
1.00000 1.00000 1.00000 RG
newpath
135.500 183.500 m
150.500 183.500 l
150.500 198.500 l
135.500 198.500 l
135.500 183.500 l
h
f
0 J
1.45000 M
0.00000 0.00000 0.00000 RG
newpath
135.500 183.500 m
150.500 183.500 l
150.500 198.500 l
135.500 198.500 l
135.500 183.500 l
h
S
2 J
10.0000 M
1.00000 1.00000 1.00000 RG
newpath
165.000 184.000 m
180.000 184.000 l
180.000 199.000 l
165.000 199.000 l
165.000 184.000 l
h
f
0 J
1.45000 M
0.00000 0.00000 0.00000 RG
newpath
165.000 184.000 m
180.000 184.000 l
180.000 199.000 l
165.000 199.000 l
165.000 184.000 l
h
S
2 J
10.0000 M
1.00000 .600000 0.00000 RG
newpath
180.500 183.500 m
195.500 183.500 l
195.500 198.500 l
180.500 198.500 l
180.500 183.500 l
h
f
0 J
1.45000 M
0.00000 0.00000 0.00000 RG
newpath
180.500 183.500 m
195.500 183.500 l
195.500 198.500 l
180.500 198.500 l
180.500 183.500 l
h
S
2 J
10.0000 M
0 J
1.45000 M
newpath
188.492 191.164 m
189.898 191.352 190.602 192.039 190.602 193.227  c
190.602 194.008 190.336 194.625 189.805 195.078  c
189.273 195.531 188.492 195.758 187.461 195.758  c
186.492 195.758 185.727 195.617 185.164 195.336  c
185.164 194.305 l
185.883 194.680 186.633 194.867 187.414 194.867  c
188.102 194.867 188.617 194.727 188.961 194.445  c
189.305 194.164 189.477 193.742 189.477 193.180  c
189.477 192.680 189.297 192.305 188.938 192.055  c
188.578 191.805 188.023 191.680 187.273 191.680  c
186.477 191.680 l
186.477 190.789 l
187.273 190.789 l
187.898 190.789 188.383 190.641 188.727 190.344  c
189.070 190.047 189.242 189.648 189.242 189.148  c
189.242 188.773 189.109 188.469 188.844 188.234  c
188.578 188.000 188.227 187.883 187.789 187.883  c
187.070 187.883 186.398 188.117 185.773 188.586  c
185.211 187.836 l
185.930 187.273 186.789 186.992 187.789 186.992  c
188.602 186.992 189.227 187.188 189.664 187.578  c
190.102 187.969 190.320 188.477 190.320 189.102  c
190.320 190.227 189.711 190.914 188.492 191.164  c
h
f
2 J
10.0000 M
1.00000 1.00000 1.00000 RG
newpath
195.000 184.000 m
210.000 184.000 l
210.000 199.000 l
195.000 199.000 l
195.000 184.000 l
h
f
0 J
1.45000 M
0.00000 0.00000 0.00000 RG
newpath
195.000 184.000 m
210.000 184.000 l
210.000 199.000 l
195.000 199.000 l
195.000 184.000 l
h
S
2 J
10.0000 M
1.00000 1.00000 1.00000 RG
newpath
209.500 183.500 m
224.500 183.500 l
224.500 198.500 l
209.500 198.500 l
209.500 183.500 l
h
f
0 J
1.45000 M
0.00000 0.00000 0.00000 RG
newpath
209.500 183.500 m
224.500 183.500 l
224.500 198.500 l
209.500 198.500 l
209.500 183.500 l
h
S
2 J
10.0000 M
1.00000 .600000 0.00000 RG
newpath
224.000 184.000 m
239.000 184.000 l
239.000 199.000 l
224.000 199.000 l
224.000 184.000 l
h
f
0 J
1.45000 M
0.00000 0.00000 0.00000 RG
newpath
224.000 184.000 m
239.000 184.000 l
239.000 199.000 l
224.000 199.000 l
224.000 184.000 l
h
S
2 J
10.0000 M
0 J
1.45000 M
newpath
234.570 194.242 m
233.305 194.242 l
233.305 196.164 l
232.273 196.164 l
232.273 194.242 l
228.336 194.242 l
228.336 193.305 l
232.227 187.539 l
233.305 187.539 l
233.305 193.258 l
234.570 193.258 l
234.570 194.242 l
h
232.273 193.258 m
232.273 191.195 l
232.273 190.508 232.305 189.664 232.367 188.664  c
232.320 188.664 l
232.164 189.070 231.992 189.414 231.805 189.695  c
229.367 193.258 l
232.273 193.258 l
h
f
2 J
10.0000 M
1.00000 .600000 0.00000 RG
newpath
292.000 181.500 m
307.000 181.500 l
307.000 196.500 l
292.000 196.500 l
292.000 181.500 l
h
f
0 J
1.45000 M
0.00000 0.00000 0.00000 RG
newpath
292.000 181.500 m
307.000 181.500 l
307.000 196.500 l
292.000 196.500 l
292.000 181.500 l
h
S
2 J
10.0000 M
0 J
1.45000 M
newpath
300.367 193.664 m
299.336 193.664 l
299.336 188.320 l
299.336 187.570 299.352 186.867 299.383 186.211  c
297.789 187.570 l
297.227 186.867 l
299.477 185.086 l
300.367 185.086 l
300.367 193.664 l
h
f
2 J
10.0000 M
1.00000 .600000 0.00000 RG
newpath
306.000 182.000 m
321.000 182.000 l
321.000 197.000 l
306.000 197.000 l
306.000 182.000 l
h
f
0 J
1.45000 M
0.00000 0.00000 0.00000 RG
newpath
306.000 182.000 m
321.000 182.000 l
321.000 197.000 l
306.000 197.000 l
306.000 182.000 l
h
S
2 J
10.0000 M
0 J
1.45000 M
newpath
316.102 194.164 m
310.758 194.164 l
310.758 193.227 l
312.820 191.023 l
313.664 190.117 314.188 189.461 314.391 189.055  c
314.594 188.648 314.695 188.227 314.695 187.789  c
314.695 187.352 314.570 187.008 314.320 186.758  c
314.070 186.508 313.727 186.383 313.289 186.383  c
312.664 186.383 312.055 186.648 311.461 187.180  c
310.852 186.477 l
311.602 185.820 312.430 185.492 313.336 185.492  c
314.086 185.492 314.680 185.695 315.117 186.102  c
315.555 186.508 315.773 187.055 315.773 187.742  c
315.773 188.242 315.641 188.742 315.375 189.242  c
315.109 189.742 314.555 190.461 313.711 191.398  c
312.070 193.133 l
312.070 193.180 l
316.102 193.180 l
316.102 194.164 l
h
f
2 J
10.0000 M
1.00000 .600000 0.00000 RG
newpath
321.000 181.500 m
336.000 181.500 l
336.000 196.500 l
321.000 196.500 l
321.000 181.500 l
h
f
0 J
1.45000 M
0.00000 0.00000 0.00000 RG
newpath
321.000 181.500 m
336.000 181.500 l
336.000 196.500 l
321.000 196.500 l
321.000 181.500 l
h
S
2 J
10.0000 M
0 J
1.45000 M
newpath
328.992 189.164 m
330.398 189.352 331.102 190.039 331.102 191.227  c
331.102 192.008 330.836 192.625 330.305 193.078  c
329.773 193.531 328.992 193.758 327.961 193.758  c
326.992 193.758 326.227 193.617 325.664 193.336  c
325.664 192.305 l
326.383 192.680 327.133 192.867 327.914 192.867  c
328.602 192.867 329.117 192.727 329.461 192.445  c
329.805 192.164 329.977 191.742 329.977 191.180  c
329.977 190.680 329.797 190.305 329.438 190.055  c
329.078 189.805 328.523 189.680 327.773 189.680  c
326.977 189.680 l
326.977 188.789 l
327.773 188.789 l
328.398 188.789 328.883 188.641 329.227 188.344  c
329.570 188.047 329.742 187.648 329.742 187.148  c
329.742 186.773 329.609 186.469 329.344 186.234  c
329.078 186.000 328.727 185.883 328.289 185.883  c
327.570 185.883 326.898 186.117 326.273 186.586  c
325.711 185.836 l
326.430 185.273 327.289 184.992 328.289 184.992  c
329.102 184.992 329.727 185.188 330.164 185.578  c
330.602 185.969 330.820 186.477 330.820 187.102  c
330.820 188.227 330.211 188.914 328.992 189.164  c
h
f
2 J
10.0000 M
1.00000 .600000 0.00000 RG
newpath
336.000 182.000 m
351.000 182.000 l
351.000 197.000 l
336.000 197.000 l
336.000 182.000 l
h
f
0 J
1.45000 M
0.00000 0.00000 0.00000 RG
newpath
336.000 182.000 m
351.000 182.000 l
351.000 197.000 l
336.000 197.000 l
336.000 182.000 l
h
S
2 J
10.0000 M
0 J
1.45000 M
newpath
346.570 192.242 m
345.305 192.242 l
345.305 194.164 l
344.273 194.164 l
344.273 192.242 l
340.336 192.242 l
340.336 191.305 l
344.227 185.539 l
345.305 185.539 l
345.305 191.258 l
346.570 191.258 l
346.570 192.242 l
h
344.273 191.258 m
344.273 189.195 l
344.273 188.508 344.305 187.664 344.367 186.664  c
344.320 186.664 l
344.164 187.070 343.992 187.414 343.805 187.695  c
341.367 191.258 l
344.273 191.258 l
h
f
2 J
10.0000 M
0.00000 .501961 0.00000 RG
newpath
292.000 216.000 m
307.000 216.000 l
307.000 231.000 l
292.000 231.000 l
292.000 216.000 l
h
f
0 J
1.45000 M
0.00000 0.00000 0.00000 RG
newpath
292.000 216.000 m
307.000 216.000 l
307.000 231.000 l
292.000 231.000 l
292.000 216.000 l
h
S
2 J
10.0000 M
0 J
1.45000 M
newpath
296.945 227.836 m
296.945 226.805 l
297.508 227.180 298.227 227.367 299.102 227.367  c
299.727 227.367 300.203 227.211 300.531 226.898  c
300.859 226.586 301.023 226.133 301.023 225.539  c
301.023 224.945 300.859 224.508 300.531 224.227  c
300.203 223.945 299.695 223.805 299.008 223.805  c
298.664 223.805 298.227 223.852 297.695 223.945  c
297.133 223.617 l
297.461 219.586 l
301.492 219.586 l
301.492 220.570 l
298.398 220.570 l
298.164 223.008 l
298.570 222.945 298.977 222.914 299.383 222.914  c
300.227 222.914 300.898 223.141 301.398 223.594  c
301.898 224.047 302.148 224.648 302.148 225.398  c
302.148 226.305 301.883 227.008 301.352 227.508  c
300.820 228.008 300.055 228.258 299.055 228.258  c
298.180 228.258 297.477 228.117 296.945 227.836  c
h
f
2 J
10.0000 M
0.00000 .501961 0.00000 RG
newpath
307.000 215.500 m
322.000 215.500 l
322.000 230.500 l
307.000 230.500 l
307.000 215.500 l
h
f
0 J
1.45000 M
0.00000 0.00000 0.00000 RG
newpath
307.000 215.500 m
322.000 215.500 l
322.000 230.500 l
307.000 230.500 l
307.000 215.500 l
h
S
2 J
10.0000 M
0 J
1.45000 M
newpath
316.633 219.086 m
316.633 219.977 l
316.352 219.883 316.023 219.836 315.648 219.836  c
313.898 219.836 312.992 220.992 312.930 223.305  c
313.023 223.305 l
313.398 222.648 313.992 222.320 314.805 222.320  c
315.555 222.320 316.148 222.547 316.586 223.000  c
317.023 223.453 317.242 224.086 317.242 224.898  c
317.242 225.805 317.008 226.508 316.539 227.008  c
316.070 227.508 315.445 227.758 314.664 227.758  c
313.820 227.758 313.141 227.438 312.625 226.797  c
312.109 226.156 311.852 225.227 311.852 224.008  c
311.852 222.320 312.164 221.062 312.789 220.234  c
313.414 219.406 314.352 218.992 315.602 218.992  c
316.008 218.992 316.352 219.023 316.633 219.086  c
h
314.664 223.117 m
314.164 223.117 313.750 223.281 313.422 223.609  c
313.094 223.938 312.930 224.305 312.930 224.711  c
312.930 225.336 313.094 225.852 313.422 226.258  c
313.750 226.664 314.164 226.867 314.664 226.867  c
315.164 226.867 315.547 226.703 315.812 226.375  c
316.078 226.047 316.211 225.555 316.211 224.898  c
316.211 224.305 316.086 223.859 315.836 223.562  c
315.586 223.266 315.195 223.117 314.664 223.117  c
h
f
2 J
10.0000 M
0.00000 .501961 0.00000 RG
newpath
322.000 216.000 m
337.000 216.000 l
337.000 231.000 l
322.000 231.000 l
322.000 216.000 l
h
f
0 J
1.45000 M
0.00000 0.00000 0.00000 RG
newpath
322.000 216.000 m
337.000 216.000 l
337.000 231.000 l
322.000 231.000 l
322.000 216.000 l
h
S
2 J
10.0000 M
0 J
1.45000 M
newpath
327.836 228.164 m
331.164 220.570 l
326.711 220.570 l
326.711 219.586 l
332.242 219.586 l
332.242 220.430 l
328.961 228.164 l
327.836 228.164 l
h
f
2 J
10.0000 M
1.00000 1.00000 1.00000 RG
newpath
79.5000 265.000 m
79.5000 268.866 77.7091 272.000 75.5000 272.000  c
73.2909 272.000 71.5000 268.866 71.5000 265.000  c
71.5000 261.134 73.2909 258.000 75.5000 258.000  c
77.7091 258.000 79.5000 261.134 79.5000 265.000  c
h
f
0 J
1.45000 M
newpath
79.5000 265.000 m
79.5000 268.866 77.7091 272.000 75.5000 272.000  c
73.2909 272.000 71.5000 268.866 71.5000 265.000  c
71.5000 261.134 73.2909 258.000 75.5000 258.000  c
77.7091 258.000 79.5000 261.134 79.5000 265.000  c
h
S
2 J
10.0000 M
0.00000 0.00000 0.00000 RG
0 J
1.45000 M
newpath
73.5664 266.652 m
73.5664 271.996 l
71.9570 271.996 l
71.9570 259.121 l
75.0508 259.121 l
76.5924 259.121 77.7383 259.426 78.4883 260.035  c
79.2383 260.645 79.6133 261.559 79.6133 262.777  c
79.6133 264.465 78.7695 265.616 77.0820 266.230  c
80.5977 271.996 l
78.7070 271.996 l
75.6133 266.652 l
73.5664 266.652 l
h
73.5664 265.309 m
75.0508 265.309 l
76.0299 265.309 76.7539 265.098 77.2227 264.676  c
77.6914 264.254 77.9258 263.647 77.9258 262.855  c
77.9258 262.053 77.7044 261.465 77.2617 261.090  c
76.8190 260.715 76.0560 260.527 74.9727 260.527  c
73.5664 260.527 l
73.5664 265.309 l
h
f
2 J
10.0000 M
1.00000 1.00000 1.00000 RG
0.00000 0.00000 0.00000 RG
1.00000 1.00000 1.00000 RG
newpath
334.500 363.500 m
334.500 368.747 330.471 373.000 325.500 373.000  c
320.529 373.000 316.500 368.747 316.500 363.500  c
316.500 358.253 320.529 354.000 325.500 354.000  c
330.471 354.000 334.500 358.253 334.500 363.500  c
h
f
0 J
1.45000 M
newpath
334.500 363.500 m
334.500 368.747 330.471 373.000 325.500 373.000  c
320.529 373.000 316.500 368.747 316.500 363.500  c
316.500 358.253 320.529 354.000 325.500 354.000  c
330.471 354.000 334.500 358.253 334.500 363.500  c
h
S
2 J
10.0000 M
0.00000 0.00000 0.00000 RG
0 J
1.45000 M
newpath
314.656 368.971 m
314.656 367.752 l
315.521 368.179 316.323 368.393 317.062 368.393  c
317.646 368.393 318.086 368.294 318.383 368.096  c
318.680 367.898 318.828 367.606 318.828 367.221  c
318.828 366.908 318.719 366.663 318.500 366.486  c
318.281 366.309 317.734 366.015 316.859 365.604  c
315.984 365.192 315.419 364.822 315.164 364.494  c
314.909 364.166 314.781 363.768 314.781 363.299  c
314.781 362.632 315.026 362.104 315.516 361.713  c
316.005 361.322 316.698 361.127 317.594 361.127  c
318.417 361.127 319.219 361.320 320.000 361.705  c
319.531 362.768 l
318.750 362.413 318.083 362.236 317.531 362.236  c
317.062 362.236 316.701 362.314 316.445 362.471  c
316.190 362.627 316.062 362.861 316.062 363.174  c
316.062 363.486 316.161 363.731 316.359 363.908  c
316.557 364.085 317.104 364.369 318.000 364.760  c
318.896 365.150 319.471 365.520 319.727 365.869  c
319.982 366.218 320.109 366.627 320.109 367.096  c
320.109 367.846 319.857 368.426 319.352 368.838  c
318.846 369.249 318.083 369.455 317.062 369.455  c
316.052 369.455 315.250 369.294 314.656 368.971  c
h
324.734 364.049 m
327.266 358.611 l
328.719 358.611 l
325.438 365.174 l
325.438 369.330 l
324.094 369.330 l
324.094 365.221 l
320.812 358.611 l
322.281 358.611 l
324.734 364.049 l
h
333.941 369.330 m
332.645 369.330 l
332.645 362.643 l
332.645 361.705 332.665 360.830 332.707 360.018  c
330.723 361.705 l
330.020 360.830 l
332.832 358.611 l
333.941 358.611 l
333.941 369.330 l
h
f
2 J
10.0000 M
1.00000 1.00000 1.00000 RG
0.00000 0.00000 0.00000 RG
1.00000 1.00000 1.00000 RG
newpath
364.500 294.500 m
364.500 299.194 361.142 303.000 357.000 303.000  c
352.858 303.000 349.500 299.194 349.500 294.500  c
349.500 289.806 352.858 286.000 357.000 286.000  c
361.142 286.000 364.500 289.806 364.500 294.500  c
h
f
0 J
1.45000 M
newpath
364.500 294.500 m
364.500 299.194 361.142 303.000 357.000 303.000  c
352.858 303.000 349.500 299.194 349.500 294.500  c
349.500 289.806 352.858 286.000 357.000 286.000  c
361.142 286.000 364.500 289.806 364.500 294.500  c
h
S
2 J
10.0000 M
0.00000 0.00000 0.00000 RG
0 J
1.45000 M
newpath
393.906 369.721 m
393.906 368.502 l
394.771 368.929 395.573 369.143 396.312 369.143  c
396.896 369.143 397.336 369.044 397.633 368.846  c
397.930 368.648 398.078 368.356 398.078 367.971  c
398.078 367.658 397.969 367.413 397.750 367.236  c
397.531 367.059 396.984 366.765 396.109 366.354  c
395.234 365.942 394.669 365.572 394.414 365.244  c
394.159 364.916 394.031 364.518 394.031 364.049  c
394.031 363.382 394.276 362.854 394.766 362.463  c
395.255 362.072 395.948 361.877 396.844 361.877  c
397.667 361.877 398.469 362.070 399.250 362.455  c
398.781 363.518 l
398.000 363.163 397.333 362.986 396.781 362.986  c
396.312 362.986 395.951 363.064 395.695 363.221  c
395.440 363.377 395.312 363.611 395.312 363.924  c
395.312 364.236 395.411 364.481 395.609 364.658  c
395.807 364.835 396.354 365.119 397.250 365.510  c
398.146 365.900 398.721 366.270 398.977 366.619  c
399.232 366.968 399.359 367.377 399.359 367.846  c
399.359 368.596 399.107 369.176 398.602 369.588  c
398.096 369.999 397.333 370.205 396.312 370.205  c
395.302 370.205 394.500 370.044 393.906 369.721  c
h
403.984 364.799 m
406.516 359.361 l
407.969 359.361 l
404.688 365.924 l
404.688 370.080 l
403.344 370.080 l
403.344 365.971 l
400.062 359.361 l
401.531 359.361 l
403.984 364.799 l
h
415.363 370.080 m
408.676 370.080 l
408.676 368.908 l
411.254 366.158 l
412.306 365.023 412.960 364.200 413.215 363.689  c
413.470 363.179 413.598 362.653 413.598 362.111  c
413.598 361.559 413.441 361.127 413.129 360.814  c
412.816 360.502 412.389 360.346 411.848 360.346  c
411.066 360.346 410.301 360.679 409.551 361.346  c
408.801 360.471 l
409.738 359.648 410.770 359.236 411.895 359.236  c
412.832 359.236 413.574 359.492 414.121 360.002  c
414.668 360.512 414.941 361.195 414.941 362.049  c
414.941 362.674 414.777 363.299 414.449 363.924  c
414.121 364.549 413.426 365.450 412.363 366.627  c
410.316 368.783 l
410.316 368.846 l
415.363 368.846 l
415.363 370.080 l
h
f
2 J
10.0000 M
1.00000 1.00000 1.00000 RG
0.00000 0.00000 0.00000 RG
1.00000 1.00000 1.00000 RG
newpath
488.500 255.000 m
488.500 260.523 486.709 265.000 484.500 265.000  c
482.291 265.000 480.500 260.523 480.500 255.000  c
480.500 249.477 482.291 245.000 484.500 245.000  c
486.709 245.000 488.500 249.477 488.500 255.000  c
h
f
0 J
1.45000 M
newpath
488.500 255.000 m
488.500 260.523 486.709 265.000 484.500 265.000  c
482.291 265.000 480.500 260.523 480.500 255.000  c
480.500 249.477 482.291 245.000 484.500 245.000  c
486.709 245.000 488.500 249.477 488.500 255.000  c
h
S
2 J
10.0000 M
0.00000 0.00000 0.00000 RG
0 J
1.45000 M
newpath
78.6719 189.918 m
78.6719 192.887 l
77.7812 192.887 l
77.7812 185.730 l
79.5000 185.730 l
80.3542 185.730 80.9896 185.900 81.4062 186.238  c
81.8229 186.577 82.0312 187.085 82.0312 187.762  c
82.0312 188.699 81.5625 189.340 80.6250 189.684  c
82.5781 192.887 l
81.5312 192.887 l
79.8125 189.918 l
78.6719 189.918 l
h
78.6719 189.168 m
79.5000 189.168 l
80.0417 189.168 80.4427 189.051 80.7031 188.816  c
80.9635 188.582 81.0938 188.246 81.0938 187.809  c
81.0938 187.361 80.9714 187.033 80.7266 186.824  c
80.4818 186.616 80.0573 186.512 79.4531 186.512  c
78.6719 186.512 l
78.6719 189.168 l
h
83.1641 189.293 m
83.1641 188.064 83.3542 187.145 83.7344 186.535  c
84.1146 185.926 84.6797 185.621 85.4297 185.621  c
86.2109 185.621 86.7917 185.926 87.1719 186.535  c
87.5521 187.145 87.7422 188.064 87.7422 189.293  c
87.7422 190.512 87.5521 191.428 87.1719 192.043  c
86.7917 192.658 86.2109 192.965 85.4297 192.965  c
84.6797 192.965 84.1146 192.658 83.7344 192.043  c
83.3542 191.428 83.1641 190.512 83.1641 189.293  c
h
86.8359 189.293 m
86.8359 188.199 86.7135 187.444 86.4688 187.027  c
86.2240 186.611 85.8776 186.402 85.4297 186.402  c
85.0130 186.402 84.6823 186.603 84.4375 187.004  c
84.1927 187.405 84.0703 188.168 84.0703 189.293  c
84.0703 190.439 84.1927 191.212 84.4375 191.613  c
84.6823 192.014 85.0130 192.215 85.4297 192.215  c
85.8776 192.215 86.2240 192.007 86.4688 191.590  c
86.7135 191.173 86.8359 190.408 86.8359 189.293  c
h
f
2 J
10.0000 M
1.00000 1.00000 1.00000 RG
0.00000 0.00000 0.00000 RG
1.00000 1.00000 1.00000 RG
newpath
409.500 311.500 m
409.500 315.090 407.485 318.000 405.000 318.000  c
402.515 318.000 400.500 315.090 400.500 311.500  c
400.500 307.910 402.515 305.000 405.000 305.000  c
407.485 305.000 409.500 307.910 409.500 311.500  c
h
f
0 J
1.45000 M
newpath
409.500 311.500 m
409.500 315.090 407.485 318.000 405.000 318.000  c
402.515 318.000 400.500 315.090 400.500 311.500  c
400.500 307.910 402.515 305.000 405.000 305.000  c
407.485 305.000 409.500 307.910 409.500 311.500  c
h
S
2 J
10.0000 M
0.00000 0.00000 0.00000 RG
0 J
1.45000 M
newpath
78.0547 204.227 m
78.0547 207.195 l
77.1641 207.195 l
77.1641 200.039 l
78.8828 200.039 l
79.7370 200.039 80.3724 200.208 80.7891 200.547  c
81.2057 200.885 81.4141 201.393 81.4141 202.070  c
81.4141 203.008 80.9453 203.648 80.0078 203.992  c
81.9609 207.195 l
80.9141 207.195 l
79.1953 204.227 l
78.0547 204.227 l
h
78.0547 203.477 m
78.8828 203.477 l
79.4245 203.477 79.8255 203.359 80.0859 203.125  c
80.3464 202.891 80.4766 202.555 80.4766 202.117  c
80.4766 201.669 80.3542 201.341 80.1094 201.133  c
79.8646 200.924 79.4401 200.820 78.8359 200.820  c
78.0547 200.820 l
78.0547 203.477 l
h
85.5625 207.195 m
84.7031 207.195 l
84.7031 202.742 l
84.7031 202.117 84.7135 201.529 84.7344 200.977  c
83.4062 202.117 l
82.9375 201.523 l
84.8125 200.039 l
85.5625 200.039 l
85.5625 207.195 l
h
f
2 J
10.0000 M
1.00000 1.00000 1.00000 RG
0.00000 0.00000 0.00000 RG
1.00000 1.00000 1.00000 RG
newpath
93.0000 378.000 m
108.000 378.000 l
108.000 393.000 l
93.0000 393.000 l
93.0000 378.000 l
h
f
0 J
1.45000 M
0.00000 0.00000 0.00000 RG
newpath
93.0000 378.000 m
108.000 378.000 l
108.000 393.000 l
93.0000 393.000 l
93.0000 378.000 l
h
S
2 J
10.0000 M
.600000 .800000 1.00000 RG
newpath
108.500 377.500 m
123.500 377.500 l
123.500 392.500 l
108.500 392.500 l
108.500 377.500 l
h
f
0 J
1.45000 M
0.00000 0.00000 0.00000 RG
newpath
108.500 377.500 m
123.500 377.500 l
123.500 392.500 l
108.500 392.500 l
108.500 377.500 l
h
S
2 J
10.0000 M
1.00000 1.00000 1.00000 RG
newpath
123.000 378.000 m
138.000 378.000 l
138.000 393.000 l
123.000 393.000 l
123.000 378.000 l
h
f
0 J
1.45000 M
0.00000 0.00000 0.00000 RG
newpath
123.000 378.000 m
138.000 378.000 l
138.000 393.000 l
123.000 393.000 l
123.000 378.000 l
h
S
2 J
10.0000 M
1.00000 1.00000 1.00000 RG
newpath
138.500 377.500 m
153.500 377.500 l
153.500 392.500 l
138.500 392.500 l
138.500 377.500 l
h
f
0 J
1.45000 M
0.00000 0.00000 0.00000 RG
newpath
138.500 377.500 m
153.500 377.500 l
153.500 392.500 l
138.500 392.500 l
138.500 377.500 l
h
S
2 J
10.0000 M
1.00000 .600000 0.00000 RG
newpath
153.000 378.000 m
168.000 378.000 l
168.000 393.000 l
153.000 393.000 l
153.000 378.000 l
h
f
0 J
1.45000 M
0.00000 0.00000 0.00000 RG
newpath
153.000 378.000 m
168.000 378.000 l
168.000 393.000 l
153.000 393.000 l
153.000 378.000 l
h
S
2 J
10.0000 M
0.00000 .501961 0.00000 RG
newpath
168.500 377.500 m
183.500 377.500 l
183.500 392.500 l
168.500 392.500 l
168.500 377.500 l
h
f
0 J
1.45000 M
0.00000 0.00000 0.00000 RG
newpath
168.500 377.500 m
183.500 377.500 l
183.500 392.500 l
168.500 392.500 l
168.500 377.500 l
h
S
2 J
10.0000 M
1.00000 .600000 0.00000 RG
newpath
183.000 378.000 m
198.000 378.000 l
198.000 393.000 l
183.000 393.000 l
183.000 378.000 l
h
f
0 J
1.45000 M
0.00000 0.00000 0.00000 RG
newpath
183.000 378.000 m
198.000 378.000 l
198.000 393.000 l
183.000 393.000 l
183.000 378.000 l
h
S
2 J
10.0000 M
1.00000 1.00000 1.00000 RG
newpath
198.500 377.500 m
213.500 377.500 l
213.500 392.500 l
198.500 392.500 l
198.500 377.500 l
h
f
0 J
1.45000 M
0.00000 0.00000 0.00000 RG
newpath
198.500 377.500 m
213.500 377.500 l
213.500 392.500 l
198.500 392.500 l
198.500 377.500 l
h
S
2 J
10.0000 M
1.00000 1.00000 1.00000 RG
newpath
213.000 378.000 m
228.000 378.000 l
228.000 393.000 l
213.000 393.000 l
213.000 378.000 l
h
f
0 J
1.45000 M
0.00000 0.00000 0.00000 RG
newpath
213.000 378.000 m
228.000 378.000 l
228.000 393.000 l
213.000 393.000 l
213.000 378.000 l
h
S
2 J
10.0000 M
.600000 .800000 1.00000 RG
newpath
228.500 377.500 m
243.500 377.500 l
243.500 392.500 l
228.500 392.500 l
228.500 377.500 l
h
f
0 J
1.45000 M
0.00000 0.00000 0.00000 RG
newpath
228.500 377.500 m
243.500 377.500 l
243.500 392.500 l
228.500 392.500 l
228.500 377.500 l
h
S
2 J
10.0000 M
1.00000 1.00000 1.00000 RG
newpath
93.0000 393.000 m
108.000 393.000 l
108.000 408.000 l
93.0000 408.000 l
93.0000 393.000 l
h
f
0 J
1.45000 M
0.00000 0.00000 0.00000 RG
newpath
93.0000 393.000 m
108.000 393.000 l
108.000 408.000 l
93.0000 408.000 l
93.0000 393.000 l
h
S
2 J
10.0000 M
.600000 .800000 1.00000 RG
newpath
108.500 392.500 m
123.500 392.500 l
123.500 407.500 l
108.500 407.500 l
108.500 392.500 l
h
f
0 J
1.45000 M
0.00000 0.00000 0.00000 RG
newpath
108.500 392.500 m
123.500 392.500 l
123.500 407.500 l
108.500 407.500 l
108.500 392.500 l
h
S
2 J
10.0000 M
1.00000 1.00000 1.00000 RG
newpath
123.000 393.000 m
138.000 393.000 l
138.000 408.000 l
123.000 408.000 l
123.000 393.000 l
h
f
0 J
1.45000 M
0.00000 0.00000 0.00000 RG
newpath
123.000 393.000 m
138.000 393.000 l
138.000 408.000 l
123.000 408.000 l
123.000 393.000 l
h
S
2 J
10.0000 M
1.00000 1.00000 1.00000 RG
newpath
138.500 392.500 m
153.500 392.500 l
153.500 407.500 l
138.500 407.500 l
138.500 392.500 l
h
f
0 J
1.45000 M
0.00000 0.00000 0.00000 RG
newpath
138.500 392.500 m
153.500 392.500 l
153.500 407.500 l
138.500 407.500 l
138.500 392.500 l
h
S
2 J
10.0000 M
1.00000 .600000 0.00000 RG
newpath
153.000 393.000 m
168.000 393.000 l
168.000 408.000 l
153.000 408.000 l
153.000 393.000 l
h
f
0 J
1.45000 M
0.00000 0.00000 0.00000 RG
newpath
153.000 393.000 m
168.000 393.000 l
168.000 408.000 l
153.000 408.000 l
153.000 393.000 l
h
S
2 J
10.0000 M
0.00000 .501961 0.00000 RG
newpath
168.500 392.500 m
183.500 392.500 l
183.500 407.500 l
168.500 407.500 l
168.500 392.500 l
h
f
0 J
1.45000 M
0.00000 0.00000 0.00000 RG
newpath
168.500 392.500 m
183.500 392.500 l
183.500 407.500 l
168.500 407.500 l
168.500 392.500 l
h
S
2 J
10.0000 M
1.00000 .600000 0.00000 RG
newpath
183.000 392.500 m
198.000 392.500 l
198.000 407.500 l
183.000 407.500 l
183.000 392.500 l
h
f
0 J
1.45000 M
0.00000 0.00000 0.00000 RG
newpath
183.000 392.500 m
198.000 392.500 l
198.000 407.500 l
183.000 407.500 l
183.000 392.500 l
h
S
2 J
10.0000 M
1.00000 1.00000 1.00000 RG
newpath
198.500 392.500 m
213.500 392.500 l
213.500 407.500 l
198.500 407.500 l
198.500 392.500 l
h
f
0 J
1.45000 M
0.00000 0.00000 0.00000 RG
newpath
198.500 392.500 m
213.500 392.500 l
213.500 407.500 l
198.500 407.500 l
198.500 392.500 l
h
S
2 J
10.0000 M
1.00000 1.00000 1.00000 RG
newpath
213.000 392.500 m
228.000 392.500 l
228.000 407.500 l
213.000 407.500 l
213.000 392.500 l
h
f
0 J
1.45000 M
0.00000 0.00000 0.00000 RG
newpath
213.000 392.500 m
228.000 392.500 l
228.000 407.500 l
213.000 407.500 l
213.000 392.500 l
h
S
2 J
10.0000 M
.600000 .800000 1.00000 RG
newpath
228.500 392.500 m
243.500 392.500 l
243.500 407.500 l
228.500 407.500 l
228.500 392.500 l
h
f
0 J
1.45000 M
0.00000 0.00000 0.00000 RG
newpath
228.500 392.500 m
243.500 392.500 l
243.500 407.500 l
228.500 407.500 l
228.500 392.500 l
h
S
2 J
10.0000 M
1.00000 1.00000 1.00000 RG
newpath
93.0000 407.500 m
108.000 407.500 l
108.000 422.500 l
93.0000 422.500 l
93.0000 407.500 l
h
f
0 J
1.45000 M
0.00000 0.00000 0.00000 RG
newpath
93.0000 407.500 m
108.000 407.500 l
108.000 422.500 l
93.0000 422.500 l
93.0000 407.500 l
h
S
2 J
10.0000 M
.600000 .800000 1.00000 RG
newpath
108.500 407.500 m
123.500 407.500 l
123.500 422.500 l
108.500 422.500 l
108.500 407.500 l
h
f
0 J
1.45000 M
0.00000 0.00000 0.00000 RG
newpath
108.500 407.500 m
123.500 407.500 l
123.500 422.500 l
108.500 422.500 l
108.500 407.500 l
h
S
2 J
10.0000 M
1.00000 1.00000 1.00000 RG
newpath
123.000 407.500 m
138.000 407.500 l
138.000 422.500 l
123.000 422.500 l
123.000 407.500 l
h
f
0 J
1.45000 M
0.00000 0.00000 0.00000 RG
newpath
123.000 407.500 m
138.000 407.500 l
138.000 422.500 l
123.000 422.500 l
123.000 407.500 l
h
S
2 J
10.0000 M
1.00000 1.00000 1.00000 RG
newpath
138.500 407.500 m
153.500 407.500 l
153.500 422.500 l
138.500 422.500 l
138.500 407.500 l
h
f
0 J
1.45000 M
0.00000 0.00000 0.00000 RG
newpath
138.500 407.500 m
153.500 407.500 l
153.500 422.500 l
138.500 422.500 l
138.500 407.500 l
h
S
2 J
10.0000 M
1.00000 .600000 0.00000 RG
newpath
153.000 407.500 m
168.000 407.500 l
168.000 422.500 l
153.000 422.500 l
153.000 407.500 l
h
f
0 J
1.45000 M
0.00000 0.00000 0.00000 RG
newpath
153.000 407.500 m
168.000 407.500 l
168.000 422.500 l
153.000 422.500 l
153.000 407.500 l
h
S
2 J
10.0000 M
0.00000 .501961 0.00000 RG
newpath
168.500 407.500 m
183.500 407.500 l
183.500 422.500 l
168.500 422.500 l
168.500 407.500 l
h
f
0 J
1.45000 M
0.00000 0.00000 0.00000 RG
newpath
168.500 407.500 m
183.500 407.500 l
183.500 422.500 l
168.500 422.500 l
168.500 407.500 l
h
S
2 J
10.0000 M
1.00000 .600000 0.00000 RG
newpath
183.000 407.500 m
198.000 407.500 l
198.000 422.500 l
183.000 422.500 l
183.000 407.500 l
h
f
0 J
1.45000 M
0.00000 0.00000 0.00000 RG
newpath
183.000 407.500 m
198.000 407.500 l
198.000 422.500 l
183.000 422.500 l
183.000 407.500 l
h
S
2 J
10.0000 M
1.00000 1.00000 1.00000 RG
newpath
198.500 407.500 m
213.500 407.500 l
213.500 422.500 l
198.500 422.500 l
198.500 407.500 l
h
f
0 J
1.45000 M
0.00000 0.00000 0.00000 RG
newpath
198.500 407.500 m
213.500 407.500 l
213.500 422.500 l
198.500 422.500 l
198.500 407.500 l
h
S
2 J
10.0000 M
1.00000 1.00000 1.00000 RG
newpath
213.000 407.500 m
228.000 407.500 l
228.000 422.500 l
213.000 422.500 l
213.000 407.500 l
h
f
0 J
1.45000 M
0.00000 0.00000 0.00000 RG
newpath
213.000 407.500 m
228.000 407.500 l
228.000 422.500 l
213.000 422.500 l
213.000 407.500 l
h
S
2 J
10.0000 M
.600000 .800000 1.00000 RG
newpath
228.750 407.750 m
243.750 407.750 l
243.750 422.750 l
228.750 422.750 l
228.750 407.750 l
h
f
0 J
1.45000 M
0.00000 0.00000 0.00000 RG
newpath
228.750 407.750 m
243.750 407.750 l
243.750 422.750 l
228.750 422.750 l
228.750 407.750 l
h
S
2 J
10.0000 M
1.00000 1.00000 1.00000 RG
newpath
83.7500 395.250 m
83.7500 400.773 80.1683 405.250 75.7500 405.250  c
71.3317 405.250 67.7500 400.773 67.7500 395.250  c
67.7500 389.727 71.3317 385.250 75.7500 385.250  c
80.1683 385.250 83.7500 389.727 83.7500 395.250  c
h
f
0 J
1.45000 M
newpath
83.7500 395.250 m
83.7500 400.773 80.1683 405.250 75.7500 405.250  c
71.3317 405.250 67.7500 400.773 67.7500 395.250  c
67.7500 389.727 71.3317 385.250 75.7500 385.250  c
80.1683 385.250 83.7500 389.727 83.7500 395.250  c
h
S
2 J
10.0000 M
0.00000 0.00000 0.00000 RG
0 J
1.45000 M
newpath
75.7227 395.918 m
78.7383 389.371 l
80.5039 389.371 l
76.5664 397.246 l
76.5664 402.246 l
74.9414 402.246 l
74.9414 397.324 l
71.0039 389.371 l
72.7695 389.371 l
75.7227 395.918 l
h
f
2 J
10.0000 M
1.00000 1.00000 1.00000 RG
0.00000 0.00000 0.00000 RG
.600000 .800000 1.00000 RG
newpath
294.000 377.000 m
309.000 377.000 l
309.000 392.000 l
294.000 392.000 l
294.000 377.000 l
h
f
0 J
1.45000 M
0.00000 0.00000 0.00000 RG
newpath
294.000 377.000 m
309.000 377.000 l
309.000 392.000 l
294.000 392.000 l
294.000 377.000 l
h
S
2 J
10.0000 M
.600000 .800000 1.00000 RG
newpath
294.500 391.500 m
309.500 391.500 l
309.500 406.500 l
294.500 406.500 l
294.500 391.500 l
h
f
0 J
1.45000 M
0.00000 0.00000 0.00000 RG
newpath
294.500 391.500 m
309.500 391.500 l
309.500 406.500 l
294.500 406.500 l
294.500 391.500 l
h
S
2 J
10.0000 M
.600000 .800000 1.00000 RG
newpath
294.000 407.000 m
309.000 407.000 l
309.000 422.000 l
294.000 422.000 l
294.000 407.000 l
h
f
0 J
1.45000 M
0.00000 0.00000 0.00000 RG
newpath
294.000 407.000 m
309.000 407.000 l
309.000 422.000 l
294.000 422.000 l
294.000 407.000 l
h
S
2 J
10.0000 M
1.00000 .600000 0.00000 RG
newpath
309.000 377.000 m
324.000 377.000 l
324.000 392.000 l
309.000 392.000 l
309.000 377.000 l
h
f
0 J
1.45000 M
0.00000 0.00000 0.00000 RG
newpath
309.000 377.000 m
324.000 377.000 l
324.000 392.000 l
309.000 392.000 l
309.000 377.000 l
h
S
2 J
10.0000 M
1.00000 .600000 0.00000 RG
newpath
309.000 392.000 m
324.000 392.000 l
324.000 407.000 l
309.000 407.000 l
309.000 392.000 l
h
f
0 J
1.45000 M
0.00000 0.00000 0.00000 RG
newpath
309.000 392.000 m
324.000 392.000 l
324.000 407.000 l
309.000 407.000 l
309.000 392.000 l
h
S
2 J
10.0000 M
1.00000 .600000 0.00000 RG
newpath
309.000 407.000 m
324.000 407.000 l
324.000 422.000 l
309.000 422.000 l
309.000 407.000 l
h
f
0 J
1.45000 M
0.00000 0.00000 0.00000 RG
newpath
309.000 407.000 m
324.000 407.000 l
324.000 422.000 l
309.000 422.000 l
309.000 407.000 l
h
S
2 J
10.0000 M
1.00000 .600000 0.00000 RG
newpath
324.000 377.000 m
339.000 377.000 l
339.000 392.000 l
324.000 392.000 l
324.000 377.000 l
h
f
0 J
1.45000 M
0.00000 0.00000 0.00000 RG
newpath
324.000 377.000 m
339.000 377.000 l
339.000 392.000 l
324.000 392.000 l
324.000 377.000 l
h
S
2 J
10.0000 M
1.00000 .600000 0.00000 RG
newpath
324.000 392.000 m
339.000 392.000 l
339.000 407.000 l
324.000 407.000 l
324.000 392.000 l
h
f
0 J
1.45000 M
0.00000 0.00000 0.00000 RG
newpath
324.000 392.000 m
339.000 392.000 l
339.000 407.000 l
324.000 407.000 l
324.000 392.000 l
h
S
2 J
10.0000 M
1.00000 .600000 0.00000 RG
newpath
324.000 407.000 m
339.000 407.000 l
339.000 422.000 l
324.000 422.000 l
324.000 407.000 l
h
f
0 J
1.45000 M
0.00000 0.00000 0.00000 RG
newpath
324.000 407.000 m
339.000 407.000 l
339.000 422.000 l
324.000 422.000 l
324.000 407.000 l
h
S
2 J
10.0000 M
.600000 .800000 1.00000 RG
newpath
339.000 377.000 m
354.000 377.000 l
354.000 392.000 l
339.000 392.000 l
339.000 377.000 l
h
f
0 J
1.45000 M
0.00000 0.00000 0.00000 RG
newpath
339.000 377.000 m
354.000 377.000 l
354.000 392.000 l
339.000 392.000 l
339.000 377.000 l
h
S
2 J
10.0000 M
.600000 .800000 1.00000 RG
newpath
339.500 391.500 m
354.500 391.500 l
354.500 406.500 l
339.500 406.500 l
339.500 391.500 l
h
f
0 J
1.45000 M
0.00000 0.00000 0.00000 RG
newpath
339.500 391.500 m
354.500 391.500 l
354.500 406.500 l
339.500 406.500 l
339.500 391.500 l
h
S
2 J
10.0000 M
.600000 .800000 1.00000 RG
newpath
339.000 407.000 m
354.000 407.000 l
354.000 422.000 l
339.000 422.000 l
339.000 407.000 l
h
f
0 J
1.45000 M
0.00000 0.00000 0.00000 RG
newpath
339.000 407.000 m
354.000 407.000 l
354.000 422.000 l
339.000 422.000 l
339.000 407.000 l
h
S
2 J
10.0000 M
.600000 .800000 1.00000 RG
newpath
379.000 376.000 m
394.000 376.000 l
394.000 391.000 l
379.000 391.000 l
379.000 376.000 l
h
f
0 J
1.45000 M
0.00000 0.00000 0.00000 RG
newpath
379.000 376.000 m
394.000 376.000 l
394.000 391.000 l
379.000 391.000 l
379.000 376.000 l
h
S
2 J
10.0000 M
.600000 .800000 1.00000 RG
newpath
379.000 391.000 m
394.000 391.000 l
394.000 406.000 l
379.000 406.000 l
379.000 391.000 l
h
f
0 J
1.45000 M
0.00000 0.00000 0.00000 RG
newpath
379.000 391.000 m
394.000 391.000 l
394.000 406.000 l
379.000 406.000 l
379.000 391.000 l
h
S
2 J
10.0000 M
.600000 .800000 1.00000 RG
newpath
379.000 406.000 m
394.000 406.000 l
394.000 421.000 l
379.000 421.000 l
379.000 406.000 l
h
f
0 J
1.45000 M
0.00000 0.00000 0.00000 RG
newpath
379.000 406.000 m
394.000 406.000 l
394.000 421.000 l
379.000 421.000 l
379.000 406.000 l
h
S
2 J
10.0000 M
.600000 .800000 1.00000 RG
newpath
409.000 376.000 m
424.000 376.000 l
424.000 391.000 l
409.000 391.000 l
409.000 376.000 l
h
f
0 J
1.45000 M
0.00000 0.00000 0.00000 RG
newpath
409.000 376.000 m
424.000 376.000 l
424.000 391.000 l
409.000 391.000 l
409.000 376.000 l
h
S
2 J
10.0000 M
0.00000 .501961 0.00000 RG
newpath
394.000 376.000 m
409.000 376.000 l
409.000 391.000 l
394.000 391.000 l
394.000 376.000 l
h
f
0 J
1.45000 M
0.00000 0.00000 0.00000 RG
newpath
394.000 376.000 m
409.000 376.000 l
409.000 391.000 l
394.000 391.000 l
394.000 376.000 l
h
S
2 J
10.0000 M
0.00000 .501961 0.00000 RG
newpath
394.500 390.500 m
409.500 390.500 l
409.500 405.500 l
394.500 405.500 l
394.500 390.500 l
h
f
0 J
1.45000 M
0.00000 0.00000 0.00000 RG
newpath
394.500 390.500 m
409.500 390.500 l
409.500 405.500 l
394.500 405.500 l
394.500 390.500 l
h
S
2 J
10.0000 M
0.00000 .501961 0.00000 RG
newpath
394.000 406.000 m
409.000 406.000 l
409.000 421.000 l
394.000 421.000 l
394.000 406.000 l
h
f
0 J
1.45000 M
0.00000 0.00000 0.00000 RG
newpath
394.000 406.000 m
409.000 406.000 l
409.000 421.000 l
394.000 421.000 l
394.000 406.000 l
h
S
2 J
10.0000 M
.600000 .800000 1.00000 RG
newpath
409.000 391.000 m
424.000 391.000 l
424.000 406.000 l
409.000 406.000 l
409.000 391.000 l
h
f
0 J
1.45000 M
0.00000 0.00000 0.00000 RG
newpath
409.000 391.000 m
424.000 391.000 l
424.000 406.000 l
409.000 406.000 l
409.000 391.000 l
h
S
2 J
10.0000 M
.600000 .800000 1.00000 RG
newpath
409.000 406.000 m
424.000 406.000 l
424.000 421.000 l
409.000 421.000 l
409.000 406.000 l
h
f
0 J
1.45000 M
0.00000 0.00000 0.00000 RG
newpath
409.000 406.000 m
424.000 406.000 l
424.000 421.000 l
409.000 421.000 l
409.000 406.000 l
h
S
2 J
10.0000 M
0 J
1.45000 M
[ 6.00000 2.00000 ] 0.00000 d
newpath
232.608 214.000 m
235.304 232.247 l
240.230 254.905 l
246.112 274.445 l
252.781 290.836 l
260.072 304.048 l
267.816 314.052 l
275.848 320.817 l
284.000 324.312 l
292.105 324.510 l
299.996 321.378 l
307.506 314.887 l
314.469 305.008 l
320.716 291.709 l
326.082 274.962 l
330.399 254.735 l
332.464 238.933 l
S
newpath
333.500 231.000 m
326.988 242.251 l
332.334 239.924 l
336.903 243.547 l
h
f
2 J
10.0000 M
[ ] 0.00000 d
0 J
1.45000 M
[ 6.00000 2.00000 ] 0.00000 d
newpath
112.500 183.977 m
118.083 172.653 l
126.318 163.020 l
136.813 155.035 l
149.172 148.654 l
163.002 143.834 l
177.908 140.531 l
193.497 138.703 l
209.375 138.307 l
225.147 139.298 l
240.420 141.635 l
254.799 145.273 l
267.891 150.169 l
279.301 156.281 l
288.635 163.565 l
295.499 171.978 l
296.395 174.104 l
S
newpath
299.500 181.477 m
299.450 168.477 l
296.006 173.182 l
290.234 172.358 l
h
f
2 J
10.0000 M
[ ] 0.00000 d
0 J
1.45000 M
[ 6.00000 2.00000 ] 0.00000 d
newpath
157.000 183.492 m
159.219 173.463 l
164.139 164.584 l
171.399 156.892 l
180.641 150.426 l
191.506 145.223 l
203.635 141.319 l
216.669 138.752 l
230.250 137.561 l
244.018 137.781 l
257.615 139.450 l
270.682 142.606 l
282.859 147.286 l
293.789 153.527 l
303.111 161.367 l
310.468 170.843 l
312.209 174.700 l
S
newpath
315.500 181.992 m
315.121 168.998 l
311.798 173.789 l
306.006 173.111 l
h
f
2 J
10.0000 M
[ ] 0.00000 d
0 J
1.45000 M
[ 6.00000 2.00000 ] 0.00000 d
newpath
188.010 183.476 m
193.062 171.360 l
199.828 161.307 l
208.048 153.237 l
217.469 147.047 l
227.839 142.633 l
238.906 139.890 l
250.419 138.715 l
262.125 139.003 l
273.772 140.651 l
285.109 143.555 l
295.884 147.610 l
305.844 152.713 l
314.737 158.760 l
322.312 165.647 l
328.317 173.269 l
328.868 174.355 l
S
newpath
332.484 181.491 m
331.520 168.527 l
328.416 173.463 l
322.600 173.047 l
h
f
2 J
10.0000 M
[ ] 0.00000 d
0 J
1.45000 M
[ 6.00000 2.00000 ] 0.00000 d
newpath
234.803 184.028 m
237.834 177.172 l
244.764 165.396 l
252.183 156.018 l
259.984 148.883 l
268.061 143.837 l
276.307 140.726 l
284.614 139.395 l
292.875 139.688 l
300.984 141.453 l
308.834 144.534 l
316.318 148.777 l
323.328 154.027 l
335.502 166.930 l
340.383 175.109 l
S
newpath
344.482 181.978 m
342.626 169.112 l
339.870 174.250 l
334.039 174.236 l
h
f
2 J
10.0000 M
[ ] 0.00000 d
0 J
1.45000 M
[ 6.00000 2.00000 ] 0.00000 d
newpath
114.623 214.000 m
119.775 232.203 l
129.025 255.069 l
139.955 275.016 l
152.266 291.961 l
165.660 305.821 l
179.842 316.513 l
194.512 323.954 l
209.375 328.062 l
224.132 328.755 l
238.486 325.948 l
252.140 319.560 l
264.797 309.508 l
276.158 295.708 l
285.928 278.079 l
293.807 256.537 l
297.759 238.808 l
S
newpath
299.500 231.000 m
292.009 241.625 l
297.542 239.784 l
301.769 243.800 l
h
f
2 J
10.0000 M
[ ] 0.00000 d
0 J
1.45000 M
[ 6.00000 2.00000 ] 0.00000 d
newpath
172.889 214.000 m
173.865 232.796 l
178.401 255.971 l
185.648 275.984 l
195.145 292.797 l
206.431 306.370 l
219.045 316.663 l
232.526 323.637 l
246.412 327.252 l
260.244 327.469 l
273.559 324.248 l
285.898 317.550 l
296.798 307.336 l
305.799 293.564 l
312.440 276.197 l
316.261 255.195 l
316.624 238.516 l
S
newpath
316.799 230.518 m
311.538 242.406 l
316.603 239.516 l
321.536 242.624 l
h
f
2 J
10.0000 M
[ ] 0.00000 d
q
4.00000 w
0 J
1.45000 M
.501961 0.00000 0.00000 RG
1.00000 w
newpath
283.255 391.314 m
286.568 397.467 l
286.568 397.467 l
268.939 398.001 l
243.500 398.000 l
243.500 402.000 l
269.000 402.000 l
286.689 401.465 l
286.689 401.465 l
283.755 407.807 l
294.500 399.227 l
283.255 391.314 l
h
S
4.00000 w
Q
Q
[ 1.00000 0.00000 0.00000 1.00000 0.00000 0.00000 ] defaultmatrix matrix concatmatrix setmatrix
cliprestore

%%Trailer
%%EOF
