%!PS-Adobe-2.0 EPSF-2.0
%%Title: results_netflix_model1.eps
%%Creator: gnuplot 4.6 patchlevel 6
%%CreationDate: Thu May 11 21:16:00 2017
%%DocumentFonts: (atend)
%%BoundingBox: 50 50 410 302
%%EndComments
%%BeginProlog
/gnudict 256 dict def
gnudict begin
%
% The following true/false flags may be edited by hand if desired.
% The unit line width and grayscale image gamma correction may also be changed.
%
/Color true def
/Blacktext false def
/Solid true def
/Dashlength 1 def
/Landscape false def
/Level1 false def
/Rounded false def
/ClipToBoundingBox false def
/SuppressPDFMark false def
/TransparentPatterns false def
/gnulinewidth 5.000 def
/userlinewidth gnulinewidth def
/Gamma 1.0 def
/BackgroundColor {-1.000 -1.000 -1.000} def
%
/vshift -73 def
/dl1 {
  10.0 Dashlength mul mul
  Rounded { currentlinewidth 0.75 mul sub dup 0 le { pop 0.01 } if } if
} def
/dl2 {
  10.0 Dashlength mul mul
  Rounded { currentlinewidth 0.75 mul add } if
} def
/hpt_ 31.5 def
/vpt_ 31.5 def
/hpt hpt_ def
/vpt vpt_ def
/doclip {
  ClipToBoundingBox {
    newpath 50 50 moveto 410 50 lineto 410 302 lineto 50 302 lineto closepath
    clip
  } if
} def
%
% Gnuplot Prolog Version 4.6 (September 2012)
%
%/SuppressPDFMark true def
%
/M {moveto} bind def
/L {lineto} bind def
/R {rmoveto} bind def
/V {rlineto} bind def
/N {newpath moveto} bind def
/Z {closepath} bind def
/C {setrgbcolor} bind def
/f {rlineto fill} bind def
/g {setgray} bind def
/Gshow {show} def   % May be redefined later in the file to support UTF-8
/vpt2 vpt 2 mul def
/hpt2 hpt 2 mul def
/Lshow {currentpoint stroke M 0 vshift R 
	Blacktext {gsave 0 setgray show grestore} {show} ifelse} def
/Rshow {currentpoint stroke M dup stringwidth pop neg vshift R
	Blacktext {gsave 0 setgray show grestore} {show} ifelse} def
/Cshow {currentpoint stroke M dup stringwidth pop -2 div vshift R 
	Blacktext {gsave 0 setgray show grestore} {show} ifelse} def
/UP {dup vpt_ mul /vpt exch def hpt_ mul /hpt exch def
  /hpt2 hpt 2 mul def /vpt2 vpt 2 mul def} def
/DL {Color {setrgbcolor Solid {pop []} if 0 setdash}
 {pop pop pop 0 setgray Solid {pop []} if 0 setdash} ifelse} def
/BL {stroke userlinewidth 2 mul setlinewidth
	Rounded {1 setlinejoin 1 setlinecap} if} def
/AL {stroke userlinewidth 2 div setlinewidth
	Rounded {1 setlinejoin 1 setlinecap} if} def
/UL {dup gnulinewidth mul /userlinewidth exch def
	dup 1 lt {pop 1} if 10 mul /udl exch def} def
/PL {stroke userlinewidth setlinewidth
	Rounded {1 setlinejoin 1 setlinecap} if} def
3.8 setmiterlimit
% Default Line colors
/LCw {1 1 1} def
/LCb {0 0 0} def
/LCa {0 0 0} def
/LC0 {1 0 0} def
/LC1 {0 1 0} def
/LC2 {0 0 1} def
/LC3 {1 0 1} def
/LC4 {0 1 1} def
/LC5 {1 1 0} def
/LC6 {0 0 0} def
/LC7 {1 0.3 0} def
/LC8 {0.5 0.5 0.5} def
% Default Line Types
/LTw {PL [] 1 setgray} def
/LTb {BL [] LCb DL} def
/LTa {AL [1 udl mul 2 udl mul] 0 setdash LCa setrgbcolor} def
/LT0 {PL [] LC0 DL} def
/LT1 {PL [4 dl1 2 dl2] LC1 DL} def
/LT2 {PL [2 dl1 3 dl2] LC2 DL} def
/LT3 {PL [1 dl1 1.5 dl2] LC3 DL} def
/LT4 {PL [6 dl1 2 dl2 1 dl1 2 dl2] LC4 DL} def
/LT5 {PL [3 dl1 3 dl2 1 dl1 3 dl2] LC5 DL} def
/LT6 {PL [2 dl1 2 dl2 2 dl1 6 dl2] LC6 DL} def
/LT7 {PL [1 dl1 2 dl2 6 dl1 2 dl2 1 dl1 2 dl2] LC7 DL} def
/LT8 {PL [2 dl1 2 dl2 2 dl1 2 dl2 2 dl1 2 dl2 2 dl1 4 dl2] LC8 DL} def
/Pnt {stroke [] 0 setdash gsave 1 setlinecap M 0 0 V stroke grestore} def
/Dia {stroke [] 0 setdash 2 copy vpt add M
  hpt neg vpt neg V hpt vpt neg V
  hpt vpt V hpt neg vpt V closepath stroke
  Pnt} def
/Pls {stroke [] 0 setdash vpt sub M 0 vpt2 V
  currentpoint stroke M
  hpt neg vpt neg R hpt2 0 V stroke
 } def
/Box {stroke [] 0 setdash 2 copy exch hpt sub exch vpt add M
  0 vpt2 neg V hpt2 0 V 0 vpt2 V
  hpt2 neg 0 V closepath stroke
  Pnt} def
/Crs {stroke [] 0 setdash exch hpt sub exch vpt add M
  hpt2 vpt2 neg V currentpoint stroke M
  hpt2 neg 0 R hpt2 vpt2 V stroke} def
/TriU {stroke [] 0 setdash 2 copy vpt 1.12 mul add M
  hpt neg vpt -1.62 mul V
  hpt 2 mul 0 V
  hpt neg vpt 1.62 mul V closepath stroke
  Pnt} def
/Star {2 copy Pls Crs} def
/BoxF {stroke [] 0 setdash exch hpt sub exch vpt add M
  0 vpt2 neg V hpt2 0 V 0 vpt2 V
  hpt2 neg 0 V closepath fill} def
/TriUF {stroke [] 0 setdash vpt 1.12 mul add M
  hpt neg vpt -1.62 mul V
  hpt 2 mul 0 V
  hpt neg vpt 1.62 mul V closepath fill} def
/TriD {stroke [] 0 setdash 2 copy vpt 1.12 mul sub M
  hpt neg vpt 1.62 mul V
  hpt 2 mul 0 V
  hpt neg vpt -1.62 mul V closepath stroke
  Pnt} def
/TriDF {stroke [] 0 setdash vpt 1.12 mul sub M
  hpt neg vpt 1.62 mul V
  hpt 2 mul 0 V
  hpt neg vpt -1.62 mul V closepath fill} def
/DiaF {stroke [] 0 setdash vpt add M
  hpt neg vpt neg V hpt vpt neg V
  hpt vpt V hpt neg vpt V closepath fill} def
/Pent {stroke [] 0 setdash 2 copy gsave
  translate 0 hpt M 4 {72 rotate 0 hpt L} repeat
  closepath stroke grestore Pnt} def
/PentF {stroke [] 0 setdash gsave
  translate 0 hpt M 4 {72 rotate 0 hpt L} repeat
  closepath fill grestore} def
/Circle {stroke [] 0 setdash 2 copy
  hpt 0 360 arc stroke Pnt} def
/CircleF {stroke [] 0 setdash hpt 0 360 arc fill} def
/C0 {BL [] 0 setdash 2 copy moveto vpt 90 450 arc} bind def
/C1 {BL [] 0 setdash 2 copy moveto
	2 copy vpt 0 90 arc closepath fill
	vpt 0 360 arc closepath} bind def
/C2 {BL [] 0 setdash 2 copy moveto
	2 copy vpt 90 180 arc closepath fill
	vpt 0 360 arc closepath} bind def
/C3 {BL [] 0 setdash 2 copy moveto
	2 copy vpt 0 180 arc closepath fill
	vpt 0 360 arc closepath} bind def
/C4 {BL [] 0 setdash 2 copy moveto
	2 copy vpt 180 270 arc closepath fill
	vpt 0 360 arc closepath} bind def
/C5 {BL [] 0 setdash 2 copy moveto
	2 copy vpt 0 90 arc
	2 copy moveto
	2 copy vpt 180 270 arc closepath fill
	vpt 0 360 arc} bind def
/C6 {BL [] 0 setdash 2 copy moveto
	2 copy vpt 90 270 arc closepath fill
	vpt 0 360 arc closepath} bind def
/C7 {BL [] 0 setdash 2 copy moveto
	2 copy vpt 0 270 arc closepath fill
	vpt 0 360 arc closepath} bind def
/C8 {BL [] 0 setdash 2 copy moveto
	2 copy vpt 270 360 arc closepath fill
	vpt 0 360 arc closepath} bind def
/C9 {BL [] 0 setdash 2 copy moveto
	2 copy vpt 270 450 arc closepath fill
	vpt 0 360 arc closepath} bind def
/C10 {BL [] 0 setdash 2 copy 2 copy moveto vpt 270 360 arc closepath fill
	2 copy moveto
	2 copy vpt 90 180 arc closepath fill
	vpt 0 360 arc closepath} bind def
/C11 {BL [] 0 setdash 2 copy moveto
	2 copy vpt 0 180 arc closepath fill
	2 copy moveto
	2 copy vpt 270 360 arc closepath fill
	vpt 0 360 arc closepath} bind def
/C12 {BL [] 0 setdash 2 copy moveto
	2 copy vpt 180 360 arc closepath fill
	vpt 0 360 arc closepath} bind def
/C13 {BL [] 0 setdash 2 copy moveto
	2 copy vpt 0 90 arc closepath fill
	2 copy moveto
	2 copy vpt 180 360 arc closepath fill
	vpt 0 360 arc closepath} bind def
/C14 {BL [] 0 setdash 2 copy moveto
	2 copy vpt 90 360 arc closepath fill
	vpt 0 360 arc} bind def
/C15 {BL [] 0 setdash 2 copy vpt 0 360 arc closepath fill
	vpt 0 360 arc closepath} bind def
/Rec {newpath 4 2 roll moveto 1 index 0 rlineto 0 exch rlineto
	neg 0 rlineto closepath} bind def
/Square {dup Rec} bind def
/Bsquare {vpt sub exch vpt sub exch vpt2 Square} bind def
/S0 {BL [] 0 setdash 2 copy moveto 0 vpt rlineto BL Bsquare} bind def
/S1 {BL [] 0 setdash 2 copy vpt Square fill Bsquare} bind def
/S2 {BL [] 0 setdash 2 copy exch vpt sub exch vpt Square fill Bsquare} bind def
/S3 {BL [] 0 setdash 2 copy exch vpt sub exch vpt2 vpt Rec fill Bsquare} bind def
/S4 {BL [] 0 setdash 2 copy exch vpt sub exch vpt sub vpt Square fill Bsquare} bind def
/S5 {BL [] 0 setdash 2 copy 2 copy vpt Square fill
	exch vpt sub exch vpt sub vpt Square fill Bsquare} bind def
/S6 {BL [] 0 setdash 2 copy exch vpt sub exch vpt sub vpt vpt2 Rec fill Bsquare} bind def
/S7 {BL [] 0 setdash 2 copy exch vpt sub exch vpt sub vpt vpt2 Rec fill
	2 copy vpt Square fill Bsquare} bind def
/S8 {BL [] 0 setdash 2 copy vpt sub vpt Square fill Bsquare} bind def
/S9 {BL [] 0 setdash 2 copy vpt sub vpt vpt2 Rec fill Bsquare} bind def
/S10 {BL [] 0 setdash 2 copy vpt sub vpt Square fill 2 copy exch vpt sub exch vpt Square fill
	Bsquare} bind def
/S11 {BL [] 0 setdash 2 copy vpt sub vpt Square fill 2 copy exch vpt sub exch vpt2 vpt Rec fill
	Bsquare} bind def
/S12 {BL [] 0 setdash 2 copy exch vpt sub exch vpt sub vpt2 vpt Rec fill Bsquare} bind def
/S13 {BL [] 0 setdash 2 copy exch vpt sub exch vpt sub vpt2 vpt Rec fill
	2 copy vpt Square fill Bsquare} bind def
/S14 {BL [] 0 setdash 2 copy exch vpt sub exch vpt sub vpt2 vpt Rec fill
	2 copy exch vpt sub exch vpt Square fill Bsquare} bind def
/S15 {BL [] 0 setdash 2 copy Bsquare fill Bsquare} bind def
/D0 {gsave translate 45 rotate 0 0 S0 stroke grestore} bind def
/D1 {gsave translate 45 rotate 0 0 S1 stroke grestore} bind def
/D2 {gsave translate 45 rotate 0 0 S2 stroke grestore} bind def
/D3 {gsave translate 45 rotate 0 0 S3 stroke grestore} bind def
/D4 {gsave translate 45 rotate 0 0 S4 stroke grestore} bind def
/D5 {gsave translate 45 rotate 0 0 S5 stroke grestore} bind def
/D6 {gsave translate 45 rotate 0 0 S6 stroke grestore} bind def
/D7 {gsave translate 45 rotate 0 0 S7 stroke grestore} bind def
/D8 {gsave translate 45 rotate 0 0 S8 stroke grestore} bind def
/D9 {gsave translate 45 rotate 0 0 S9 stroke grestore} bind def
/D10 {gsave translate 45 rotate 0 0 S10 stroke grestore} bind def
/D11 {gsave translate 45 rotate 0 0 S11 stroke grestore} bind def
/D12 {gsave translate 45 rotate 0 0 S12 stroke grestore} bind def
/D13 {gsave translate 45 rotate 0 0 S13 stroke grestore} bind def
/D14 {gsave translate 45 rotate 0 0 S14 stroke grestore} bind def
/D15 {gsave translate 45 rotate 0 0 S15 stroke grestore} bind def
/DiaE {stroke [] 0 setdash vpt add M
  hpt neg vpt neg V hpt vpt neg V
  hpt vpt V hpt neg vpt V closepath stroke} def
/BoxE {stroke [] 0 setdash exch hpt sub exch vpt add M
  0 vpt2 neg V hpt2 0 V 0 vpt2 V
  hpt2 neg 0 V closepath stroke} def
/TriUE {stroke [] 0 setdash vpt 1.12 mul add M
  hpt neg vpt -1.62 mul V
  hpt 2 mul 0 V
  hpt neg vpt 1.62 mul V closepath stroke} def
/TriDE {stroke [] 0 setdash vpt 1.12 mul sub M
  hpt neg vpt 1.62 mul V
  hpt 2 mul 0 V
  hpt neg vpt -1.62 mul V closepath stroke} def
/PentE {stroke [] 0 setdash gsave
  translate 0 hpt M 4 {72 rotate 0 hpt L} repeat
  closepath stroke grestore} def
/CircE {stroke [] 0 setdash 
  hpt 0 360 arc stroke} def
/Opaque {gsave closepath 1 setgray fill grestore 0 setgray closepath} def
/DiaW {stroke [] 0 setdash vpt add M
  hpt neg vpt neg V hpt vpt neg V
  hpt vpt V hpt neg vpt V Opaque stroke} def
/BoxW {stroke [] 0 setdash exch hpt sub exch vpt add M
  0 vpt2 neg V hpt2 0 V 0 vpt2 V
  hpt2 neg 0 V Opaque stroke} def
/TriUW {stroke [] 0 setdash vpt 1.12 mul add M
  hpt neg vpt -1.62 mul V
  hpt 2 mul 0 V
  hpt neg vpt 1.62 mul V Opaque stroke} def
/TriDW {stroke [] 0 setdash vpt 1.12 mul sub M
  hpt neg vpt 1.62 mul V
  hpt 2 mul 0 V
  hpt neg vpt -1.62 mul V Opaque stroke} def
/PentW {stroke [] 0 setdash gsave
  translate 0 hpt M 4 {72 rotate 0 hpt L} repeat
  Opaque stroke grestore} def
/CircW {stroke [] 0 setdash 
  hpt 0 360 arc Opaque stroke} def
/BoxFill {gsave Rec 1 setgray fill grestore} def
/Density {
  /Fillden exch def
  currentrgbcolor
  /ColB exch def /ColG exch def /ColR exch def
  /ColR ColR Fillden mul Fillden sub 1 add def
  /ColG ColG Fillden mul Fillden sub 1 add def
  /ColB ColB Fillden mul Fillden sub 1 add def
  ColR ColG ColB setrgbcolor} def
/BoxColFill {gsave Rec PolyFill} def
/PolyFill {gsave Density fill grestore grestore} def
/h {rlineto rlineto rlineto gsave closepath fill grestore} bind def
%
% PostScript Level 1 Pattern Fill routine for rectangles
% Usage: x y w h s a XX PatternFill
%	x,y = lower left corner of box to be filled
%	w,h = width and height of box
%	  a = angle in degrees between lines and x-axis
%	 XX = 0/1 for no/yes cross-hatch
%
/PatternFill {gsave /PFa [ 9 2 roll ] def
  PFa 0 get PFa 2 get 2 div add PFa 1 get PFa 3 get 2 div add translate
  PFa 2 get -2 div PFa 3 get -2 div PFa 2 get PFa 3 get Rec
  TransparentPatterns {} {gsave 1 setgray fill grestore} ifelse
  clip
  currentlinewidth 0.5 mul setlinewidth
  /PFs PFa 2 get dup mul PFa 3 get dup mul add sqrt def
  0 0 M PFa 5 get rotate PFs -2 div dup translate
  0 1 PFs PFa 4 get div 1 add floor cvi
	{PFa 4 get mul 0 M 0 PFs V} for
  0 PFa 6 get ne {
	0 1 PFs PFa 4 get div 1 add floor cvi
	{PFa 4 get mul 0 2 1 roll M PFs 0 V} for
 } if
  stroke grestore} def
%
/languagelevel where
 {pop languagelevel} {1} ifelse
 2 lt
	{/InterpretLevel1 true def}
	{/InterpretLevel1 Level1 def}
 ifelse
%
% PostScript level 2 pattern fill definitions
%
/Level2PatternFill {
/Tile8x8 {/PaintType 2 /PatternType 1 /TilingType 1 /BBox [0 0 8 8] /XStep 8 /YStep 8}
	bind def
/KeepColor {currentrgbcolor [/Pattern /DeviceRGB] setcolorspace} bind def
<< Tile8x8
 /PaintProc {0.5 setlinewidth pop 0 0 M 8 8 L 0 8 M 8 0 L stroke} 
>> matrix makepattern
/Pat1 exch def
<< Tile8x8
 /PaintProc {0.5 setlinewidth pop 0 0 M 8 8 L 0 8 M 8 0 L stroke
	0 4 M 4 8 L 8 4 L 4 0 L 0 4 L stroke}
>> matrix makepattern
/Pat2 exch def
<< Tile8x8
 /PaintProc {0.5 setlinewidth pop 0 0 M 0 8 L
	8 8 L 8 0 L 0 0 L fill}
>> matrix makepattern
/Pat3 exch def
<< Tile8x8
 /PaintProc {0.5 setlinewidth pop -4 8 M 8 -4 L
	0 12 M 12 0 L stroke}
>> matrix makepattern
/Pat4 exch def
<< Tile8x8
 /PaintProc {0.5 setlinewidth pop -4 0 M 8 12 L
	0 -4 M 12 8 L stroke}
>> matrix makepattern
/Pat5 exch def
<< Tile8x8
 /PaintProc {0.5 setlinewidth pop -2 8 M 4 -4 L
	0 12 M 8 -4 L 4 12 M 10 0 L stroke}
>> matrix makepattern
/Pat6 exch def
<< Tile8x8
 /PaintProc {0.5 setlinewidth pop -2 0 M 4 12 L
	0 -4 M 8 12 L 4 -4 M 10 8 L stroke}
>> matrix makepattern
/Pat7 exch def
<< Tile8x8
 /PaintProc {0.5 setlinewidth pop 8 -2 M -4 4 L
	12 0 M -4 8 L 12 4 M 0 10 L stroke}
>> matrix makepattern
/Pat8 exch def
<< Tile8x8
 /PaintProc {0.5 setlinewidth pop 0 -2 M 12 4 L
	-4 0 M 12 8 L -4 4 M 8 10 L stroke}
>> matrix makepattern
/Pat9 exch def
/Pattern1 {PatternBgnd KeepColor Pat1 setpattern} bind def
/Pattern2 {PatternBgnd KeepColor Pat2 setpattern} bind def
/Pattern3 {PatternBgnd KeepColor Pat3 setpattern} bind def
/Pattern4 {PatternBgnd KeepColor Landscape {Pat5} {Pat4} ifelse setpattern} bind def
/Pattern5 {PatternBgnd KeepColor Landscape {Pat4} {Pat5} ifelse setpattern} bind def
/Pattern6 {PatternBgnd KeepColor Landscape {Pat9} {Pat6} ifelse setpattern} bind def
/Pattern7 {PatternBgnd KeepColor Landscape {Pat8} {Pat7} ifelse setpattern} bind def
} def
%
%
%End of PostScript Level 2 code
%
/PatternBgnd {
  TransparentPatterns {} {gsave 1 setgray fill grestore} ifelse
} def
%
% Substitute for Level 2 pattern fill codes with
% grayscale if Level 2 support is not selected.
%
/Level1PatternFill {
/Pattern1 {0.250 Density} bind def
/Pattern2 {0.500 Density} bind def
/Pattern3 {0.750 Density} bind def
/Pattern4 {0.125 Density} bind def
/Pattern5 {0.375 Density} bind def
/Pattern6 {0.625 Density} bind def
/Pattern7 {0.875 Density} bind def
} def
%
% Now test for support of Level 2 code
%
Level1 {Level1PatternFill} {Level2PatternFill} ifelse
%
/Symbol-Oblique /Symbol findfont [1 0 .167 1 0 0] makefont
dup length dict begin {1 index /FID eq {pop pop} {def} ifelse} forall
currentdict end definefont pop
/MFshow {
   { dup 5 get 3 ge
     { 5 get 3 eq {gsave} {grestore} ifelse }
     {dup dup 0 get findfont exch 1 get scalefont setfont
     [ currentpoint ] exch dup 2 get 0 exch R dup 5 get 2 ne {dup dup 6
     get exch 4 get {Gshow} {stringwidth pop 0 R} ifelse }if dup 5 get 0 eq
     {dup 3 get {2 get neg 0 exch R pop} {pop aload pop M} ifelse} {dup 5
     get 1 eq {dup 2 get exch dup 3 get exch 6 get stringwidth pop -2 div
     dup 0 R} {dup 6 get stringwidth pop -2 div 0 R 6 get
     show 2 index {aload pop M neg 3 -1 roll neg R pop pop} {pop pop pop
     pop aload pop M} ifelse }ifelse }ifelse }
     ifelse }
   forall} def
/Gswidth {dup type /stringtype eq {stringwidth} {pop (n) stringwidth} ifelse} def
/MFwidth {0 exch { dup 5 get 3 ge { 5 get 3 eq { 0 } { pop } ifelse }
 {dup 3 get{dup dup 0 get findfont exch 1 get scalefont setfont
     6 get Gswidth pop add} {pop} ifelse} ifelse} forall} def
/MLshow { currentpoint stroke M
  0 exch R
  Blacktext {gsave 0 setgray MFshow grestore} {MFshow} ifelse } bind def
/MRshow { currentpoint stroke M
  exch dup MFwidth neg 3 -1 roll R
  Blacktext {gsave 0 setgray MFshow grestore} {MFshow} ifelse } bind def
/MCshow { currentpoint stroke M
  exch dup MFwidth -2 div 3 -1 roll R
  Blacktext {gsave 0 setgray MFshow grestore} {MFshow} ifelse } bind def
/XYsave    { [( ) 1 2 true false 3 ()] } bind def
/XYrestore { [( ) 1 2 true false 4 ()] } bind def
Level1 SuppressPDFMark or 
{} {
/SDict 10 dict def
systemdict /pdfmark known not {
  userdict /pdfmark systemdict /cleartomark get put
} if
SDict begin [
  /Title (results_netflix_model1.eps)
  /Subject (gnuplot plot)
  /Creator (gnuplot 4.6 patchlevel 6)
  /Author (cj)
%  /Producer (gnuplot)
%  /Keywords ()
  /CreationDate (Thu May 11 21:16:00 2017)
  /DOCINFO pdfmark
end
} ifelse
end
%%EndProlog
%%Page: 1 1
gnudict begin
gsave
doclip
50 50 translate
0.050 0.050 scale
0 setgray
newpath
(Helvetica) findfont 220 scalefont setfont
BackgroundColor 0 lt 3 1 roll 0 lt exch 0 lt or or not {BackgroundColor C 1.000 0 0 7200.00 5040.00 BoxColFill} if
1.000 UL
LTb
LCb setrgbcolor
1.000 UL
LTa
LCa setrgbcolor
1537 966 M
5266 0 V
stroke
LTb
LCb setrgbcolor
1537 966 M
-63 0 V
stroke
1342 966 M
[ [(Helvetica) 220.0 0.0 true true 0 ( 100000)]
] -73.3 MRshow
1.000 UL
LTb
LCb setrgbcolor
1537 1258 M
-31 0 V
31 171 R
-31 0 V
31 121 R
-31 0 V
31 94 R
-31 0 V
31 77 R
-31 0 V
31 65 R
-31 0 V
31 56 R
-31 0 V
31 50 R
-31 0 V
stroke
LTa
LCa setrgbcolor
1537 1936 M
5266 0 V
stroke
LTb
LCb setrgbcolor
1537 1936 M
-63 0 V
stroke
1342 1936 M
[ [(Helvetica) 220.0 0.0 true true 0 ( 1e+06)]
] -73.3 MRshow
1.000 UL
LTb
LCb setrgbcolor
1537 2228 M
-31 0 V
31 171 R
-31 0 V
31 121 R
-31 0 V
31 94 R
-31 0 V
31 77 R
-31 0 V
31 65 R
-31 0 V
31 56 R
-31 0 V
31 50 R
-31 0 V
stroke
LTa
LCa setrgbcolor
1537 2906 M
5266 0 V
stroke
LTb
LCb setrgbcolor
1537 2906 M
-63 0 V
stroke
1342 2906 M
[ [(Helvetica) 220.0 0.0 true true 0 ( 1e+07)]
] -73.3 MRshow
1.000 UL
LTb
LCb setrgbcolor
1537 3198 M
-31 0 V
31 171 R
-31 0 V
31 121 R
-31 0 V
31 94 R
-31 0 V
31 77 R
-31 0 V
31 65 R
-31 0 V
31 56 R
-31 0 V
31 50 R
-31 0 V
stroke
LTa
LCa setrgbcolor
1537 3876 M
5266 0 V
stroke
LTb
LCb setrgbcolor
1537 3876 M
-63 0 V
stroke
1342 3876 M
[ [(Helvetica) 220.0 0.0 true true 0 ( 1e+08)]
] -73.3 MRshow
1.000 UL
LTb
LCb setrgbcolor
2064 966 M
0 2910 R
stroke
2064 834 M
currentpoint gsave translate -45 rotate 0 0 moveto
[ [(Helvetica) 220.0 0.0 true true 0 (\(4,32\))]
] -73.3 MLshow
grestore
1.000 UL
LTb
LCb setrgbcolor
2590 966 M
0 2910 R
stroke
2590 834 M
currentpoint gsave translate -45 rotate 0 0 moveto
[ [(Helvetica) 220.0 0.0 true true 0 (\(4.64\))]
] -73.3 MLshow
grestore
1.000 UL
LTb
LCb setrgbcolor
3117 966 M
0 2910 R
stroke
3117 834 M
currentpoint gsave translate -45 rotate 0 0 moveto
[ [(Helvetica) 220.0 0.0 true true 0 (\(4,128\))]
] -73.3 MLshow
grestore
1.000 UL
LTb
LCb setrgbcolor
3643 966 M
0 2910 R
stroke
3643 834 M
currentpoint gsave translate -45 rotate 0 0 moveto
[ [(Helvetica) 220.0 0.0 true true 0 (\(4,256\))]
] -73.3 MLshow
grestore
1.000 UL
LTb
LCb setrgbcolor
4170 966 M
0 2910 R
stroke
4170 834 M
currentpoint gsave translate -45 rotate 0 0 moveto
[ [(Helvetica) 220.0 0.0 true true 0 (\(4,512\))]
] -73.3 MLshow
grestore
1.000 UL
LTb
LCb setrgbcolor
4697 966 M
0 2910 R
stroke
4697 834 M
currentpoint gsave translate -45 rotate 0 0 moveto
[ [(Helvetica) 220.0 0.0 true true 0 (\(4,1024\))]
] -73.3 MLshow
grestore
1.000 UL
LTb
LCb setrgbcolor
5223 966 M
0 2910 R
stroke
5223 834 M
currentpoint gsave translate -45 rotate 0 0 moveto
[ [(Helvetica) 220.0 0.0 true true 0 (\(4,2048\))]
] -73.3 MLshow
grestore
1.000 UL
LTb
LCb setrgbcolor
5750 966 M
0 2910 R
stroke
5750 834 M
currentpoint gsave translate -45 rotate 0 0 moveto
[ [(Helvetica) 220.0 0.0 true true 0 (\(4,4096\))]
] -73.3 MLshow
grestore
1.000 UL
LTb
LCb setrgbcolor
6276 966 M
0 2910 R
stroke
6276 834 M
currentpoint gsave translate -45 rotate 0 0 moveto
[ [(Helvetica) 220.0 0.0 true true 0 (\(4,8192\))]
] -73.3 MLshow
grestore
1.000 UL
LTb
LCb setrgbcolor
1.000 UL
LTb
LCb setrgbcolor
1537 3876 N
0 -2910 V
5266 0 V
0 2910 V
-5266 0 V
Z stroke
LCb setrgbcolor
176 2421 M
currentpoint gsave translate -270 rotate 0 0 moveto
[ [(Helvetica) 220.0 0.0 true true 0 (Cost [log scale])]
] -73.3 MCshow
grestore
LTb
1.000 UP
1.000 UL
LTb
LCb setrgbcolor
% Begin plot #1
1.000 UL
LT0
0.84 0.37 0.00 C LCb setrgbcolor
5525 4867 M
[ [(Helvetica) 220.0 0.0 true true 0 (reuse-before-reordering)]
] -73.3 MRshow
LT0
0.84 0.37 0.00 C 5657 4812 591 110 80 45 0 PatternFill
5657 4812 N
591 0 V
0 110 V
-591 0 V
0 -110 V
Z stroke
LT0
0.84 0.37 0.00 C 0.84 0.37 0.00 C 1932 966 89 1334 80 45 0 PatternFill
1932 966 N
0 1333 V
88 0 V
0 -1333 V
-88 0 V
Z stroke
0.84 0.37 0.00 C 2459 966 88 1334 80 45 0 PatternFill
2459 966 N
0 1333 V
87 0 V
0 -1333 V
-87 0 V
Z stroke
0.84 0.37 0.00 C 2985 966 89 1334 80 45 0 PatternFill
2985 966 N
0 1333 V
88 0 V
0 -1333 V
-88 0 V
Z stroke
0.84 0.37 0.00 C 3512 966 89 1334 80 45 0 PatternFill
3512 966 N
0 1333 V
88 0 V
0 -1333 V
-88 0 V
Z stroke
0.84 0.37 0.00 C 4038 966 89 1334 80 45 0 PatternFill
4038 966 N
0 1333 V
88 0 V
0 -1333 V
-88 0 V
Z stroke
0.84 0.37 0.00 C 4565 966 89 1334 80 45 0 PatternFill
4565 966 N
0 1333 V
88 0 V
0 -1333 V
-88 0 V
Z stroke
0.84 0.37 0.00 C 5092 966 88 1334 80 45 0 PatternFill
5092 966 N
0 1333 V
87 0 V
0 -1333 V
-87 0 V
Z stroke
0.84 0.37 0.00 C 5618 966 89 1334 80 45 0 PatternFill
5618 966 N
0 1333 V
88 0 V
0 -1333 V
-88 0 V
Z stroke
0.84 0.37 0.00 C 6145 966 89 1334 80 45 0 PatternFill
6145 966 N
0 1333 V
88 0 V
0 -1333 V
-88 0 V
Z stroke
% End plot #1
% Begin plot #2
1.000 UL
LT1
0.34 0.71 0.91 C LCb setrgbcolor
5525 4647 M
[ [(Helvetica) 220.0 0.0 true true 0 (reduction-before-reordering)]
] -73.3 MRshow
LT1
0.34 0.71 0.91 C 5657 4592 591 110 80 -45 0 PatternFill
5657 4592 N
591 0 V
0 110 V
-591 0 V
0 -110 V
Z stroke
LT1
0.34 0.71 0.91 C 0.34 0.71 0.91 C 2020 966 88 2732 80 -45 0 PatternFill
2020 966 N
0 2731 V
87 0 V
0 -2731 V
-87 0 V
Z stroke
0.34 0.71 0.91 C 2546 966 89 2617 80 -45 0 PatternFill
2546 966 N
0 2616 V
88 0 V
0 -2616 V
-88 0 V
Z stroke
0.34 0.71 0.91 C 3073 966 89 2461 80 -45 0 PatternFill
3073 966 N
0 2460 V
88 0 V
0 -2460 V
-88 0 V
Z stroke
0.34 0.71 0.91 C 3600 966 88 2270 80 -45 0 PatternFill
3600 966 N
0 2269 V
87 0 V
0 -2269 V
-87 0 V
Z stroke
0.34 0.71 0.91 C 4126 966 89 2044 80 -45 0 PatternFill
4126 966 N
0 2043 V
88 0 V
0 -2043 V
-88 0 V
Z stroke
0.34 0.71 0.91 C 4653 966 88 1793 80 -45 0 PatternFill
4653 966 N
0 1792 V
87 0 V
0 -1792 V
-87 0 V
Z stroke
0.34 0.71 0.91 C 5179 966 89 1505 80 -45 0 PatternFill
5179 966 N
0 1504 V
88 0 V
0 -1504 V
-88 0 V
Z stroke
0.34 0.71 0.91 C 5706 966 89 1224 80 -45 0 PatternFill
5706 966 N
0 1223 V
88 0 V
0 -1223 V
-88 0 V
Z stroke
0.34 0.71 0.91 C 6233 966 88 935 80 -45 0 PatternFill
6233 966 N
0 934 V
87 0 V
0 -934 V
-87 0 V
Z stroke
% End plot #2
% Begin plot #3
1.000 UL
LT2
0.00 0.62 0.45 C LCb setrgbcolor
5525 4427 M
[ [(Helvetica) 220.0 0.0 true true 0 (reuse-after-reordering)]
] -73.3 MRshow
LT2
0.00 0.62 0.45 C 5657 4372 591 110 80 -45 1 PatternFill
5657 4372 N
591 0 V
0 110 V
-591 0 V
0 -110 V
Z stroke
LT2
0.00 0.62 0.45 C 0.00 0.62 0.45 C 2107 966 89 1437 80 -45 1 PatternFill
2107 966 N
0 1436 V
88 0 V
0 -1436 V
-88 0 V
Z stroke
0.00 0.62 0.45 C 2634 966 89 1437 80 -45 1 PatternFill
2634 966 N
0 1436 V
88 0 V
0 -1436 V
-88 0 V
Z stroke
0.00 0.62 0.45 C 3161 966 88 1437 80 -45 1 PatternFill
3161 966 N
0 1436 V
87 0 V
0 -1436 V
-87 0 V
Z stroke
0.00 0.62 0.45 C 3687 966 89 1437 80 -45 1 PatternFill
3687 966 N
0 1436 V
88 0 V
0 -1436 V
-88 0 V
Z stroke
0.00 0.62 0.45 C 4214 966 89 1437 80 -45 1 PatternFill
4214 966 N
0 1436 V
88 0 V
0 -1436 V
-88 0 V
Z stroke
0.00 0.62 0.45 C 4740 966 89 1437 80 -45 1 PatternFill
4740 966 N
0 1436 V
88 0 V
0 -1436 V
-88 0 V
Z stroke
0.00 0.62 0.45 C 5267 966 89 1437 80 -45 1 PatternFill
5267 966 N
0 1436 V
88 0 V
0 -1436 V
-88 0 V
Z stroke
0.00 0.62 0.45 C 5794 966 88 1437 80 -45 1 PatternFill
5794 966 N
0 1436 V
87 0 V
0 -1436 V
-87 0 V
Z stroke
0.00 0.62 0.45 C 6320 966 89 1437 80 -45 1 PatternFill
6320 966 N
0 1436 V
88 0 V
0 -1436 V
-88 0 V
Z stroke
% End plot #3
% Begin plot #4
1.000 UL
LT3
0.80 0.47 0.65 C LCb setrgbcolor
5525 4207 M
[ [(Helvetica) 220.0 0.0 true true 0 (reduction-after-reordering)]
] -73.3 MRshow
LT3
0.80 0.47 0.65 C 5657 4152 591 110 40 45 2 PatternFill
5657 4152 N
591 0 V
0 110 V
-591 0 V
0 -110 V
Z stroke
LT3
0.80 0.47 0.65 C 0.80 0.47 0.65 C 2195 966 89 2375 40 45 2 PatternFill
2195 966 N
0 2374 V
88 0 V
0 -2374 V
-88 0 V
Z stroke
0.80 0.47 0.65 C 2722 966 89 2217 40 45 2 PatternFill
2722 966 N
0 2216 V
88 0 V
0 -2216 V
-88 0 V
Z stroke
0.80 0.47 0.65 C 3248 966 89 2046 40 45 2 PatternFill
3248 966 N
0 2045 V
88 0 V
0 -2045 V
-88 0 V
Z stroke
0.80 0.47 0.65 C 3775 966 89 1860 40 45 2 PatternFill
3775 966 N
0 1859 V
88 0 V
0 -1859 V
-88 0 V
Z stroke
0.80 0.47 0.65 C 4302 966 88 1656 40 45 2 PatternFill
4302 966 N
0 1655 V
87 0 V
0 -1655 V
-87 0 V
Z stroke
0.80 0.47 0.65 C 4828 966 89 1430 40 45 2 PatternFill
4828 966 N
0 1429 V
88 0 V
0 -1429 V
-88 0 V
Z stroke
0.80 0.47 0.65 C 5355 966 89 1175 40 45 2 PatternFill
5355 966 N
0 1174 V
88 0 V
0 -1174 V
-88 0 V
Z stroke
0.80 0.47 0.65 C 5881 966 89 874 40 45 2 PatternFill
5881 966 N
0 873 V
88 0 V
0 -873 V
-88 0 V
Z stroke
0.80 0.47 0.65 C 6408 966 89 478 40 45 2 PatternFill
6408 966 N
0 477 V
88 0 V
0 -477 V
-88 0 V
Z stroke
% End plot #4
1.000 UL
LTb
LCb setrgbcolor
1537 3876 N
0 -2910 V
5266 0 V
0 2910 V
-5266 0 V
Z stroke
1.000 UP
1.000 UL
LTb
LCb setrgbcolor
stroke
grestore
end
showpage
%%Trailer
%%DocumentFonts: Helvetica
